Result,,Off,Off,Off,Off,Off,Off,Off
Upper limit,,,,,,,,
Standard,,,,,,,,
Lower limit,,,,,,,,
,,,,,,,,
#,,5,5,5,5,5,5,5
Average,,14.6791,9.6899,24.3691,4.1181,5.1994,19.6911,2.03
Max.,,16.6752,14.4369,29.5665,5.6891,7.025,26.4684,2.3649
Min.,,10.8168,5.6359,16.4527,2.3747,3.2285,11.597,1.6523
Range,,5.8584,8.801,13.1139,3.3144,3.7964,14.8714,0.7127
Sigma,,2.4076,3.454,4.8266,1.1849,1.3606,5.8703,0.2703
3 Sigma,,7.2229,10.362,14.4799,3.5547,4.0817,17.611,0.811
,,,,,,,,
#,Judge,Rp,Rv,Rz,Ra,Rq,RSm,Rdq
1,,14.146,11.7931,25.9391,3.9671,4.901,26.4684,2.0049
2,,15.1297,14.4369,29.5665,5.6891,7.025,22.3574,2.1953
3,,16.6279,8.7499,25.3778,4.4089,5.4296,22.0476,1.9324
4,,10.8168,5.6359,16.4527,2.3747,3.2285,11.597,1.6523
5,,16.6752,7.834,24.5092,4.1507,5.413,15.985,2.3649
,,,,,,,,
,,,,,4.1181,,,
,,,,,1.18489587728205,,,
