c:\users\heydari_m\switchdrive\documents\academic\phd\teaching\gregory\2021.02.25_gregory_sample_1.vms						
O1s						
	Characteristic Energy eV	1486,61	Acquisition Time s	0,5		
KE_O1s	BE_O1s	CPS_O1s	O 1s_1_O1s	O 1s_2_O1s	Background_O1s	Envelope_O1s
936,61	550	1520,58	1522,05	1521,3	1520,58	1522,76
936,71	549,9	1461,25	1462,75	1461,99	1461,25	1463,48
936,81	549,8	1502,17	1503,69	1502,92	1502,17	1504,44
936,91	549,7	1389,66	1391,21	1390,43	1389,66	1391,98
937,01	549,6	1379,24	1380,82	1380,03	1379,24	1381,61
937,11	549,5	1399,89	1401,5	1400,7	1399,89	1402,32
937,21	549,4	1427,55	1429,19	1428,39	1427,55	1430,03
937,31	549,3	1430,92	1432,59	1431,78	1430,92	1433,45
937,41	549,2	1435,22	1436,92	1436,1	1435,22	1437,8
937,51	549,1	1346,92	1348,68	1347,82	1346,92	1349,58
937,61	549	1400,13	1401,94	1401,06	1400,13	1402,87
937,71	548,9	1299,35	1301,22	1300,3	1299,35	1302,16
937,81	548,8	1353,19	1355,1	1354,15	1353,19	1356,07
937,91	548,7	1381,4	1383,37	1382,39	1381,4	1384,36
938,01	548,6	1310,48	1312,51	1311,5	1310,48	1313,52
938,11	548,5	1323,89	1325,97	1324,94	1323,89	1327,02
938,21	548,4	1286,92	1289,05	1288	1286,92	1290,14
938,31	548,3	1329,68	1331,87	1330,8	1329,68	1332,98
938,41	548,2	1333,41	1335,65	1334,56	1333,41	1336,8
938,51	548,1	1298,53	1300,83	1299,72	1298,53	1302,01
938,61	548	1189,56	1191,91	1190,77	1189,56	1193,12
938,71	547,9	1343,77	1346,17	1345,02	1343,77	1347,42
938,81	547,8	1258,55	1261,01	1259,83	1258,55	1262,29
938,91	547,7	1279,07	1281,58	1280,39	1279,07	1282,9
939,01	547,6	1333,01	1335,58	1334,36	1333,01	1336,93
939,11	547,5	1266,91	1269,52	1268,29	1266,91	1270,91
939,21	547,4	1200,93	1203,6	1202,36	1200,93	1205,04
939,31	547,3	1210,38	1213,1	1211,86	1210,38	1214,59
939,41	547,2	1291,6	1294,38	1293,14	1291,6	1295,92
939,51	547,1	1137,46	1140,36	1139,06	1137,46	1141,95
939,61	547	1266,44	1269,45	1268,09	1266,44	1271,1
939,71	546,9	1186,22	1189,34	1187,92	1186,22	1191,05
939,81	546,8	1217,27	1220,5	1219,02	1217,27	1222,26
939,91	546,7	1235,61	1238,96	1237,42	1235,61	1240,77
940,01	546,6	1119,65	1123,11	1121,51	1119,65	1124,97
940,11	546,5	1128,19	1131,77	1130,11	1128,19	1133,68
940,21	546,4	1156,1	1159,79	1158,07	1156,1	1161,76
940,31	546,3	1146,57	1150,37	1148,59	1146,57	1152,39
940,41	546,2	1173,81	1177,73	1175,93	1173,81	1179,84
940,51	546,1	1072,16	1076,18	1074,37	1072,16	1078,39
940,61	546	1130,79	1134,93	1133,09	1130,79	1137,23
940,71	545,9	1167,96	1172,21	1170,35	1167,96	1174,6
940,81	545,8	1085,45	1089,81	1087,93	1085,45	1092,29
940,91	545,7	1091,72	1096,2	1094,29	1091,72	1098,77
941,01	545,6	1140,62	1145,2	1143,28	1140,62	1147,87
941,11	545,5	1067,48	1072,18	1070,23	1067,48	1074,93
941,21	545,4	1061,96	1066,77	1064,8	1061,96	1069,62
941,31	545,3	1069,12	1074,05	1072,05	1069,12	1076,98
941,41	545,2	1065,36	1070,4	1068,38	1065,36	1073,42
941,51	545,1	1059,41	1064,62	1062,56	1059,41	1067,77
941,61	545	1033,05	1038,43	1036,37	1033,05	1041,75
941,71	544,9	1004,65	1010,22	1008,14	1004,65	1013,71
941,81	544,8	1025,15	1030,91	1028,8	1025,15	1034,57
941,91	544,7	1002,04	1008,01	1005,86	1002,04	1011,83
942,01	544,6	1028,29	1034,48	1032,28	1028,29	1038,47
942,11	544,5	1022,7	1029,11	1026,86	1022,7	1033,27
942,21	544,4	968,8	975,449	973,126	968,8	979,776
942,31	544,3	992,616	999,515	997,11	992,616	1004,01
942,41	544,2	974,168	981,329	978,831	974,168	985,992
942,51	544,1	914,456	935,273	932,666	927,835	940,103
942,61	544	894,882	934,465	931,735	926,736	939,464
942,71	543,9	970,526	933,646	930,92	925,611	938,955
942,81	543,8	958,202	932,82	930,122	924,461	938,481
942,91	543,7	909,84	931,986	929,298	923,285	938
943,01	543,6	860,356	931,146	928,449	922,083	937,512
943,11	543,5	901,59	930,301	927,573	920,854	937,019
943,21	543,4	940,144	929,451	926,67	919,599	936,522
943,31	543,3	964,97	928,601	925,741	918,318	936,024
943,41	543,2	1033,84	927,751	924,787	917,012	935,527
943,51	543,1	994,498	926,906	923,809	915,68	935,034
943,61	543	894,836	926,066	922,805	914,324	934,547
943,71	542,9	952,9	925,235	921,775	912,942	934,068
943,81	542,8	938,52	924,414	920,733	911,533	933,614
943,91	542,7	903,406	923,608	919,845	910,099	933,354
944,01	542,6	960,972	922,82	918,975	908,639	933,157
944,11	542,5	896,614	922,055	918,131	907,154	933,032
944,21	542,4	890,632	921,316	917,315	905,642	932,99
944,31	542,3	892,628	920,61	916,536	904,104	933,042
944,41	542,2	878,984	919,942	915,8	902,541	933,202
944,51	542,1	913,486	919,319	915,115	900,951	933,483
944,61	542	894,192	918,75	914,492	899,336	933,906
944,71	541,9	924,432	918,242	913,941	897,695	934,488
944,81	541,8	915,558	917,807	913,477	896,029	935,255
944,91	541,7	874,238	917,455	913,114	894,338	936,231
945,01	541,6	869,798	917,199	912,872	892,622	937,449
945,11	541,5	938,018	917,054	912,77	890,881	938,943
945,21	541,4	903,664	917,036	912,836	889,115	940,756
945,31	541,3	904,412	917,163	913,101	887,325	942,939
945,41	541,2	890,108	917,457	913,6	885,511	945,546
945,51	541,1	865,99	917,94	914,387	883,673	948,654
945,61	541	894,69	918,638	915,508	881,81	952,335
945,71	540,9	899,57	919,582	917,043	879,924	956,701
945,81	540,8	884,784	920,805	919,074	878,015	961,864
945,91	540,7	917,788	922,346	921,709	876,082	967,973
946,01	540,6	889,168	924,247	925,089	874,127	975,21
946,11	540,5	908,524	926,558	929,357	872,149	983,766
946,21	540,4	886,386	929,331	934,753	870,15	993,935
946,31	540,3	887,406	932,628	941,482	868,128	1005,98
946,41	540,2	916,492	936,515	949,885	866,085	1020,31
946,51	540,1	916,946	941,066	960,325	864,021	1037,37
946,61	540	964,118	946,364	973,256	861,936	1057,68
946,71	539,9	933,268	952,499	989,286	859,832	1081,95
946,81	539,8	972,738	959,568	1008,99	857,708	1110,85
946,91	539,7	929,95	967,679	1033,31	855,566	1145,42
947,01	539,6	1010,29	976,946	1063,01	853,405	1186,55
947,11	539,5	1093,78	987,494	1099,26	851,226	1235,52
947,21	539,4	1221,23	999,456	1143,21	849,032	1293,64
947,31	539,3	1160,46	1012,97	1196,11	846,824	1362,26
947,41	539,2	1260,8	1028,19	1259,58	844,602	1443,17
947,51	539,1	1345,91	1045,26	1334,78	842,367	1537,68
947,61	539	1529,93	1064,35	1423,56	840,121	1647,79
947,71	538,9	1676,9	1085,61	1527,04	837,868	1774,78
947,81	538,8	1815,69	1109,22	1646,62	835,608	1920,23
947,91	538,7	1896,43	1135,32	1783,4	833,346	2085,38
948,01	538,6	2170,04	1164,09	1937,75	831,081	2270,76
948,11	538,5	2467,12	1195,67	2110,4	828,819	2477,25
948,21	538,4	2683,78	1230,21	2300,35	826,563	2703,99
948,31	538,3	2954,72	1267,83	2506,94	824,317	2950,45
948,41	538,2	3335,7	1308,64	2728,01	822,085	3214,57
948,51	538,1	3534,4	1352,76	2960,9	819,872	3493,79
948,61	538	3861,7	1400,22	3202,11	817,681	3784,65
948,71	537,9	4148,92	1451,05	3447,17	815,517	4082,71
948,81	537,8	4435,28	1505,27	3691	813,384	4382,88
948,91	537,7	4734,36	1562,81	3928,04	811,287	4679,57
949,01	537,6	5095,02	1623,59	4152,14	809,229	4966,51
949,11	537,5	5315,78	1687,49	4357,3	807,216	5237,57
949,21	537,4	5400,28	1754,31	4537,71	805,251	5486,77
949,31	537,3	5838,8	1823,82	4687,39	803,335	5707,88
949,41	537,2	5961,86	1895,73	4802,49	801,476	5896,75
949,51	537,1	6113,62	1969,7	4878,06	799,674	6048,09
949,61	537	6220	2045,34	4912,69	797,932	6160,09
949,71	536,9	6178,44	2122,18	4904,53	796,252	6230,46
949,81	536,8	6084,32	2199,74	4853,92	794,634	6259,03
949,91	536,7	6144,08	2277,46	4762,9	793,077	6247,28
950,01	536,6	6098,76	2354,78	4633,46	791,582	6196,66
950,11	536,5	6083,34	2431,07	4470,76	790,149	6111,68
950,21	536,4	5925,04	2505,7	4278,87	788,778	5995,79
950,31	536,3	5777,5	2578,01	4064,05	787,467	5854,59
950,41	536,2	5570,48	2647,33	3832,09	786,215	5693,2
950,51	536,1	5464,9	2713	3589,08	785,019	5517,06
950,61	536	5312,66	2774,37	3341,02	783,878	5331,51
950,71	535,9	5144,08	2830,82	3093,38	782,791	5141,41
950,81	535,8	4955,22	2881,76	2850,98	781,756	4950,98
950,91	535,7	4833,04	2926,65	2618,12	780,77	4764
951,01	535,6	4722,94	2964,98	2398	779,833	4583,14
951,11	535,5	4592,12	2996,34	2193,08	778,942	4410,48
951,21	535,4	4350	3020,37	2005,22	778,097	4247,49
951,31	535,3	4257,56	3036,79	1834,88	777,295	4094,37
951,41	535,2	4042,58	3045,4	1682,92	776,534	3951,79
951,51	535,1	4057,38	3046,11	1548,38	775,812	3818,68
951,61	535	3783,18	3038,89	1430,85	775,13	3694,6
951,71	534,9	3564,64	3023,81	1329,06	774,483	3578,38
951,81	534,8	3480,86	3001,03	1241,63	773,87	3468,79
951,91	534,7	3467,16	2970,81	1167,34	773,29	3364,86
952,01	534,6	3290,66	2933,46	1104,38	772,741	3265,1
952,11	534,5	3216,94	2889,38	1051,64	772,224	3168,8
952,21	534,4	3052,04	2839,05	1007,45	771,735	3074,76
952,31	534,3	2967,76	2782,98	970,656	771,274	2982,36
952,41	534,2	2789,36	2721,75	940,099	770,839	2891,01
952,51	534,1	2656,74	2655,96	914,699	770,429	2800,23
952,61	534	2459,68	2586,26	893,682	770,041	2709,9
952,71	533,9	2451,98	2513,29	876,172	769,674	2619,79
952,81	533,8	2515	2437,73	861,627	769,327	2530,03
952,91	533,7	2203,76	2360,23	849,46	769,001	2440,69
953,01	533,6	2212,22	2281,43	839,25	768,692	2351,99
953,11	533,5	2201,88	2201,97	830,649	768,4	2264,21
953,21	533,4	2044,02	2122,42	823,344	768,126	2177,64
953,31	533,3	1994,97	2043,35	817,136	767,867	2092,62
953,41	533,2	1866,1	1965,28	811,801	767,623	2009,45
953,51	533,1	1896,77	1888,66	807,205	767,392	1928,47
953,61	533	1800,11	1813,92	803,214	767,174	1849,96
953,71	532,9	1723,53	1741,42	799,727	766,969	1774,17
953,81	532,8	1783,93	1671,47	796,666	766,776	1701,36
953,91	532,7	1702,32	1604,33	793,957	766,595	1631,69
954,01	532,6	1525,4	1540,2	791,557	766,425	1565,33
954,11	532,5	1517,85	1479,24	789,411	766,264	1502,39
954,21	532,4	1469,53	1421,56	787,489	766,112	1442,94
954,31	532,3	1361,36	1367,22	785,759	765,969	1387,01
954,41	532,2	1440,73	1316,23	784,194	765,832	1334,59
954,51	532,1	1415,73	1268,59	782,778	765,704	1285,66
954,61	532	1391,6	1224,25	781,49	765,584	1240,15
954,71	531,9	1280,96	1183,13	780,319	765,471	1197,97
954,81	531,8	1330,58	1145,13	779,247	765,364	1159,01
954,91	531,7	1250,75	1110,13	778,266	765,264	1123,14
955,01	531,6	1203,09	1078,01	777,367	765,17	1090,2
955,11	531,5	1231,58	1048,6	776,538	765,081	1060,06
955,21	531,4	1175,72	1021,77	775,777	764,997	1032,55
955,31	531,3	1142,15	997,345	775,072	764,919	1007,5
955,41	531,2	1069,75	975,168	774,422	764,845	984,745
955,51	531,1	1141,18	955,077	773,854	764,774	964,156
955,61	531	1126,54	936,914	773,436	764,708	945,641
955,71	530,9	1163,61	920,525	773,021	764,647	928,9
955,81	530,8	1071,68	905,763	772,612	764,59	913,785
955,91	530,7	1060,93	892,483	772,207	764,537	900,153
956,01	530,6	993,648	880,552	771,804	764,487	887,869
956,11	530,5	970,362	869,842	771,405	764,44	876,807
956,21	530,4	989,146	860,235	771,008	764,396	866,847
956,31	530,3	990,476	851,623	770,613	764,354	857,883
956,41	530,2	957,762	843,904	770,222	764,314	849,811
956,51	530,1	894,578	836,986	769,832	764,277	842,54
956,61	530	855,72	830,783	769,444	764,242	835,985
956,71	529,9	889,2	825,219	769,155	764,207	830,167
956,81	529,8	818,832	820,224	768,954	764,173	825,004
956,91	529,7	806,012	815,736	768,753	764,141	820,348
957,01	529,6	852,114	811,699	768,552	764,108	816,143
957,11	529,5	855,312	808,063	768,352	764,076	812,339
957,21	529,4	906,58	804,783	768,153	764,046	808,891
957,31	529,3	859,504	801,821	767,956	764,017	805,76
957,41	529,2	832,84	799,14	767,76	763,989	802,911
957,51	529,1	846,972	796,709	767,564	763,961	800,312
957,61	529	864,558	794,502	767,37	763,935	797,937
957,71	528,9	871,184	792,494	767,176	763,91	795,761
957,81	528,8	828,952	790,664	766,984	763,885	793,763
957,91	528,7	818,728	788,993	766,858	763,862	791,989
958,01	528,6	766,85	787,463	766,744	763,839	790,368
958,11	528,5	806,954	786,059	766,631	763,816	788,874
958,21	528,4	784,312	784,769	766,517	763,794	787,493
958,31	528,3	857,134	783,58	766,404	763,771	786,213
958,41	528,2	806,718	782,483	766,292	763,75	785,025
958,51	528,1	756,902	781,468	766,18	763,729	783,92
958,61	528	814,998	780,526	766,069	763,707	782,887
958,71	527,9	869,436	779,652	765,957	763,687	781,922
958,81	527,8	824,348	778,839	765,847	763,667	781,019
958,91	527,7	875,676	778,082	765,738	763,649	780,171
959,01	527,6	842,98	777,376	765,636	763,631	779,38
959,11	527,5	777,65	776,716	765,566	763,615	778,667
959,21	527,4	794,106	776,098	765,496	763,598	777,995
959,31	527,3	750,306	775,518	765,427	763,582	777,362
959,41	527,2	790,794	774,973	765,357	763,566	776,764
959,51	527,1	785,188	774,46	765,288	763,55	776,198
959,61	527	815,184	773,977	765,218	763,534	775,662
959,71	526,9	786,242	773,522	765,15	763,518	775,154
959,81	526,8	735,418	773,093	765,081	763,503	774,671
959,91	526,7	759,06	772,686	765,013	763,488	774,211
960,01	526,6	744,106	772,302	764,944	763,473	773,773
960,11	526,5	720,588	771,937	764,876	763,457	773,356
960,21	526,4	757,258	771,591	764,816	763,442	772,966
960,31	526,3	782,46	771,263	764,768	763,426	772,604
960,41	526,2	811,02	770,951	764,719	763,411	772,259
960,51	526,1	836,94	770,655	764,671	763,396	771,929
960,61	526	772,758	770,374	764,623	763,382	771,615
960,71	525,9	739,566	770,106	764,576	763,368	771,313
960,81	525,8	754,068	769,85	764,529	763,354	771,025
960,91	525,7	800,95	769,607	764,481	763,34	770,747
961,01	525,6	813,132	769,374	764,434	763,327	770,482
961,11	525,5	853,768	769,153	764,388	763,314	770,227
961,21	525,4	792,998	768,942	764,343	763,302	769,983
961,31	525,3	833,496	768,741	764,298	763,29	769,748
961,41	525,2	793,386	768,549	764,263	763,28	769,532
961,51	525,1	725,94	768,365	764,23	763,269	769,327
961,61	525	725,86	768,227	764,198	763,259	769,166
961,71	524,9	826,758	768,104	764,166	763,249	769,021
961,81	524,8	767,822	767,981	764,134	763,239	768,876
961,91	524,7	770,536	767,859	764,103	763,229	768,732
962,01	524,6	794,616	767,736	764,071	763,22	768,587
962,11	524,5	827,582	767,614	764,04	763,211	768,443
962,21	524,4	792,74	767,493	764,01	763,202	768,3
962,31	524,3	763,112	767,372	763,98	763,194	768,157
962,41	524,2	817,926	767,251	763,95	763,186	768,014
962,51	524,1	813,136	767,131	763,921	763,179	767,873
962,61	524	792,788	767,011	763,899	763,172	767,738
962,71	523,9	773,066	766,892	763,878	763,166	767,604
962,81	523,8	753,252	766,773	763,857	763,16	767,47
962,91	523,7	762,238	766,654	763,836	763,154	767,336
963,01	523,6	813,648	766,535	763,814	763,148	767,201
963,11	523,5	798,14	766,416	763,794	763,142	767,068
963,21	523,4	874,602	766,298	763,774	763,137	766,935
963,31	523,3	862,472	766,182	763,755	763,133	766,803
963,41	523,2	791,926	766,066	763,737	763,131	766,673
963,51	523,1	793,278	765,951	763,72	763,129	766,543
963,61	523	715,21	765,873	763,703	763,127	766,449
963,71	522,9	819,524	765,817	763,689	763,125	766,38
963,81	522,8	814,346	765,763	763,677	763,125	766,315
963,91	522,7	760,446	765,708	763,666	763,124	766,25
964,01	522,6	783,786	765,654	763,655	763,124	766,185
964,11	522,5	745,14	747,616	745,661	745,14	748,137
964,21	522,4	839,506	841,928	840,016	839,506	842,438
964,31	522,3	793,214	795,583	793,713	793,214	796,082
964,41	522,2	833,904	836,219	834,393	833,904	836,707
964,51	522,1	793,49	795,751	793,968	793,49	796,229
964,61	522	767,27	769,477	767,737	767,27	769,944
964,71	521,9	767,26	769,413	767,717	767,26	769,87
964,81	521,8	789,53	791,629	789,976	789,53	792,075
964,91	521,7	743,088	745,133	743,525	743,088	745,571
965,01	521,6	812,734	814,725	813,164	812,734	815,155
965,11	521,5	768,318	770,256	768,74	768,318	770,677
965,21	521,4	777,41	779,294	777,824	777,41	779,708
965,31	521,3	814,704	816,534	815,11	814,704	816,94
965,41	521,2	836,954	838,73	837,353	836,954	839,128
965,51	521,1	779,852	781,574	780,243	779,852	781,965
965,61	521	782,722	784,402	783,105	782,722	784,785
965,71	520,9	776,19	777,841	776,565	776,19	778,217
965,81	520,8	834,162	835,784	834,529	834,162	836,152
965,91	520,7	798,944	800,537	799,304	798,944	800,897
966,01	520,6	760,274	761,838	760,626	760,274	762,19
966,11	520,5	740,564	742,099	740,91	740,564	742,445
966,21	520,4	789,932	791,438	790,272	789,932	791,779
966,31	520,3	814,272	815,749	814,607	814,272	816,084
966,41	520,2	746,524	747,972	746,853	746,524	748,301
966,51	520,1	776,734	778,153	777,057	776,734	778,476
966,61	520	778,35	779,74	778,667	778,35	780,057
966,71	519,9	761,536	762,897	761,848	761,536	763,208
966,81	519,8	767,54	768,872	767,846	767,54	769,178
966,91	519,7	750,486	751,789	750,786	750,486	752,089
967,01	519,6	728,558	729,832	728,852	728,558	730,126
967,11	519,5	736,766	738,011	737,054	736,766	738,299
967,21	519,4	766,416	767,632	766,699	766,416	767,915
967,31	519,3	777,624	778,811	777,903	777,624	779,089
967,41	519,2	770,306	771,463	770,58	770,306	771,738
967,51	519,1	767,836	768,964	768,106	767,836	769,234
967,61	519	769,978	771,082	770,244	769,978	771,347
967,71	518,9	811,972	813,059	812,233	811,972	813,32
967,81	518,8	843,486	844,556	843,743	843,486	844,813
967,91	518,7	769,296	770,349	769,548	769,296	770,601
968,01	518,6	825,226	826,262	825,474	825,226	826,51
968,11	518,5	784,478	785,497	784,722	784,478	785,74
968,21	518,4	803,232	804,233	803,471	803,232	804,473
968,31	518,3	773,01	773,994	773,245	773,01	774,229
968,41	518,2	743,348	744,315	743,579	743,348	744,546
968,51	518,1	781,944	782,894	782,172	781,944	783,122
968,61	518	755,776	756,709	756	755,776	756,933
968,71	517,9	792,516	793,432	792,737	792,516	793,653
968,81	517,8	779,488	780,387	779,705	779,488	780,604
968,91	517,7	747,026	747,908	747,24	747,026	748,122
969,01	517,6	722,246	723,111	722,457	722,246	723,322
969,11	517,5	783,324	784,172	783,531	783,324	784,379
969,21	517,4	783,222	784,053	783,426	783,222	784,257
969,31	517,3	760,72	761,534	760,92	760,72	761,734
969,41	517,2	832,394	833,191	832,591	832,394	833,388
969,51	517,1	831,194	831,974	831,388	831,194	832,167
969,61	517	772,384	773,148	772,575	772,384	773,339
969,71	516,9	790,122	790,875	790,31	790,122	791,064
969,81	516,8	724,19	724,933	724,376	724,19	725,118
969,91	516,7	765,164	765,896	765,347	765,164	766,079
970,01	516,6	783,768	784,489	783,948	783,768	784,67
970,11	516,5	748,694	749,405	748,872	748,694	749,582
970,21	516,4	797,83	798,53	798,005	797,83	798,705
970,31	516,3	740,528	741,217	740,7	740,528	741,39
970,41	516,2	747,648	748,327	747,818	747,648	748,496
970,51	516,1	754,284	754,952	754,451	754,284	755,119
970,61	516	736,926	737,583	737,09	736,926	737,747
970,71	515,9	720,22	720,866	720,382	720,22	721,028
970,81	515,8	776,856	777,492	777,016	776,856	777,651
970,91	515,7	776,68	777,305	776,837	776,68	777,463
971,01	515,6	767,084	767,698	767,239	767,084	767,854
971,11	515,5	799,946	800,55	800,099	799,946	800,703
971,21	515,4	760,94	761,533	761,091	760,94	761,684
971,31	515,3	786,876	787,458	787,025	786,876	787,607
971,41	515,2	765,048	765,62	765,195	765,048	765,766
971,51	515,1	792,936	793,497	793,081	792,936	793,642
971,61	515	804,174	804,725	804,317	804,174	804,867