c:\users\heydari_m\switchdrive\documents\academic\phd\teaching\gregory\2021.02.25_gregory_sample_1.vms						
Si2p						
	Characteristic Energy eV	1486,61	Acquisition Time s	0,5		
KE_Si2p	BE_Si2p	CPS_Si2p	Si 2p_1_Si2p	Si 2p_2_Si2p	Background_Si2p	Envelope_Si2p
1371,61	115	156,915	157,287	157,554	156,915	157,926
1371,71	114,9	139,82	140,211	140,482	139,82	140,873
1371,81	114,8	145,469	145,879	146,156	145,469	146,566
1371,91	114,7	148,074	148,503	148,786	148,074	149,215
1372,01	114,6	158,196	158,644	158,935	158,196	159,383
1372,11	114,5	168,299	168,766	169,067	168,299	169,534
1372,21	114,4	199,2	199,686	199,998	199,2	200,484
1372,31	114,3	140,512	141,017	141,341	140,512	141,846
1372,41	114,2	132,688	133,212	133,55	132,688	134,074
1372,51	114,1	108,401	108,951	109,298	108,401	109,848
1372,61	114	126,646	127,236	127,58	126,646	128,17
1372,71	113,9	130,719	131,348	131,693	130,719	132,322
1372,81	113,8	149,232	149,901	150,247	149,232	150,916
1372,91	113,7	146,476	144,043	144,394	143,334	145,102
1373,01	113,6	134,295	143,906	144,264	143,158	145,013
1373,11	113,5	130,974	143,766	144,134	142,978	144,922
1373,21	113,4	120,719	143,622	144,004	142,794	144,831
1373,31	113,3	171,436	143,474	143,873	142,607	144,74
1373,41	113,2	161,591	143,323	143,743	142,417	144,65
1373,51	113,1	135,003	143,17	143,615	142,224	144,561
1373,61	113	100,889	143,019	143,487	142,027	144,48
1373,71	112,9	142,908	142,882	143,361	141,827	144,416
1373,81	112,8	114,684	142,746	143,237	141,623	144,361
1373,91	112,7	138,328	142,614	143,116	141,416	144,314
1374,01	112,6	138,004	142,484	142,998	141,205	144,277
1374,11	112,5	131,978	142,36	142,884	140,991	144,252
1374,21	112,4	120,1	142,24	142,774	140,774	144,24
1374,31	112,3	137,803	142,127	142,67	140,553	144,244
1374,41	112,2	142,89	142,022	142,573	140,329	144,265
1374,51	112,1	142,205	141,926	142,484	140,102	144,308
1374,61	112	134,903	141,842	142,404	139,871	144,375
1374,71	111,9	127,139	141,771	142,334	139,637	144,468
1374,81	111,8	139,261	141,716	142,277	139,4	144,594
1374,91	111,7	151,232	141,681	142,234	139,159	144,756
1375,01	111,6	132,263	141,67	142,206	138,916	144,96
1375,11	111,5	129,789	141,687	142,197	138,67	145,214
1375,21	111,4	149,279	141,737	142,209	138,42	145,526
1375,31	111,3	152,22	141,829	142,245	138,167	145,907
1375,41	111,2	125,719	141,973	142,308	137,912	146,368
1375,51	111,1	147,445	142,178	142,401	137,654	146,925
1375,61	111	157,802	142,461	142,528	137,392	147,597
1375,71	110,9	148,251	142,839	142,694	137,129	148,405
1375,81	110,8	153,949	143,335	142,904	136,862	149,377
1375,91	110,7	148,395	143,978	143,163	136,593	150,547
1376,01	110,6	179,885	144,799	143,477	136,322	151,955
1376,11	110,5	146,262	145,85	143,854	136,048	153,656
1376,21	110,4	137,405	147,179	144,3	135,772	155,706
1376,31	110,3	130,992	148,852	144,821	135,494	158,18
1376,41	110,2	150,874	150,957	145,426	135,212	161,171
1376,51	110,1	137,763	153,582	146,124	134,929	164,777
1376,61	110	140,172	156,85	146,924	134,643	169,131
1376,71	109,9	158,949	160,889	147,835	134,354	174,369
1376,81	109,8	165,647	165,839	148,87	134,064	180,645
1376,91	109,7	180,577	171,894	150,043	133,772	188,166
1377,01	109,6	160,848	179,204	151,363	133,478	197,088
1377,11	109,5	173,703	187,966	152,839	133,183	207,622
1377,21	109,4	222,198	198,376	154,486	132,886	219,976
1377,31	109,3	228,386	210,578	156,315	132,588	234,305
1377,41	109,2	262,448	224,767	158,338	132,291	250,815
1377,51	109,1	273,986	241,023	160,57	131,993	269,599
1377,61	109	300,758	259,398	163,021	131,696	290,722
1377,71	108,9	308,464	279,919	165,71	131,4	314,229
1377,81	108,8	329,066	302,436	168,64	131,105	339,97
1377,91	108,7	336,39	326,776	171,82	130,812	367,785
1378,01	108,6	357,292	352,623	175,259	130,521	397,361
1378,11	108,5	413,31	379,541	178,962	130,232	428,271
1378,21	108,4	504,736	407,016	182,933	129,946	460,003
1378,31	108,3	550,516	434,407	187,178	129,665	491,92
1378,41	108,2	547,138	461,022	191,694	129,39	523,326
1378,51	108,1	547,27	486,081	196,489	129,121	553,448
1378,61	108	566,82	508,859	201,545	128,858	581,546
1378,71	107,9	636,632	528,569	206,853	128,601	606,82
1378,81	107,8	615,63	544,556	212,4	128,352	628,604
1378,91	107,7	644,94	556,299	218,169	128,11	646,358
1379,01	107,6	681,406	563,234	224,14	127,876	659,498
1379,11	107,5	671,728	565,234	230,288	127,65	667,872
1379,21	107,4	665,016	562,162	236,586	127,433	671,315
1379,31	107,3	641,59	554,092	243,002	127,224	669,87
1379,41	107,2	685,124	541,395	249,498	127,023	663,87
1379,51	107,1	599,342	524,425	256,034	126,831	653,628
1379,61	107	607,302	503,833	262,568	126,646	639,754
1379,71	106,9	619,224	480,304	269,053	126,469	622,888
1379,81	106,8	601,106	454,539	275,445	126,3	603,685
1379,91	106,7	594,622	427,356	281,695	126,138	582,913
1380,01	106,6	562,69	399,478	287,754	125,983	561,249
1380,11	106,5	535,872	371,611	293,565	125,836	539,341
1380,21	106,4	523,676	344,361	299,078	125,694	517,745
1380,31	106,3	488,69	318,272	304,248	125,56	496,96
1380,41	106,2	503,972	293,727	309,028	125,431	477,325
1380,51	106,1	482,922	271,026	313,374	125,307	459,093
1380,61	106	460,088	250,387	317,245	125,19	442,443
1380,71	105,9	483,428	231,855	320,603	125,078	427,38
1380,81	105,8	401,78	215,472	323,416	124,972	413,916
1380,91	105,7	368,962	201,158	325,642	124,87	401,93
1381,01	105,6	383,65	188,773	327,258	124,772	391,259
1381,11	105,5	376,58	178,215	328,258	124,678	381,796
1381,21	105,4	403,964	169,259	328,631	124,588	373,302
1381,31	105,3	364,044	161,738	328,372	124,502	365,607
1381,41	105,2	353,65	155,473	327,483	124,42	358,536
1381,51	105,1	359,77	150,268	325,971	124,342	351,897
1381,61	105	346,344	145,979	323,851	124,268	345,562
1381,71	104,9	361,49	142,446	321,136	124,197	339,384
1381,81	104,8	341,228	139,538	317,846	124,13	333,253
1381,91	104,7	311,72	137,155	314,025	124,067	327,113
1382,01	104,6	329,534	135,189	309,71	124,007	320,891
1382,11	104,5	311,276	133,567	304,938	123,95	314,555
1382,21	104,4	247,704	132,223	299,754	123,896	308,082
1382,31	104,3	293,476	131,101	294,202	123,844	301,459
1382,41	104,2	268,348	130,163	288,329	123,795	294,697
1382,51	104,1	292,246	129,37	282,182	123,748	287,805
1382,61	104	275,93	128,697	275,81	123,704	280,803
1382,71	103,9	284,452	128,124	269,268	123,662	273,73
1382,81	103,8	266,344	127,629	262,607	123,623	266,613
1382,91	103,7	254,848	127,202	255,871	123,587	259,486
1383,01	103,6	219,564	126,828	249,108	123,552	252,385
1383,11	103,5	250,002	126,5	242,359	123,519	245,34
1383,21	103,4	226,884	126,211	235,666	123,488	238,388
1383,31	103,3	261,358	125,953	229,065	123,459	231,559
1383,41	103,2	233,442	125,724	222,596	123,432	224,888
1383,51	103,1	208,96	125,519	216,286	123,407	218,398
1383,61	103	209,886	125,335	210,16	123,384	212,111
1383,71	102,9	211,558	125,168	204,241	123,362	206,048
1383,81	102,8	208,906	125,018	198,548	123,341	200,225
1383,91	102,7	184,626	124,881	193,096	123,322	194,656
1384,01	102,6	187,023	124,756	187,897	123,303	189,35
1384,11	102,5	170,191	124,642	182,959	123,286	184,315
1384,21	102,4	176,974	124,538	178,295	123,269	179,563
1384,31	102,3	220,29	124,442	173,9	123,254	175,088
1384,41	102,2	154,085	124,354	169,774	123,24	170,888
1384,51	102,1	164,929	124,273	165,912	123,226	166,958
1384,61	102	169,692	124,198	162,309	123,214	163,294
1384,71	101,9	154,67	124,143	158,96	123,202	159,901
1384,81	101,8	188,416	124,092	155,855	123,19	156,757
1384,91	101,7	182,461	124,042	152,987	123,18	153,848
1385,01	101,6	169,127	123,992	150,348	123,17	151,171
1385,11	101,5	167,46	123,944	147,925	123,162	148,708
1385,21	101,4	179,654	123,897	145,704	123,154	146,447
1385,31	101,3	151,249	123,85	143,671	123,147	144,375
1385,41	101,2	145,457	123,804	141,816	123,14	142,48
1385,51	101,1	154,027	123,758	140,127	123,134	140,751
1385,61	101	134,261	123,713	138,59	123,128	139,175
1385,71	100,9	150,173	123,668	137,195	123,123	137,74
1385,81	100,8	135,34	123,639	135,933	123,118	136,454
1385,91	100,7	144,01	123,616	134,792	123,113	135,294
1386,01	100,6	149,052	123,592	133,76	123,109	134,243
1386,11	100,5	141,906	123,569	132,827	123,105	133,292
1386,21	100,4	120,483	123,547	131,985	123,101	132,431
1386,31	100,3	115,659	123,524	131,225	123,098	131,652
1386,41	100,2	142,035	123,502	130,539	123,094	130,947
1386,51	100,1	117,173	123,479	129,921	123,091	130,31
1386,61	100	128,075	123,457	129,364	123,087	129,733
1386,71	99,9	153,695	123,435	128,861	123,084	129,212
1386,81	99,8	146,819	123,413	128,408	123,081	128,74
1386,91	99,7	121,265	123,398	127,999	123,079	128,318
1387,01	99,6	138,898	123,386	127,629	123,076	127,938
1387,11	99,5	93,2672	123,373	127,294	123,074	127,593
1387,21	99,4	110,909	123,361	126,99	123,072	127,279
1387,31	99,3	135,368	123,349	126,714	123,07	126,993
1387,41	99,2	146,71	123,337	126,464	123,068	126,733
1387,51	99,1	131,085	123,325	126,237	123,067	126,496
1387,61	99	146,996	123,314	126,031	123,065	126,279
1387,71	98,9	147,497	123,302	125,842	123,065	126,08
1387,81	98,8	112,805	123,292	125,671	123,064	125,898
1387,91	98,7	139,615	123,281	125,513	123,064	125,731
1388,01	98,6	111,241	123,273	125,369	123,063	125,579
1388,11	98,5	100,314	123,267	125,237	123,063	125,441
1388,21	98,4	132,034	123,261	125,115	123,063	125,313
1388,31	98,3	122,622	123,255	125,003	123,063	125,195
1388,41	98,2	126,068	123,249	124,9	123,063	125,086
1388,51	98,1	120,499	120,679	122,24	120,499	122,42
1388,61	98	114,912	115,086	116,565	114,912	116,739
1388,71	97,9	108,246	108,414	109,817	108,246	109,985
1388,81	97,8	110,7	110,862	112,194	110,7	112,356
1388,91	97,7	137,275	137,431	138,697	137,275	138,853
1389,01	97,6	132,468	132,618	133,823	132,468	133,973
1389,11	97,5	116,44	116,586	117,734	116,44	117,879
1389,21	97,4	142,031	142,172	143,266	142,031	143,407
1389,31	97,3	133,597	133,735	134,777	133,597	134,915
1389,41	97,2	158,627	158,761	159,756	158,627	159,89
1389,51	97,1	149,091	149,222	150,172	149,091	150,303
1389,61	97	129,615	129,742	130,651	129,615	130,778
1389,71	96,9	121,1	121,223	122,093	121,1	122,216
1389,81	96,8	134,608	134,727	135,56	134,608	135,679
1389,91	96,7	153,89	154,005	154,804	153,89	154,92
1390,01	96,6	151,134	151,246	152,012	151,134	152,124
1390,11	96,5	131,843	131,951	132,687	131,843	132,795
1390,21	96,4	150,528	150,633	151,339	150,528	151,444
1390,31	96,3	160,053	160,155	160,834	160,053	160,936
1390,41	96,2	149,814	149,914	150,566	149,814	150,666
1390,51	96,1	124,21	124,308	124,935	124,21	125,032
1390,61	96	121,261	121,356	121,96	121,261	122,055
1390,71	95,9	176,344	176,437	177,017	176,344	177,11
1390,81	95,8	161,594	161,684	162,243	161,594	162,334
1390,91	95,7	170,544	170,631	171,171	170,544	171,258
1391,01	95,6	158,072	158,157	158,678	158,072	158,763
1391,11	95,5	160,674	160,757	161,259	160,674	161,342
1391,21	95,4	202,616	202,696	203,181	202,616	203,262
1391,31	95,3	188,986	189,064	189,533	188,986	189,611
1391,41	95,2	167,964	168,041	168,493	167,964	168,57
1391,51	95,1	187,803	187,878	188,315	187,803	188,39
1391,61	95	185,282	185,355	185,778	185,282	185,851
1391,71	94,9	195,998	196,069	196,478	195,998	196,549
1391,81	94,8	210,592	210,662	211,057	210,592	211,127
1391,91	94,7	187,29	187,358	187,742	187,29	187,81
1392,01	94,6	169,427	169,493	169,869	169,427	169,935
1392,11	94,5	201,056	201,121	201,488	201,056	201,553
1392,21	94,4	203,494	203,557	203,917	203,494	203,98
1392,31	94,3	215,506	215,567	215,919	215,506	215,981
1392,41	94,2	175,141	175,201	175,545	175,141	175,604
1392,51	94,1	179,179	179,238	179,573	179,179	179,632
1392,61	94	176,635	176,692	177,019	176,635	177,076
1392,71	93,9	168,241	168,297	168,616	168,241	168,672
1392,81	93,8	148,537	148,592	148,902	148,537	148,957
1392,91	93,7	141,307	141,361	141,663	141,307	141,717
1393,01	93,6	162,895	162,947	163,241	162,895	163,294
1393,11	93,5	158,68	158,731	159,016	158,68	159,068
1393,21	93,4	149,873	149,923	150,2	149,873	150,25
1393,31	93,3	175,419	175,468	175,737	175,419	175,786
1393,41	93,2	160,54	160,588	160,848	160,54	160,895
1393,51	93,1	171,168	171,214	171,466	171,168	171,513
1393,61	93	160,184	160,23	160,472	160,184	160,518
1393,71	92,9	153,22	153,265	153,499	153,22	153,544
1393,81	92,8	151,36	151,404	151,629	151,36	151,673
1393,91	92,7	122,045	122,088	122,305	122,045	122,348
1394,01	92,6	156,772	156,815	157,023	156,772	157,065
1394,11	92,5	135,725	135,766	135,97	135,725	136,012
1394,21	92,4	142,552	142,593	142,793	142,552	142,834
1394,31	92,3	145,255	145,295	145,491	145,255	145,531
1394,41	92,2	129,001	129,04	129,233	129,001	129,271
1394,51	92,1	126,031	126,069	126,258	126,031	126,296
1394,61	92	157,998	158,036	158,221	157,998	158,258
1394,71	91,9	136,418	136,455	136,636	136,418	136,673
1394,81	91,8	137,795	137,831	138,008	137,795	138,044
1394,91	91,7	155,752	155,787	155,961	155,752	155,996
1395,01	91,6	134,18	134,214	134,384	134,18	134,419
1395,11	91,5	130,628	130,662	130,828	130,628	130,862
1395,21	91,4	138,88	138,913	139,075	138,88	139,108
1395,31	91,3	122,78	122,813	122,971	122,78	123,003
1395,41	91,2	110,685	110,717	110,871	110,685	110,903
1395,51	91,1	147,487	147,519	147,669	147,487	147,7
1395,61	91	155,782	155,813	155,959	155,782	155,989
1395,71	90,9	147,999	148,029	148,171	147,999	148,201
1395,81	90,8	143,677	143,707	143,845	143,677	143,875
1395,91	90,7	135,529	135,558	135,692	135,529	135,721
1396,01	90,6	145,612	145,64	145,77	145,612	145,799
1396,11	90,5	117,722	117,75	117,876	117,722	117,904
1396,21	90,4	109,254	109,282	109,405	109,254	109,433
1396,31	90,3	111,695	111,722	111,843	111,695	111,87
1396,41	90,2	135,981	136,008	136,127	135,981	136,153
1396,51	90,1	120,851	120,877	120,994	120,851	121,021
1396,61	90	95,7812	95,8069	95,9221	95,7812	95,9478