c:\users\heydari_m\switchdrive\documents\academic\phd\teaching\gregory\2021.02.25_gregory_sample_2.vms				
Survey				
	Characteristic Energy eV	1486,61	Acquisition Time s	0,05
KE_Survey	BE_Survey	CPS_Survey	Background_Survey	
586,61	900	1323,94	1323,94	
586,91	899,7	1342,94	1342,94	
587,21	899,4	1582,07	1582,07	
587,51	899,1	1339,69	1339,69	
587,81	898,8	1425,12	1425,12	
588,11	898,5	1284,03	1284,03	
588,41	898,2	1439,38	1439,38	
588,71	897,9	1237,32	1237,32	
589,01	897,6	1293,59	1293,59	
589,31	897,3	1654,05	1654,05	
589,61	897	1411,28	1411,28	
589,91	896,7	1006,05	1006,05	
590,21	896,4	1332,29	1332,29	
590,51	896,1	1325,57	1325,57	
590,81	895,8	1606,91	1606,91	
591,11	895,5	1350,69	1350,69	
591,41	895,2	1173,99	1173,99	
591,71	894,9	1216,93	1216,93	
592,01	894,6	1349,54	1349,54	
592,31	894,3	1241,1	1241,1	
592,61	894	1354,12	1354,12	
592,91	893,7	1464,99	1464,99	
593,21	893,4	1186,5	1186,5	
593,51	893,1	1578,34	1578,34	
593,81	892,8	1526,18	1526,18	
594,11	892,5	1624,74	1624,74	
594,41	892,2	1366,22	1366,22	
594,71	891,9	1303,52	1303,52	
595,01	891,6	1289,22	1289,22	
595,31	891,3	1485	1485	
595,61	891	1302,34	1302,34	
595,91	890,7	1332,69	1332,69	
596,21	890,4	1108,47	1108,47	
596,51	890,1	1287,46	1287,46	
596,81	889,8	1337,13	1337,13	
597,11	889,5	1343,29	1343,29	
597,41	889,2	1389,33	1389,33	
597,71	888,9	1246,46	1246,46	
598,01	888,6	1536,47	1536,47	
598,31	888,3	1345,02	1345,02	
598,61	888	1219,26	1219,26	
598,91	887,7	1192,28	1192,28	
599,21	887,4	1351,43	1351,43	
599,51	887,1	888,266	888,266	
599,81	886,8	1329,79	1329,79	
600,11	886,5	1423,35	1423,35	
600,41	886,2	1447,14	1447,14	
600,71	885,9	1417,89	1417,89	
601,01	885,6	1321,91	1321,91	
601,31	885,3	1076,06	1076,06	
601,61	885	1155,33	1155,33	
601,91	884,7	1359,4	1359,4	
602,21	884,4	1504,61	1504,61	
602,51	884,1	1253,39	1253,39	
602,81	883,8	1370,35	1370,35	
603,11	883,5	1421,2	1421,2	
603,41	883,2	1135,37	1135,37	
603,71	882,9	1353,2	1353,2	
604,01	882,6	1504,66	1504,66	
604,31	882,3	1274,91	1274,91	
604,61	882	1100,14	1100,14	
604,91	881,7	1277,84	1277,84	
605,21	881,4	1097,02	1097,02	
605,51	881,1	1189,35	1189,35	
605,81	880,8	1062,84	1062,84	
606,11	880,5	1336,41	1336,41	
606,41	880,2	1550,14	1550,14	
606,71	879,9	1487	1487	
607,01	879,6	1646,39	1646,39	
607,31	879,3	1561,08	1561,08	
607,61	879	1157,06	1157,06	
607,91	878,7	1492,33	1492,33	
608,21	878,4	1381,27	1381,27	
608,51	878,1	1538,95	1538,95	
608,81	877,8	1506,63	1506,63	
609,11	877,5	1306,66	1306,66	
609,41	877,2	1274,06	1274,06	
609,71	876,9	1463,66	1463,66	
610,01	876,6	1198,73	1198,73	
610,31	876,3	1380,69	1380,69	
610,61	876	1322,68	1322,68	
610,91	875,7	1278,88	1278,88	
611,21	875,4	1484,55	1484,55	
611,51	875,1	1312,81	1312,81	
611,81	874,8	1341,27	1341,27	
612,11	874,5	1380,49	1380,49	
612,41	874,2	1335,98	1335,98	
612,71	873,9	1293,57	1293,57	
613,01	873,6	1256,2	1256,2	
613,31	873,3	1346,09	1346,09	
613,61	873	1281,54	1281,54	
613,91	872,7	1315,27	1315,27	
614,21	872,4	1309,3	1309,3	
614,51	872,1	1478,29	1478,29	
614,81	871,8	1446,75	1446,75	
615,11	871,5	1456,75	1456,75	
615,41	871,2	1505,58	1505,58	
615,71	870,9	1313,43	1313,43	
616,01	870,6	1317,39	1317,39	
616,31	870,3	1173,58	1173,58	
616,61	870	1375,15	1375,15	
616,91	869,7	1368,4	1368,4	
617,21	869,4	1240,11	1240,11	
617,51	869,1	1344,55	1344,55	
617,81	868,8	1385,67	1385,67	
618,11	868,5	1487,61	1487,61	
618,41	868,2	1219,27	1219,27	
618,71	867,9	1364,47	1364,47	
619,01	867,6	1109,08	1109,08	
619,31	867,3	1020,07	1020,07	
619,61	867	1424,37	1424,37	
619,91	866,7	1319,87	1319,87	
620,21	866,4	1329,44	1329,44	
620,51	866,1	1312,51	1312,51	
620,81	865,8	1167,74	1167,74	
621,11	865,5	1203,32	1203,32	
621,41	865,2	1413,3	1413,3	
621,71	864,9	1422,1	1422,1	
622,01	864,6	1147,05	1147,05	
622,31	864,3	1363,3	1363,3	
622,61	864	1279,15	1279,15	
622,91	863,7	1344,97	1344,97	
623,21	863,4	1361,17	1361,17	
623,51	863,1	1428,05	1428,05	
623,81	862,8	1443,85	1443,85	
624,11	862,5	1216,9	1216,9	
624,41	862,2	1329,71	1329,71	
624,71	861,9	1305,37	1305,37	
625,01	861,6	1191,12	1191,12	
625,31	861,3	1195,57	1195,57	
625,61	861	1317,08	1317,08	
625,91	860,7	1391,37	1391,37	
626,21	860,4	1424,81	1424,81	
626,51	860,1	1301,6	1301,6	
626,81	859,8	1316,46	1316,46	
627,11	859,5	1423,38	1423,38	
627,41	859,2	1259,09	1259,09	
627,71	858,9	1494,52	1494,52	
628,01	858,6	1338,23	1338,23	
628,31	858,3	1198,44	1198,44	
628,61	858	1236,25	1236,25	
628,91	857,7	1184,59	1184,59	
629,21	857,4	1239,51	1239,51	
629,51	857,1	1395,45	1395,45	
629,81	856,8	1399,73	1399,73	
630,11	856,5	1461,28	1461,28	
630,41	856,2	1361,53	1361,53	
630,71	855,9	1216,88	1216,88	
631,01	855,6	1342,01	1342,01	
631,31	855,3	1410,1	1410,1	
631,61	855	1329,75	1329,75	
631,91	854,7	1315,37	1315,37	
632,21	854,4	1487,45	1487,45	
632,51	854,1	1493,13	1493,13	
632,81	853,8	1337,72	1337,72	
633,11	853,5	1247,26	1247,26	
633,41	853,2	1343,11	1343,11	
633,71	852,9	1260,45	1260,45	
634,01	852,6	1279,4	1279,4	
634,31	852,3	1187,54	1187,54	
634,61	852	1408,24	1408,24	
634,91	851,7	1351,4	1351,4	
635,21	851,4	1130,16	1130,16	
635,51	851,1	1396,01	1396,01	
635,81	850,8	1379,82	1379,82	
636,11	850,5	1425,38	1425,38	
636,41	850,2	1314,2	1314,2	
636,71	849,9	1272,34	1272,34	
637,01	849,6	1160,96	1160,96	
637,31	849,3	1626,86	1626,86	
637,61	849	1210,86	1210,86	
637,91	848,7	1266,95	1266,95	
638,21	848,4	1376,36	1376,36	
638,51	848,1	1317,76	1317,76	
638,81	847,8	1213,25	1213,25	
639,11	847,5	1214,23	1214,23	
639,41	847,2	1468,95	1468,95	
639,71	846,9	1387,66	1387,66	
640,01	846,6	1157,02	1157,02	
640,31	846,3	1261,93	1261,93	
640,61	846	1153,92	1153,92	
640,91	845,7	1167,89	1167,89	
641,21	845,4	1232,4	1232,4	
641,51	845,1	1291,29	1291,29	
641,81	844,8	1364,12	1364,12	
642,11	844,5	1234,27	1234,27	
642,41	844,2	1152,43	1152,43	
642,71	843,9	1101,37	1101,37	
643,01	843,6	1352,2	1352,2	
643,31	843,3	1110,03	1110,03	
643,61	843	1113,15	1113,15	
643,91	842,7	1526,5	1526,5	
644,21	842,4	1497,22	1497,22	
644,51	842,1	1344,96	1344,96	
644,81	841,8	1222,02	1222,02	
645,11	841,5	1383,94	1383,94	
645,41	841,2	1276,1	1276,1	
645,71	840,9	1367,09	1367,09	
646,01	840,6	1285,8	1285,8	
646,31	840,3	1414,57	1414,57	
646,61	840	1340,55	1340,55	
646,91	839,7	1311,75	1311,75	
647,21	839,4	1302,91	1302,91	
647,51	839,1	1146,09	1146,09	
647,81	838,8	1487,04	1487,04	
648,11	838,5	1397,22	1397,22	
648,41	838,2	1106,53	1106,53	
648,71	837,9	1125,14	1125,14	
649,01	837,6	1235,26	1235,26	
649,31	837,3	1219,87	1219,87	
649,61	837	1140,06	1140,06	
649,91	836,7	1243,57	1243,57	
650,21	836,4	1463,46	1463,46	
650,51	836,1	1449,68	1449,68	
650,81	835,8	1485,2	1485,2	
651,11	835,5	1253,82	1253,82	
651,41	835,2	1328,09	1328,09	
651,71	834,9	1229,36	1229,36	
652,01	834,6	1366,7	1366,7	
652,31	834,3	1200,34	1200,34	
652,61	834	1532,19	1532,19	
652,91	833,7	1471,9	1471,9	
653,21	833,4	1527,23	1527,23	
653,51	833,1	1427,09	1427,09	
653,81	832,8	1325,45	1325,45	
654,11	832,5	1494,76	1494,76	
654,41	832,2	1530,91	1530,91	
654,71	831,9	1182,35	1182,35	
655,01	831,6	1124,89	1124,89	
655,31	831,3	1093,64	1093,64	
655,61	831	1223,06	1223,06	
655,91	830,7	1289	1289	
656,21	830,4	950,802	950,802	
656,51	830,1	1119,82	1119,82	
656,81	829,8	1413,71	1413,71	
657,11	829,5	1492,55	1492,55	
657,41	829,2	1249,12	1249,12	
657,71	828,9	1245,8	1245,8	
658,01	828,6	1137,67	1137,67	
658,31	828,3	1019,42	1019,42	
658,61	828	1452,9	1452,9	
658,91	827,7	1061,84	1061,84	
659,21	827,4	1346,19	1346,19	
659,51	827,1	1569,2	1569,2	
659,81	826,8	1213,26	1213,26	
660,11	826,5	1173,39	1173,39	
660,41	826,2	1305,48	1305,48	
660,71	825,9	1423,96	1423,96	
661,01	825,6	1427,7	1427,7	
661,31	825,3	1127,63	1127,63	
661,61	825	1126,05	1126,05	
661,91	824,7	1378,39	1378,39	
662,21	824,4	1246,46	1246,46	
662,51	824,1	1247,1	1247,1	
662,81	823,8	1353,28	1353,28	
663,11	823,5	1653,03	1653,03	
663,41	823,2	1452,49	1452,49	
663,71	822,9	1370,99	1370,99	
664,01	822,6	1544,04	1544,04	
664,31	822,3	1304,95	1304,95	
664,61	822	1279,96	1279,96	
664,91	821,7	1266,38	1266,38	
665,21	821,4	1342,27	1342,27	
665,51	821,1	1188,77	1188,77	
665,81	820,8	1068,46	1068,46	
666,11	820,5	1190,95	1190,95	
666,41	820,2	1248,19	1248,19	
666,71	819,9	1234,76	1234,76	
667,01	819,6	1414,08	1414,08	
667,31	819,3	1352,25	1352,25	
667,61	819	1218,48	1218,48	
667,91	818,7	1284,63	1284,63	
668,21	818,4	1434,74	1434,74	
668,51	818,1	1148,17	1148,17	
668,81	817,8	1324,65	1324,65	
669,11	817,5	1196,85	1196,85	
669,41	817,2	1099,15	1099,15	
669,71	816,9	1019,36	1019,36	
670,01	816,6	1245,79	1245,79	
670,31	816,3	1259,48	1259,48	
670,61	816	1307,07	1307,07	
670,91	815,7	1247,98	1247,98	
671,21	815,4	1326,29	1326,29	
671,51	815,1	1329,88	1329,88	
671,81	814,8	1336,06	1336,06	
672,11	814,5	1216,04	1216,04	
672,41	814,2	1273,9	1273,9	
672,71	813,9	1193,77	1193,77	
673,01	813,6	1334,19	1334,19	
673,31	813,3	1330,59	1330,59	
673,61	813	1051,69	1051,69	
673,91	812,7	1048,96	1048,96	
674,21	812,4	1216,22	1216,22	
674,51	812,1	1312,01	1312,01	
674,81	811,8	1207,41	1207,41	
675,11	811,5	1438,18	1438,18	
675,41	811,2	1400,79	1400,79	
675,71	810,9	1134,31	1134,31	
676,01	810,6	1148,91	1148,91	
676,31	810,3	1051,24	1051,24	
676,61	810	1482,64	1482,64	
676,91	809,7	1645,26	1645,26	
677,21	809,4	1145,17	1145,17	
677,51	809,1	1217,64	1217,64	
677,81	808,8	1068,37	1068,37	
678,11	808,5	1291,17	1291,17	
678,41	808,2	1296,76	1296,76	
678,71	807,9	1334,95	1334,95	
679,01	807,6	1292,99	1292,99	
679,31	807,3	1232,98	1232,98	
679,61	807	1408,86	1408,86	
679,91	806,7	1331,09	1331,09	
680,21	806,4	1273,43	1273,43	
680,51	806,1	1289,78	1289,78	
680,81	805,8	1217,85	1217,85	
681,11	805,5	1183,03	1183,03	
681,41	805,2	1134,11	1134,11	
681,71	804,9	1364,8	1364,8	
682,01	804,6	1236,98	1236,98	
682,31	804,3	1514,65	1514,65	
682,61	804	1372,91	1372,91	
682,91	803,7	1340,89	1340,89	
683,21	803,4	1428,47	1428,47	
683,51	803,1	1203,41	1203,41	
683,81	802,8	1056	1056	
684,11	802,5	1302,28	1302,28	
684,41	802,2	1316,07	1316,07	
684,71	801,9	1247,98	1247,98	
685,01	801,6	1256,01	1256,01	
685,31	801,3	1146,29	1146,29	
685,61	801	1118,19	1118,19	
685,91	800,7	1381,6	1381,6	
686,21	800,4	1401,26	1401,26	
686,51	800,1	1406,6	1406,6	
686,81	799,8	1319,1	1319,1	
687,11	799,5	1194,41	1194,41	
687,41	799,2	1215,85	1215,85	
687,71	798,9	1375,03	1375,03	
688,01	798,6	1177,06	1177,06	
688,31	798,3	1081,41	1081,41	
688,61	798	1083,73	1083,73	
688,91	797,7	1175,04	1175,04	
689,21	797,4	1097,79	1097,79	
689,51	797,1	1134,56	1134,56	
689,81	796,8	1354,53	1354,53	
690,11	796,5	1211,84	1211,84	
690,41	796,2	1381,32	1381,32	
690,71	795,9	1163,19	1163,19	
691,01	795,6	1251,35	1251,35	
691,31	795,3	1107,11	1107,11	
691,61	795	1295,41	1295,41	
691,91	794,7	1104,16	1104,16	
692,21	794,4	1223,1	1223,1	
692,51	794,1	1194,65	1194,65	
692,81	793,8	1182,21	1182,21	
693,11	793,5	1220,6	1220,6	
693,41	793,2	1247,4	1247,4	
693,71	792,9	1240,95	1240,95	
694,01	792,6	1269,65	1269,65	
694,31	792,3	1022,32	1022,32	
694,61	792	1161,76	1161,76	
694,91	791,7	1099,67	1099,67	
695,21	791,4	1279,74	1279,74	
695,51	791,1	1157,24	1157,24	
695,81	790,8	1483,5	1483,5	
696,11	790,5	1525,18	1525,18	
696,41	790,2	1276,95	1276,95	
696,71	789,9	1443,24	1443,24	
697,01	789,6	1076,21	1076,21	
697,31	789,3	1019,53	1019,53	
697,61	789	1321,14	1321,14	
697,91	788,7	1294,42	1294,42	
698,21	788,4	1386,09	1386,09	
698,51	788,1	1247,7	1247,7	
698,81	787,8	1308,85	1308,85	
699,11	787,5	1195,09	1195,09	
699,41	787,2	1271,69	1271,69	
699,71	786,9	1502,7	1502,7	
700,01	786,6	1392,28	1392,28	
700,31	786,3	1355,15	1355,15	
700,61	786	1091,38	1091,38	
700,91	785,7	1308,31	1308,31	
701,21	785,4	1482,57	1482,57	
701,51	785,1	1404,12	1404,12	
701,81	784,8	1566,25	1566,25	
702,11	784,5	1412,54	1412,54	
702,41	784,2	1380,39	1380,39	
702,71	783,9	1016,6	1016,6	
703,01	783,6	1148,27	1148,27	
703,31	783,3	1177,54	1177,54	
703,61	783	1228,84	1228,84	
703,91	782,7	1123,1	1123,1	
704,21	782,4	1181,96	1181,96	
704,51	782,1	1389,83	1389,83	
704,81	781,8	1290,41	1290,41	
705,11	781,5	1067,07	1067,07	
705,41	781,2	1449,9	1449,9	
705,71	780,9	1266,23	1266,23	
706,01	780,6	1269,58	1269,58	
706,31	780,3	1233,32	1233,32	
706,61	780	1217,82	1217,82	
706,91	779,7	1198,44	1198,44	
707,21	779,4	1375	1375	
707,51	779,1	1352,2	1352,2	
707,81	778,8	1247,58	1247,58	
708,11	778,5	1139,14	1139,14	
708,41	778,2	1199,61	1199,61	
708,71	777,9	1344,48	1344,48	
709,01	777,6	1454,26	1454,26	
709,31	777,3	1184,32	1184,32	
709,61	777	1215,61	1215,61	
709,91	776,7	1186,59	1186,59	
710,21	776,4	995,944	995,944	
710,51	776,1	1079,7	1079,7	
710,81	775,8	1253,47	1253,47	
711,11	775,5	1189,54	1189,54	
711,41	775,2	1115,68	1115,68	
711,71	774,9	1390,17	1390,17	
712,01	774,6	1291,35	1291,35	
712,31	774,3	1173,68	1173,68	
712,61	774	1083,26	1083,26	
712,91	773,7	1314,3	1314,3	
713,21	773,4	1457,76	1457,76	
713,51	773,1	1638,04	1638,04	
713,81	772,8	1096,17	1096,17	
714,11	772,5	1125,54	1125,54	
714,41	772,2	1198,27	1198,27	
714,71	771,9	1242,8	1242,8	
715,01	771,6	1176,47	1176,47	
715,31	771,3	1212,27	1212,27	
715,61	771	1296,67	1296,67	
715,91	770,7	1307,66	1307,66	
716,21	770,4	1164,49	1164,49	
716,51	770,1	1208,77	1208,77	
716,81	769,8	1186,83	1186,83	
717,11	769,5	1329,96	1329,96	
717,41	769,2	1196,33	1196,33	
717,71	768,9	1112,84	1112,84	
718,01	768,6	1327,43	1327,43	
718,31	768,3	1499,82	1499,82	
718,61	768	1317,17	1317,17	
718,91	767,7	1365,27	1365,27	
719,21	767,4	1314,21	1314,21	
719,51	767,1	1224,02	1224,02	
719,81	766,8	1033,42	1033,42	
720,11	766,5	1116,22	1116,22	
720,41	766,2	1138,76	1138,76	
720,71	765,9	977,768	977,768	
721,01	765,6	1319,81	1319,81	
721,31	765,3	1378,01	1378,01	
721,61	765	1276,94	1276,94	
721,91	764,7	1238,24	1238,24	
722,21	764,4	1282,05	1282,05	
722,51	764,1	1242,07	1242,07	
722,81	763,8	1198,31	1198,31	
723,11	763,5	1208,08	1208,08	
723,41	763,2	1265,65	1265,65	
723,71	762,9	1100,29	1100,29	
724,01	762,6	1012,82	1012,82	
724,31	762,3	1417,07	1417,07	
724,61	762	1311,1	1311,1	
724,91	761,7	1398,97	1398,97	
725,21	761,4	1279,86	1279,86	
725,51	761,1	1312,46	1312,46	
725,81	760,8	1116,87	1116,87	
726,11	760,5	1242,77	1242,77	
726,41	760,2	1312,15	1312,15	
726,71	759,9	1283,24	1283,24	
727,01	759,6	1218,15	1218,15	
727,31	759,3	1200,98	1200,98	
727,61	759	1193,1	1193,1	
727,91	758,7	1109,53	1109,53	
728,21	758,4	1157,29	1157,29	
728,51	758,1	1261,18	1261,18	
728,81	757,8	1160,09	1160,09	
729,11	757,5	1336,42	1336,42	
729,41	757,2	1330,73	1330,73	
729,71	756,9	1366,14	1366,14	
730,01	756,6	1554,54	1554,54	
730,31	756,3	1110,88	1110,88	
730,61	756	1175,29	1175,29	
730,91	755,7	1185,79	1185,79	
731,21	755,4	1076,08	1076,08	
731,51	755,1	1222,67	1222,67	
731,81	754,8	1377,64	1377,64	
732,11	754,5	1265,35	1265,35	
732,41	754,2	1487,07	1487,07	
732,71	753,9	1295,28	1295,28	
733,01	753,6	1260,27	1260,27	
733,31	753,3	1336,53	1336,53	
733,61	753	1127,24	1127,24	
733,91	752,7	1157,2	1157,2	
734,21	752,4	1255,12	1255,12	
734,51	752,1	1288,79	1288,79	
734,81	751,8	1217,04	1217,04	
735,11	751,5	1292,54	1292,54	
735,41	751,2	1459,63	1459,63	
735,71	750,9	1340,02	1340,02	
736,01	750,6	1261,75	1261,75	
736,31	750,3	1381,14	1381,14	
736,61	750	1337,54	1337,54	
736,91	749,7	1241,45	1241,45	
737,21	749,4	1040,8	1040,8	
737,51	749,1	1147,28	1147,28	
737,81	748,8	1209,09	1209,09	
738,11	748,5	1098,67	1098,67	
738,41	748,2	1201,42	1201,42	
738,71	747,9	1280,11	1280,11	
739,01	747,6	1446,07	1446,07	
739,31	747,3	1120,03	1120,03	
739,61	747	1182,66	1182,66	
739,91	746,7	1303,68	1303,68	
740,21	746,4	1284	1284	
740,51	746,1	1343,17	1343,17	
740,81	745,8	1184,42	1184,42	
741,11	745,5	1247,31	1247,31	
741,41	745,2	1289,37	1289,37	
741,71	744,9	1340,94	1340,94	
742,01	744,6	1184,47	1184,47	
742,31	744,3	1199,83	1199,83	
742,61	744	1191,67	1191,67	
742,91	743,7	1459,27	1459,27	
743,21	743,4	1323,95	1323,95	
743,51	743,1	1296,5	1296,5	
743,81	742,8	1115,85	1115,85	
744,11	742,5	1305,22	1305,22	
744,41	742,2	1339,37	1339,37	
744,71	741,9	1183	1183	
745,01	741,6	1194,67	1194,67	
745,31	741,3	1255,26	1255,26	
745,61	741	1157,18	1157,18	
745,91	740,7	1287,02	1287,02	
746,21	740,4	1264,65	1264,65	
746,51	740,1	1214,02	1214,02	
746,81	739,8	1169,91	1169,91	
747,11	739,5	1307,6	1307,6	
747,41	739,2	1648,4	1648,4	
747,71	738,9	1222,05	1222,05	
748,01	738,6	1315,54	1315,54	
748,31	738,3	1170,5	1170,5	
748,61	738	1166,38	1166,38	
748,91	737,7	1263,38	1263,38	
749,21	737,4	1184,98	1184,98	
749,51	737,1	1385,91	1385,91	
749,81	736,8	1340,35	1340,35	
750,11	736,5	1186,38	1186,38	
750,41	736,2	1246,06	1246,06	
750,71	735,9	1151,91	1151,91	
751,01	735,6	1414,2	1414,2	
751,31	735,3	1399,89	1399,89	
751,61	735	1404,12	1404,12	
751,91	734,7	1089,51	1089,51	
752,21	734,4	1253,69	1253,69	
752,51	734,1	1244,85	1244,85	
752,81	733,8	1382,7	1382,7	
753,11	733,5	1237,88	1237,88	
753,41	733,2	1291,19	1291,19	
753,71	732,9	960,212	960,212	
754,01	732,6	950,556	950,556	
754,31	732,3	1294,85	1294,85	
754,61	732	1204,74	1204,74	
754,91	731,7	1165,61	1165,61	
755,21	731,4	1188,75	1188,75	
755,51	731,1	1269,02	1269,02	
755,81	730,8	1060,06	1060,06	
756,11	730,5	1173,54	1173,54	
756,41	730,2	1101,74	1101,74	
756,71	729,9	1098,13	1098,13	
757,01	729,6	1112,56	1112,56	
757,31	729,3	1329,39	1329,39	
757,61	729	1197,37	1197,37	
757,91	728,7	1215,85	1215,85	
758,21	728,4	1084,01	1084,01	
758,51	728,1	1261,83	1261,83	
758,81	727,8	1408,73	1408,73	
759,11	727,5	1200,02	1200,02	
759,41	727,2	1515,96	1515,96	
759,71	726,9	1247,46	1247,46	
760,01	726,6	1414,54	1414,54	
760,31	726,3	1226,52	1226,52	
760,61	726	1209,59	1209,59	
760,91	725,7	1230,11	1230,11	
761,21	725,4	1402,04	1402,04	
761,51	725,1	948,914	948,914	
761,81	724,8	1181,34	1181,34	
762,11	724,5	1174,67	1174,67	
762,41	724,2	1364,88	1364,88	
762,71	723,9	1196,7	1196,7	
763,01	723,6	1107,38	1107,38	
763,31	723,3	1075,75	1075,75	
763,61	723	1298,8	1298,8	
763,91	722,7	1250,77	1250,77	
764,21	722,4	1221,7	1221,7	
764,51	722,1	1208,86	1208,86	
764,81	721,8	1148,47	1148,47	
765,11	721,5	1393,22	1393,22	
765,41	721,2	1376,1	1376,1	
765,71	720,9	1396,23	1396,23	
766,01	720,6	1225,61	1225,61	
766,31	720,3	1240,56	1240,56	
766,61	720	1065,53	1065,53	
766,91	719,7	1045,69	1045,69	
767,21	719,4	1145,06	1145,06	
767,51	719,1	1302,57	1302,57	
767,81	718,8	1166,64	1166,64	
768,11	718,5	1281,77	1281,77	
768,41	718,2	1305,82	1305,82	
768,71	717,9	1319,39	1319,39	
769,01	717,6	1268,06	1268,06	
769,31	717,3	1247,66	1247,66	
769,61	717	1114,11	1114,11	
769,91	716,7	1230,36	1230,36	
770,21	716,4	1119,03	1119,03	
770,51	716,1	1036,87	1036,87	
770,81	715,8	1298,94	1298,94	
771,11	715,5	1297,19	1297,19	
771,41	715,2	1356,65	1356,65	
771,71	714,9	1276,54	1276,54	
772,01	714,6	1171,68	1171,68	
772,31	714,3	1314,77	1314,77	
772,61	714	1323,77	1323,77	
772,91	713,7	1260,53	1260,53	
773,21	713,4	1309,64	1309,64	
773,51	713,1	1156,94	1156,94	
773,81	712,8	1045,9	1045,9	
774,11	712,5	1175,58	1175,58	
774,41	712,2	1350,71	1350,71	
774,71	711,9	1158,7	1158,7	
775,01	711,6	1669,85	1669,85	
775,31	711,3	1324,03	1324,03	
775,61	711	906,238	906,238	
775,91	710,7	899,182	899,182	
776,21	710,4	1140,7	1140,7	
776,51	710,1	1187,54	1187,54	
776,81	709,8	1415,69	1415,69	
777,11	709,5	1501,21	1501,21	
777,41	709,2	1342,01	1342,01	
777,71	708,9	1307,59	1307,59	
778,01	708,6	1158,25	1158,25	
778,31	708,3	1129,69	1129,69	
778,61	708	1210,61	1210,61	
778,91	707,7	1186,8	1186,8	
779,21	707,4	1386,64	1386,64	
779,51	707,1	1544,53	1544,53	
779,81	706,8	1237,1	1237,1	
780,11	706,5	1412,92	1412,92	
780,41	706,2	1068,01	1068,01	
780,71	705,9	1142,01	1142,01	
781,01	705,6	1018,36	1018,36	
781,31	705,3	1240,51	1240,51	
781,61	705	1200,14	1200,14	
781,91	704,7	1486,38	1486,38	
782,21	704,4	1197,38	1197,38	
782,51	704,1	1225,15	1225,15	
782,81	703,8	1171,69	1171,69	
783,11	703,5	1283,56	1283,56	
783,41	703,2	1083,28	1083,28	
783,71	702,9	1208,38	1208,38	
784,01	702,6	1182,01	1182,01	
784,31	702,3	1030,7	1030,7	
784,61	702	1179,49	1179,49	
784,91	701,7	1162,72	1162,72	
785,21	701,4	1142,98	1142,98	
785,51	701,1	1194,14	1194,14	
785,81	700,8	1372,09	1372,09	
786,11	700,5	1258,36	1258,36	
786,41	700,2	1374,62	1374,62	
786,71	699,9	1355,38	1355,38	
787,01	699,6	1194,07	1194,07	
787,31	699,3	1267,56	1267,56	
787,61	699	1304,94	1304,94	
787,91	698,7	1525,06	1525,06	
788,21	698,4	1295,96	1295,96	
788,51	698,1	1273,39	1273,39	
788,81	697,8	1341,39	1341,39	
789,11	697,5	1076,09	1076,09	
789,41	697,2	1182,85	1182,85	
789,71	696,9	1140,88	1140,88	
790,01	696,6	1302,25	1302,25	
790,31	696,3	1111,17	1111,17	
790,61	696	1175,35	1175,35	
790,91	695,7	1179,08	1179,08	
791,21	695,4	1166,46	1166,46	
791,51	695,1	1198,49	1198,49	
791,81	694,8	1229,77	1229,77	
792,11	694,5	1052,27	1052,27	
792,41	694,2	1269,8	1269,8	
792,71	693,9	1207,05	1207,05	
793,01	693,6	1185,53	1185,53	
793,31	693,3	1555,84	1555,84	
793,61	693	1437,14	1437,14	
793,91	692,7	1472,54	1472,54	
794,21	692,4	1385,94	1385,94	
794,51	692,1	1148,98	1148,98	
794,81	691,8	1242,56	1242,56	
795,11	691,5	1264,14	1264,14	
795,41	691,2	1368,05	1368,05	
795,71	690,9	1383,82	1383,82	
796,01	690,6	1393,95	1393,95	
796,31	690,3	1175,5	1175,5	
796,61	690	1029,93	1029,93	
796,91	689,7	1123,28	1123,28	
797,21	689,4	1388,78	1388,78	
797,51	689,1	1455,65	1455,65	
797,81	688,8	1179,62	1179,62	
798,11	688,5	1065,83	1065,83	
798,41	688,2	943,696	943,696	
798,71	687,9	994,13	994,13	
799,01	687,6	1316,5	1316,5	
799,31	687,3	1425,45	1425,45	
799,61	687	1222,54	1222,54	
799,91	686,7	1147,25	1147,25	
800,21	686,4	940,122	940,122	
800,51	686,1	1089,91	1089,91	
800,81	685,8	1366,27	1366,27	
801,11	685,5	957,07	957,07	
801,41	685,2	983,604	983,604	
801,71	684,9	1210,47	1210,47	
802,01	684,6	1096,6	1096,6	
802,31	684,3	1090,07	1090,07	
802,61	684	1402,97	1402,97	
802,91	683,7	1303,14	1303,14	
803,21	683,4	1374,58	1374,58	
803,51	683,1	1247,54	1247,54	
803,81	682,8	1114,07	1114,07	
804,11	682,5	1049,47	1049,47	
804,41	682,2	1138,17	1138,17	
804,71	681,9	1303,11	1303,11	
805,01	681,6	1272,65	1272,65	
805,31	681,3	1329,36	1329,36	
805,61	681	1248	1248	
805,91	680,7	1191,26	1191,26	
806,21	680,4	1257,66	1257,66	
806,51	680,1	1236,32	1236,32	
806,81	679,8	1020,25	1020,25	
807,11	679,5	1402,18	1402,18	
807,41	679,2	1264,93	1264,93	
807,71	678,9	1231,23	1231,23	
808,01	678,6	1260,95	1260,95	
808,31	678,3	1309,63	1309,63	
808,61	678	1047,87	1047,87	
808,91	677,7	1090,85	1090,85	
809,21	677,4	1225,72	1225,72	
809,51	677,1	1120,16	1120,16	
809,81	676,8	937,406	937,406	
810,11	676,5	950,488	950,488	
810,41	676,2	958,282	958,282	
810,71	675,9	1080,21	1080,21	
811,01	675,6	1245,35	1245,35	
811,31	675,3	1099,56	1099,56	
811,61	675	1321,4	1321,4	
811,91	674,7	1337,88	1337,88	
812,21	674,4	1290,96	1290,96	
812,51	674,1	1199,21	1199,21	
812,81	673,8	1142,36	1142,36	
813,11	673,5	1254,96	1254,96	
813,41	673,2	1205,76	1205,76	
813,71	672,9	1312,07	1312,07	
814,01	672,6	1244	1244	
814,31	672,3	1340,08	1340,08	
814,61	672	1278,95	1278,95	
814,91	671,7	1238,1	1238,1	
815,21	671,4	1343,96	1343,96	
815,51	671,1	1221,03	1221,03	
815,81	670,8	1093,1	1093,1	
816,11	670,5	1122,61	1122,61	
816,41	670,2	1230,31	1230,31	
816,71	669,9	1248,66	1248,66	
817,01	669,6	1346,9	1346,9	
817,31	669,3	1134,92	1134,92	
817,61	669	1301,16	1301,16	
817,91	668,7	1255,41	1255,41	
818,21	668,4	1085,61	1085,61	
818,51	668,1	1264,76	1264,76	
818,81	667,8	993,906	993,906	
819,11	667,5	1360,91	1360,91	
819,41	667,2	1160,78	1160,78	
819,71	666,9	1244,13	1244,13	
820,01	666,6	1153,11	1153,11	
820,31	666,3	1448,32	1448,32	
820,61	666	1515,94	1515,94	
820,91	665,7	1199,59	1199,59	
821,21	665,4	1346,47	1346,47	
821,51	665,1	1353,16	1353,16	
821,81	664,8	1172,44	1172,44	
822,11	664,5	1022,58	1022,58	
822,41	664,2	1167,97	1167,97	
822,71	663,9	1264,56	1264,56	
823,01	663,6	1551,2	1551,2	
823,31	663,3	1247,32	1247,32	
823,61	663	1084,02	1084,02	
823,91	662,7	1221,32	1221,32	
824,21	662,4	1391,4	1391,4	
824,51	662,1	1209,16	1209,16	
824,81	661,8	1219,46	1219,46	
825,11	661,5	1270,27	1270,27	
825,41	661,2	1122,47	1122,47	
825,71	660,9	1104,1	1104,1	
826,01	660,6	1171,4	1171,4	
826,31	660,3	1318,36	1318,36	
826,61	660	1333,89	1333,89	
826,91	659,7	1314,24	1314,24	
827,21	659,4	1175,48	1175,48	
827,51	659,1	1204,99	1204,99	
827,81	658,8	1124,31	1124,31	
828,11	658,5	1101,43	1101,43	
828,41	658,2	1024,63	1024,63	
828,71	657,9	1071,61	1071,61	
829,01	657,6	1219,31	1219,31	
829,31	657,3	1241,7	1241,7	
829,61	657	1332,56	1332,56	
829,91	656,7	1421,86	1421,86	
830,21	656,4	1427,52	1427,52	
830,51	656,1	1206,72	1206,72	
830,81	655,8	962,154	962,154	
831,11	655,5	1493,85	1493,85	
831,41	655,2	1366,22	1366,22	
831,71	654,9	1244,84	1244,84	
832,01	654,6	1255,37	1255,37	
832,31	654,3	1131,6	1131,6	
832,61	654	1310,4	1310,4	
832,91	653,7	1417,42	1417,42	
833,21	653,4	1186,77	1186,77	
833,51	653,1	1382,19	1382,19	
833,81	652,8	1271,26	1271,26	
834,11	652,5	1238,11	1238,11	
834,41	652,2	1277,02	1277,02	
834,71	651,9	1322,87	1322,87	
835,01	651,6	1315,44	1315,44	
835,31	651,3	1144,73	1144,73	
835,61	651	1028,59	1028,59	
835,91	650,7	1189,46	1189,46	
836,21	650,4	1361,6	1361,6	
836,51	650,1	1152,08	1152,08	
836,81	649,8	1131,29	1131,29	
837,11	649,5	1375,06	1375,06	
837,41	649,2	1196,21	1196,21	
837,71	648,9	1283,8	1283,8	
838,01	648,6	1380,37	1380,37	
838,31	648,3	1396,27	1396,27	
838,61	648	1040,59	1040,59	
838,91	647,7	1333,45	1333,45	
839,21	647,4	1486,68	1486,68	
839,51	647,1	1226,01	1226,01	
839,81	646,8	1143,29	1143,29	
840,11	646,5	1284,24	1284,24	
840,41	646,2	1331,37	1331,37	
840,71	645,9	1301,18	1301,18	
841,01	645,6	1433,14	1433,14	
841,31	645,3	1137,53	1137,53	
841,61	645	1173,74	1173,74	
841,91	644,7	1227,82	1227,82	
842,21	644,4	1102,52	1102,52	
842,51	644,1	1219,36	1219,36	
842,81	643,8	1155,84	1155,84	
843,11	643,5	1353,62	1353,62	
843,41	643,2	1316,36	1316,36	
843,71	642,9	1193,99	1193,99	
844,01	642,6	1096,1	1096,1	
844,31	642,3	1259,55	1259,55	
844,61	642	1141,95	1141,95	
844,91	641,7	1344,88	1344,88	
845,21	641,4	1306,91	1306,91	
845,51	641,1	1237,72	1237,72	
845,81	640,8	980,696	980,696	
846,11	640,5	956,146	956,146	
846,41	640,2	1136,33	1136,33	
846,71	639,9	1287,08	1287,08	
847,01	639,6	1375,77	1375,77	
847,31	639,3	1206,24	1206,24	
847,61	639	1217,39	1217,39	
847,91	638,7	1123,59	1123,59	
848,21	638,4	1141,26	1141,26	
848,51	638,1	1142,31	1142,31	
848,81	637,8	1281,81	1281,81	
849,11	637,5	1391,83	1391,83	
849,41	637,2	1440,25	1440,25	
849,71	636,9	1299,15	1299,15	
850,01	636,6	1276,03	1276,03	
850,31	636,3	1149,77	1149,77	
850,61	636	1218,1	1218,1	
850,91	635,7	1177,61	1177,61	
851,21	635,4	1110,49	1110,49	
851,51	635,1	1296,85	1296,85	
851,81	634,8	1353,03	1353,03	
852,11	634,5	1101,72	1101,72	
852,41	634,2	1312,05	1312,05	
852,71	633,9	1160,51	1160,51	
853,01	633,6	1230,66	1230,66	
853,31	633,3	1096,25	1096,25	
853,61	633	1385,02	1385,02	
853,91	632,7	1163,96	1163,96	
854,21	632,4	1230,81	1230,81	
854,51	632,1	1311,69	1311,69	
854,81	631,8	1148,49	1148,49	
855,11	631,5	1210,64	1210,64	
855,41	631,2	1072,63	1072,63	
855,71	630,9	1414,55	1414,55	
856,01	630,6	1087,86	1087,86	
856,31	630,3	1390,63	1390,63	
856,61	630	1101,36	1101,36	
856,91	629,7	1219,39	1219,39	
857,21	629,4	1279,31	1279,31	
857,51	629,1	1159,63	1159,63	
857,81	628,8	1259,94	1259,94	
858,11	628,5	1183,68	1183,68	
858,41	628,2	1229,85	1229,85	
858,71	627,9	1300,43	1300,43	
859,01	627,6	1249,02	1249,02	
859,31	627,3	1399,17	1399,17	
859,61	627	1398,95	1398,95	
859,91	626,7	1259,36	1259,36	
860,21	626,4	1060,68	1060,68	
860,51	626,1	1162,43	1162,43	
860,81	625,8	1264,38	1264,38	
861,11	625,5	1496,71	1496,71	
861,41	625,2	1279,39	1279,39	
861,71	624,9	1153,77	1153,77	
862,01	624,6	1236,46	1236,46	
862,31	624,3	1209,46	1209,46	
862,61	624	1292,39	1292,39	
862,91	623,7	1017,52	1017,52	
863,21	623,4	1185,76	1185,76	
863,51	623,1	1355,34	1355,34	
863,81	622,8	1058,97	1058,97	
864,11	622,5	1160,02	1160,02	
864,41	622,2	1291,83	1291,83	
864,71	621,9	1195,65	1195,65	
865,01	621,6	1463,33	1463,33	
865,31	621,3	1207,89	1207,89	
865,61	621	1211,79	1211,79	
865,91	620,7	1142,45	1142,45	
866,21	620,4	1232,25	1232,25	
866,51	620,1	1328,25	1328,25	
866,81	619,8	1247,31	1247,31	
867,11	619,5	1417,13	1417,13	
867,41	619,2	1301,87	1301,87	
867,71	618,9	1239,34	1239,34	
868,01	618,6	1201,42	1201,42	
868,31	618,3	1158,29	1158,29	
868,61	618	1190,46	1190,46	
868,91	617,7	1087,89	1087,89	
869,21	617,4	1215,14	1215,14	
869,51	617,1	1000,36	1000,36	
869,81	616,8	1244,63	1244,63	
870,11	616,5	1137,11	1137,11	
870,41	616,2	1441,55	1441,55	
870,71	615,9	1009,47	1009,47	
871,01	615,6	1174,64	1174,64	
871,31	615,3	1020,2	1020,2	
871,61	615	1096,03	1096,03	
871,91	614,7	1050,17	1050,17	
872,21	614,4	1358,93	1358,93	
872,51	614,1	1235,46	1235,46	
872,81	613,8	1027,8	1027,8	
873,11	613,5	1156,5	1156,5	
873,41	613,2	1169,43	1169,43	
873,71	612,9	1213,5	1213,5	
874,01	612,6	1379,45	1379,45	
874,31	612,3	1154,99	1154,99	
874,61	612	907,386	907,386	
874,91	611,7	1104,14	1104,14	
875,21	611,4	1147,84	1147,84	
875,51	611,1	1154,19	1154,19	
875,81	610,8	1090,11	1090,11	
876,11	610,5	988,664	988,664	
876,41	610,2	1096,84	1096,84	
876,71	609,9	1159,84	1159,84	
877,01	609,6	1281,17	1281,17	
877,31	609,3	1227,4	1227,4	
877,61	609	1320,29	1320,29	
877,91	608,7	1032,66	1032,66	
878,21	608,4	1161,26	1161,26	
878,51	608,1	1397,66	1397,66	
878,81	607,8	1211,45	1211,45	
879,11	607,5	1315,04	1315,04	
879,41	607,2	1481,41	1481,41	
879,71	606,9	1170,83	1170,83	
880,01	606,6	1162,93	1162,93	
880,31	606,3	1187,44	1187,44	
880,61	606	1209,62	1209,62	
880,91	605,7	1100,6	1100,6	
881,21	605,4	1194,33	1194,33	
881,51	605,1	1394,95	1394,95	
881,81	604,8	1154,92	1154,92	
882,11	604,5	1132,45	1132,45	
882,41	604,2	1108,14	1108,14	
882,71	603,9	1159,11	1159,11	
883,01	603,6	1041,74	1041,74	
883,31	603,3	1231,85	1231,85	
883,61	603	1497,78	1497,78	
883,91	602,7	1243,07	1243,07	
884,21	602,4	977,546	977,546	
884,51	602,1	1174,83	1174,83	
884,81	601,8	1349,88	1349,88	
885,11	601,5	1332,36	1332,36	
885,41	601,2	1066,94	1066,94	
885,71	600,9	1077,73	1077,73	
886,01	600,6	1036,95	1036,95	
886,31	600,3	1159,02	1159,02	
886,61	600	1326,34	1326,34	
886,91	599,7	1031,89	1031,89	
887,21	599,4	1351,64	1351,64	
887,51	599,1	1382,11	1382,11	
887,81	598,8	1358,74	1358,74	
888,11	598,5	1266,62	1266,62	
888,41	598,2	1222,1	1222,1	
888,71	597,9	1139,75	1139,75	
889,01	597,6	1154,01	1154,01	
889,31	597,3	1274,68	1274,68	
889,61	597	1305,42	1305,42	
889,91	596,7	1147,18	1147,18	
890,21	596,4	1124,05	1124,05	
890,51	596,1	1139,57	1139,57	
890,81	595,8	1260,55	1260,55	
891,11	595,5	1208,7	1208,7	
891,41	595,2	1333,16	1333,16	
891,71	594,9	1218,36	1218,36	
892,01	594,6	1291,35	1291,35	
892,31	594,3	1155,49	1155,49	
892,61	594	1142,07	1142,07	
892,91	593,7	1163,72	1163,72	
893,21	593,4	1146,41	1146,41	
893,51	593,1	1051,82	1051,82	
893,81	592,8	1299,27	1299,27	
894,11	592,5	1277,67	1277,67	
894,41	592,2	1160,25	1160,25	
894,71	591,9	1355,07	1355,07	
895,01	591,6	1331,8	1331,8	
895,31	591,3	1110,03	1110,03	
895,61	591	1169,04	1169,04	
895,91	590,7	1078,06	1078,06	
896,21	590,4	1001,23	1001,23	
896,51	590,1	1167,03	1167,03	
896,81	589,8	1158,81	1158,81	
897,11	589,5	1123,03	1123,03	
897,41	589,2	1275,76	1275,76	
897,71	588,9	1164,85	1164,85	
898,01	588,6	1104,98	1104,98	
898,31	588,3	1067,53	1067,53	
898,61	588	984,974	984,974	
898,91	587,7	1206	1206	
899,21	587,4	1170,49	1170,49	
899,51	587,1	1215,67	1215,67	
899,81	586,8	1354,13	1354,13	
900,11	586,5	1261,27	1261,27	
900,41	586,2	1097,12	1097,12	
900,71	585,9	1058,28	1058,28	
901,01	585,6	1265,45	1265,45	
901,31	585,3	1254,45	1254,45	
901,61	585	1213,96	1213,96	
901,91	584,7	1223,12	1223,12	
902,21	584,4	1190,38	1190,38	
902,51	584,1	1222,19	1222,19	
902,81	583,8	1342,62	1342,62	
903,11	583,5	1084,28	1084,28	
903,41	583,2	1531,37	1531,37	
903,71	582,9	1313,86	1313,86	
904,01	582,6	1140,11	1140,11	
904,31	582,3	1164,28	1164,28	
904,61	582	1281,44	1281,44	
904,91	581,7	1146,61	1146,61	
905,21	581,4	1224,74	1224,74	
905,51	581,1	1167,93	1167,93	
905,81	580,8	1396,49	1396,49	
906,11	580,5	1394,7	1394,7	
906,41	580,2	1121,22	1121,22	
906,71	579,9	1364,13	1364,13	
907,01	579,6	1052,1	1052,1	
907,31	579,3	973,088	973,088	
907,61	579	1280,34	1280,34	
907,91	578,7	1402,92	1402,92	
908,21	578,4	1150,05	1150,05	
908,51	578,1	1346,1	1346,1	
908,81	577,8	1320,61	1320,61	
909,11	577,5	1185,69	1185,69	
909,41	577,2	1202,73	1202,73	
909,71	576,9	1295,5	1295,5	
910,01	576,6	1007,98	1007,98	
910,31	576,3	810,632	810,632	
910,61	576	1039,12	1039,12	
910,91	575,7	1219,5	1219,5	
911,21	575,4	1286,36	1286,36	
911,51	575,1	1214,33	1214,33	
911,81	574,8	1300,18	1300,18	
912,11	574,5	1223,72	1223,72	
912,41	574,2	991,638	991,638	
912,71	573,9	1011,7	1011,7	
913,01	573,6	1030,8	1030,8	
913,31	573,3	973,922	973,922	
913,61	573	1120,68	1120,68	
913,91	572,7	1093,06	1093,06	
914,21	572,4	1129,91	1129,91	
914,51	572,1	1277,24	1277,24	
914,81	571,8	1236,51	1236,51	
915,11	571,5	1471,74	1471,74	
915,41	571,2	973,814	973,814	
915,71	570,9	1250,02	1250,02	
916,01	570,6	1025,75	1025,75	
916,31	570,3	1051,01	1051,01	
916,61	570	1155,96	1155,96	
916,91	569,7	1086,32	1086,32	
917,21	569,4	1183,39	1183,39	
917,51	569,1	1206,56	1206,56	
917,81	568,8	1249,62	1249,62	
918,11	568,5	1305,53	1305,53	
918,41	568,2	1048,91	1048,91	
918,71	567,9	921,69	921,69	
919,01	567,6	1179,94	1179,94	
919,31	567,3	1028,22	1028,22	
919,61	567	1107,35	1107,35	
919,91	566,7	997,632	997,632	
920,21	566,4	1100,18	1100,18	
920,51	566,1	1137,86	1137,86	
920,81	565,8	1224,22	1224,22	
921,11	565,5	1319,05	1319,05	
921,41	565,2	1157,19	1157,19	
921,71	564,9	1131,53	1131,53	
922,01	564,6	1136,07	1136,07	
922,31	564,3	1141	1141	
922,61	564	1201,87	1201,87	
922,91	563,7	1128,8	1128,8	
923,21	563,4	1035,23	1035,23	
923,51	563,1	1203,89	1203,89	
923,81	562,8	1276,36	1276,36	
924,11	562,5	1157,98	1157,98	
924,41	562,2	1095,91	1095,91	
924,71	561,9	1486,63	1486,63	
925,01	561,6	1300,96	1300,96	
925,31	561,3	1342,13	1342,13	
925,61	561	1158,76	1158,76	
925,91	560,7	1411,42	1411,42	
926,21	560,4	1367,59	1367,59	
926,51	560,1	1255,34	1255,34	
926,81	559,8	1207,21	1207,21	
927,11	559,5	1177,14	1177,14	
927,41	559,2	1288,4	1288,4	
927,71	558,9	1325,18	1325,18	
928,01	558,6	1182,59	1182,59	
928,31	558,3	1276,57	1276,57	
928,61	558	1426,07	1426,07	
928,91	557,7	1044,74	1044,74	
929,21	557,4	1349,43	1349,43	
929,51	557,1	1304,93	1304,93	
929,81	556,8	1173,84	1173,84	
930,11	556,5	1493,41	1493,41	
930,41	556,2	1334,64	1334,64	
930,71	555,9	1127,58	1127,58	
931,01	555,6	1320,54	1320,54	
931,31	555,3	1261,45	1261,45	
931,61	555	1085,69	1085,69	
931,91	554,7	1307,7	1307,7	
932,21	554,4	1222,21	1222,21	
932,51	554,1	975,784	975,784	
932,81	553,8	1042,51	1042,51	
933,11	553,5	964,824	964,824	
933,41	553,2	1049,95	1049,95	
933,71	552,9	951,256	951,256	
934,01	552,6	951,66	951,66	
934,31	552,3	1213,49	1213,49	
934,61	552	1245,62	1245,62	
934,91	551,7	998,616	998,616	
935,21	551,4	919,608	919,608	
935,51	551,1	896,256	896,256	
935,81	550,8	963,974	963,974	
936,11	550,5	850,504	850,504	
936,41	550,2	908,524	908,524	
936,71	549,9	810,386	810,386	
937,01	549,6	817,254	817,254	
937,31	549,3	923,084	923,084	
937,61	549	847,408	847,408	
937,91	548,7	908,288	908,288	
938,21	548,4	493,722	493,722	
938,51	548,1	663,798	663,798	
938,81	547,8	742,994	742,994	
939,11	547,5	763,742	763,742	
939,41	547,2	798,522	798,522	
939,71	546,9	868,562	868,562	
940,01	546,6	787,864	787,864	
940,31	546,3	732,242	732,242	
940,61	546	653,528	653,528	
940,91	545,7	765,568	765,568	
941,21	545,4	655,906	655,906	
941,51	545,1	672,756	672,756	
941,81	544,8	683,86	683,86	
942,11	544,5	791,258	791,258	
942,41	544,2	662,784	662,784	
942,71	543,9	862,448	862,448	
943,01	543,6	681,308	681,308	
943,31	543,3	454,346	454,346	
943,61	543	423,586	423,586	
943,91	542,7	465,49	465,49	
944,21	542,4	517,364	517,364	
944,51	542,1	582,01	582,01	
944,81	541,8	631,91	631,91	
945,11	541,5	508,246	508,246	
945,41	541,2	627,356	627,356	
945,71	540,9	438,986	438,986	
946,01	540,6	461,582	461,582	
946,31	540,3	515,846	515,846	
946,61	540	600,592	600,592	
946,91	539,7	519,244	519,244	
947,21	539,4	652,174	652,174	
947,51	539,1	777,434	777,434	
947,81	538,8	1068,28	1068,28	
948,11	538,5	1527,26	1527,26	
948,41	538,2	1950,96	1950,96	
948,71	537,9	2101,28	2101,28	
949,01	537,6	2586,52	2586,52	
949,31	537,3	2898,96	2898,96	
949,61	537	3181,02	3181,02	
949,91	536,7	3406,38	3406,38	
950,21	536,4	3382,84	3382,84	
950,51	536,1	3282,5	3282,5	
950,81	535,8	3311,1	3311,1	
951,11	535,5	2843,66	2843,66	
951,41	535,2	2555,58	2555,58	
951,71	534,9	2163,44	2163,44	
952,01	534,6	2075,96	2075,96	
952,31	534,3	1575,26	1575,26	
952,61	534	1423,46	1423,46	
952,91	533,7	1597,33	1597,33	
953,21	533,4	1167,95	1167,95	
953,51	533,1	1054,46	1054,46	
953,81	532,8	967,782	967,782	
954,11	532,5	1035,75	1035,75	
954,41	532,2	1098,19	1098,19	
954,71	531,9	980,898	980,898	
955,01	531,6	847,586	847,586	
955,31	531,3	715,702	715,702	
955,61	531	734,128	734,128	
955,91	530,7	757,078	757,078	
956,21	530,4	866,384	866,384	
956,51	530,1	742,024	742,024	
956,81	529,8	839,062	839,062	
957,11	529,5	725,136	725,136	
957,41	529,2	543,366	543,366	
957,71	528,9	835,048	835,048	
958,01	528,6	622,424	622,424	
958,31	528,3	545,894	545,894	
958,61	528	519,274	519,274	
958,91	527,7	484,678	484,678	
959,21	527,4	516,074	516,074	
959,51	527,1	531,832	531,832	
959,81	526,8	543,974	543,974	
960,11	526,5	531,996	531,996	
960,41	526,2	568,268	568,268	
960,71	525,9	449,018	449,018	
961,01	525,6	438,846	438,846	
961,31	525,3	498,256	498,256	
961,61	525	550,02	550,02	
961,91	524,7	469,764	469,764	
962,21	524,4	606,73	606,73	
962,51	524,1	586,802	586,802	
962,81	523,8	371,718	371,718	
963,11	523,5	362,45	362,45	
963,41	523,2	523,796	523,796	
963,71	522,9	518,84	518,84	
964,01	522,6	520,83	520,83	
964,31	522,3	427,298	427,298	
964,61	522	587,512	587,512	
964,91	521,7	536,328	536,328	
965,21	521,4	577,968	577,968	
965,51	521,1	601,81	601,81	
965,81	520,8	488,87	488,87	
966,11	520,5	508,35	508,35	
966,41	520,2	502,062	502,062	
966,71	519,9	417,484	417,484	
967,01	519,6	530,33	530,33	
967,31	519,3	576,38	576,38	
967,61	519	720,41	720,41	
967,91	518,7	558,89	558,89	
968,21	518,4	572,3	572,3	
968,51	518,1	455,058	455,058	
968,81	517,8	547,304	547,304	
969,11	517,5	447,016	447,016	
969,41	517,2	560,492	560,492	
969,71	516,9	609,814	609,814	
970,01	516,6	532,94	532,94	
970,31	516,3	555,072	555,072	
970,61	516	394,892	394,892	
970,91	515,7	440,384	440,384	
971,21	515,4	472,616	472,616	
971,51	515,1	629,036	629,036	
971,81	514,8	509,916	509,916	
972,11	514,5	371,288	371,288	
972,41	514,2	591,462	591,462	
972,71	513,9	601,328	601,328	
973,01	513,6	479,454	479,454	
973,31	513,3	458,446	458,446	
973,61	513	393,996	393,996	
973,91	512,7	415,988	415,988	
974,21	512,4	562,914	562,914	
974,51	512,1	494,042	494,042	
974,81	511,8	536,896	536,896	
975,11	511,5	542,004	542,004	
975,41	511,2	545,798	545,798	
975,71	510,9	465,212	465,212	
976,01	510,6	510,144	510,144	
976,31	510,3	536,604	536,604	
976,61	510	464,86	464,86	
976,91	509,7	520,058	520,058	
977,21	509,4	484,414	484,414	
977,51	509,1	508,324	508,324	
977,81	508,8	516,564	516,564	
978,11	508,5	546,296	546,296	
978,41	508,2	670,98	670,98	
978,71	507,9	664,606	664,606	
979,01	507,6	531,542	531,542	
979,31	507,3	426,022	426,022	
979,61	507	630,248	630,248	
979,91	506,7	568,234	568,234	
980,21	506,4	403,144	403,144	
980,51	506,1	472,63	472,63	
980,81	505,8	444,744	444,744	
981,11	505,5	453,28	453,28	
981,41	505,2	500,736	500,736	
981,71	504,9	587,514	587,514	
982,01	504,6	591,012	591,012	
982,31	504,3	619,708	619,708	
982,61	504	401,606	401,606	
982,91	503,7	503,212	503,212	
983,21	503,4	452,108	452,108	
983,51	503,1	448,128	448,128	
983,81	502,8	443,466	443,466	
984,11	502,5	525,426	525,426	
984,41	502,2	404,658	404,658	
984,71	501,9	425,644	425,644	
985,01	501,6	379,94	379,94	
985,31	501,3	335,612	335,612	
985,61	501	504,6	504,6	
985,91	500,7	485,978	485,978	
986,21	500,4	562,39	562,39	
986,51	500,1	582,892	582,892	
986,81	499,8	571,31	571,31	
987,11	499,5	620,7	620,7	
987,41	499,2	598,734	598,734	
987,71	498,9	481,302	481,302	
988,01	498,6	637,238	637,238	
988,31	498,3	571,35	571,35	
988,61	498	520,514	520,514	
988,91	497,7	675,99	675,99	
989,21	497,4	670,858	670,858	
989,51	497,1	459,222	459,222	
989,81	496,8	449,56	449,56	
990,11	496,5	405,742	405,742	
990,41	496,2	549,832	549,832	
990,71	495,9	503,456	503,456	
991,01	495,6	462,858	462,858	
991,31	495,3	711,076	711,076	
991,61	495	612,646	612,646	
991,91	494,7	442,89	442,89	
992,21	494,4	436,26	436,26	
992,51	494,1	612,992	612,992	
992,81	493,8	691,424	691,424	
993,11	493,5	426,804	426,804	
993,41	493,2	547,71	547,71	
993,71	492,9	543,872	543,872	
994,01	492,6	446,782	446,782	
994,31	492,3	587,004	587,004	
994,61	492	451,31	451,31	
994,91	491,7	499,688	499,688	
995,21	491,4	463,324	463,324	
995,51	491,1	345,728	345,728	
995,81	490,8	484,498	484,498	
996,11	490,5	582,986	582,986	
996,41	490,2	477,848	477,848	
996,71	489,9	535,038	535,038	
997,01	489,6	480,104	480,104	
997,31	489,3	336,06	336,06	
997,61	489	397,34	397,34	
997,91	488,7	420,064	420,064	
998,21	488,4	571,114	571,114	
998,51	488,1	394,926	394,926	
998,81	487,8	562,514	562,514	
999,11	487,5	430,532	430,532	
999,41	487,2	602,898	602,898	
999,71	486,9	608,052	608,052	
1000,01	486,6	615,138	615,138	
1000,31	486,3	454,294	454,294	
1000,61	486	420,424	420,424	
1000,91	485,7	454,452	454,452	
1001,21	485,4	512,754	512,754	
1001,51	485,1	509,426	509,426	
1001,81	484,8	408,64	408,64	
1002,11	484,5	343,228	343,228	
1002,41	484,2	431,16	431,16	
1002,71	483,9	441,8	441,8	
1003,01	483,6	444,89	444,89	
1003,31	483,3	512,452	512,452	
1003,61	483	646,142	646,142	
1003,91	482,7	453,514	453,514	
1004,21	482,4	356,594	356,594	
1004,51	482,1	432,802	432,802	
1004,81	481,8	421,7	421,7	
1005,11	481,5	496,026	496,026	
1005,41	481,2	624,208	624,208	
1005,71	480,9	677,136	677,136	
1006,01	480,6	541,75	541,75	
1006,31	480,3	551,644	551,644	
1006,61	480	500,258	500,258	
1006,91	479,7	570,186	570,186	
1007,21	479,4	541,694	541,694	
1007,51	479,1	716,532	716,532	
1007,81	478,8	628,69	628,69	
1008,11	478,5	483,292	483,292	
1008,41	478,2	677,57	677,57	
1008,71	477,9	557,152	557,152	
1009,01	477,6	546,538	546,538	
1009,31	477,3	677,812	677,812	
1009,61	477	458,176	458,176	
1009,91	476,7	381,01	381,01	
1010,21	476,4	583,526	583,526	
1010,51	476,1	503,254	503,254	
1010,81	475,8	458,256	458,256	
1011,11	475,5	422,386	422,386	
1011,41	475,2	620,958	620,958	
1011,71	474,9	699,66	699,66	
1012,01	474,6	539,816	539,816	
1012,31	474,3	446,054	446,054	
1012,61	474	432,284	432,284	
1012,91	473,7	421,53	421,53	
1013,21	473,4	630,36	630,36	
1013,51	473,1	581,564	581,564	
1013,81	472,8	534,27	534,27	
1014,11	472,5	407,656	407,656	
1014,41	472,2	451,82	451,82	
1014,71	471,9	483,736	483,736	
1015,01	471,6	552,228	552,228	
1015,31	471,3	708,534	708,534	
1015,61	471	687,542	687,542	
1015,91	470,7	435,26	435,26	
1016,21	470,4	489,33	489,33	
1016,51	470,1	577,354	577,354	
1016,81	469,8	405,312	405,312	
1017,11	469,5	496,256	496,256	
1017,41	469,2	587,686	587,686	
1017,71	468,9	482,488	482,488	
1018,01	468,6	446,496	446,496	
1018,31	468,3	609,578	609,578	
1018,61	468	520,494	520,494	
1018,91	467,7	566,616	566,616	
1019,21	467,4	687,638	687,638	
1019,51	467,1	557,46	557,46	
1019,81	466,8	448,344	448,344	
1020,11	466,5	443,892	443,892	
1020,41	466,2	477,43	477,43	
1020,71	465,9	493,034	493,034	
1021,01	465,6	474,512	474,512	
1021,31	465,3	534,478	534,478	
1021,61	465	321,382	321,382	
1021,91	464,7	352,01	352,01	
1022,21	464,4	385,488	385,488	
1022,51	464,1	429,82	429,82	
1022,81	463,8	547,124	547,124	
1023,11	463,5	472,674	472,674	
1023,41	463,2	518,004	518,004	
1023,71	462,9	536,576	536,576	
1024,01	462,6	485,166	485,166	
1024,31	462,3	549,524	549,524	
1024,61	462	447,956	447,956	
1024,91	461,7	413,226	413,226	
1025,21	461,4	595,546	595,546	
1025,51	461,1	571,112	571,112	
1025,81	460,8	755,614	755,614	
1026,11	460,5	844,146	844,146	
1026,41	460,2	523,966	523,966	
1026,71	459,9	426,384	426,384	
1027,01	459,6	522,928	522,928	
1027,31	459,3	446,58	446,58	
1027,61	459	661,48	661,48	
1027,91	458,7	547,388	547,388	
1028,21	458,4	647,832	647,832	
1028,51	458,1	560,9	560,9	
1028,81	457,8	651,466	651,466	
1029,11	457,5	596,352	596,352	
1029,41	457,2	568,936	568,936	
1029,71	456,9	594,57	594,57	
1030,01	456,6	578,478	578,478	
1030,31	456,3	461,436	461,436	
1030,61	456	477,898	477,898	
1030,91	455,7	549,118	549,118	
1031,21	455,4	417,596	417,596	
1031,51	455,1	631,272	631,272	
1031,81	454,8	618,912	618,912	
1032,11	454,5	682,562	682,562	
1032,41	454,2	493,532	493,532	
1032,71	453,9	548,012	548,012	
1033,01	453,6	681,15	681,15	
1033,31	453,3	484,736	484,736	
1033,61	453	629,914	629,914	
1033,91	452,7	609,15	609,15	
1034,21	452,4	461,71	461,71	
1034,51	452,1	557,648	557,648	
1034,81	451,8	399,598	399,598	
1035,11	451,5	489,028	489,028	
1035,41	451,2	462,612	462,612	
1035,71	450,9	438,618	438,618	
1036,01	450,6	427,514	427,514	
1036,31	450,3	553,12	553,12	
1036,61	450	526,898	526,898	
1036,91	449,7	555,638	555,638	
1037,21	449,4	427,052	427,052	
1037,51	449,1	562,154	562,154	
1037,81	448,8	522,746	522,746	
1038,11	448,5	431,806	431,806	
1038,41	448,2	476,794	476,794	
1038,71	447,9	436,91	436,91	
1039,01	447,6	379,566	379,566	
1039,31	447,3	471,41	471,41	
1039,61	447	475,694	475,694	
1039,91	446,7	595,506	595,506	
1040,21	446,4	501,73	501,73	
1040,51	446,1	402,226	402,226	
1040,81	445,8	570,3	570,3	
1041,11	445,5	513,826	513,826	
1041,41	445,2	508,076	508,076	
1041,71	444,9	394,704	394,704	
1042,01	444,6	487,642	487,642	
1042,31	444,3	594,932	594,932	
1042,61	444	539,632	539,632	
1042,91	443,7	490,798	490,798	
1043,21	443,4	405,46	405,46	
1043,51	443,1	569,222	569,222	
1043,81	442,8	547,394	547,394	
1044,11	442,5	550,538	550,538	
1044,41	442,2	496,246	496,246	
1044,71	441,9	656,966	656,966	
1045,01	441,6	582,388	582,388	
1045,31	441,3	548,614	548,614	
1045,61	441	519,888	519,888	
1045,91	440,7	437,646	437,646	
1046,21	440,4	570,132	570,132	
1046,51	440,1	372,462	372,462	
1046,81	439,8	489,486	489,486	
1047,11	439,5	573,238	573,238	
1047,41	439,2	601,012	601,012	
1047,71	438,9	509,248	509,248	
1048,01	438,6	468,726	468,726	
1048,31	438,3	442,652	442,652	
1048,61	438	626,754	626,754	
1048,91	437,7	485,3	485,3	
1049,21	437,4	677,156	677,156	
1049,51	437,1	553,204	553,204	
1049,81	436,8	437,772	437,772	
1050,11	436,5	332,73	332,73	
1050,41	436,2	473,79	473,79	
1050,71	435,9	554,736	554,736	
1051,01	435,6	436,034	436,034	
1051,31	435,3	454,07	454,07	
1051,61	435	599,654	599,654	
1051,91	434,7	472,196	472,196	
1052,21	434,4	406,634	406,634	
1052,51	434,1	469,868	469,868	
1052,81	433,8	505,282	505,282	
1053,11	433,5	519,776	519,776	
1053,41	433,2	472,934	472,934	
1053,71	432,9	458,772	458,772	
1054,01	432,6	439,738	439,738	
1054,31	432,3	443,048	443,048	
1054,61	432	423,5	423,5	
1054,91	431,7	411,462	411,462	
1055,21	431,4	507,752	507,752	
1055,51	431,1	485,412	485,412	
1055,81	430,8	579,972	579,972	
1056,11	430,5	607,194	607,194	
1056,41	430,2	675,924	675,924	
1056,71	429,9	474,528	474,528	
1057,01	429,6	400,042	400,042	
1057,31	429,3	556,622	556,622	
1057,61	429	461,51	461,51	
1057,91	428,7	403,496	403,496	
1058,21	428,4	454,65	454,65	
1058,51	428,1	486,954	486,954	
1058,81	427,8	595,464	595,464	
1059,11	427,5	663,756	663,756	
1059,41	427,2	665,264	665,264	
1059,71	426,9	501,72	501,72	
1060,01	426,6	448,784	448,784	
1060,31	426,3	561,976	561,976	
1060,61	426	575,634	575,634	
1060,91	425,7	523,984	523,984	
1061,21	425,4	536,058	536,058	
1061,51	425,1	364,428	364,428	
1061,81	424,8	511,73	511,73	
1062,11	424,5	455,944	455,944	
1062,41	424,2	292,926	292,926	
1062,71	423,9	432,42	432,42	
1063,01	423,6	460,998	460,998	
1063,31	423,3	466,202	466,202	
1063,61	423	617,684	617,684	
1063,91	422,7	512,86	512,86	
1064,21	422,4	512,638	512,638	
1064,51	422,1	510,222	510,222	
1064,81	421,8	564,322	564,322	
1065,11	421,5	439,984	439,984	
1065,41	421,2	559,222	559,222	
1065,71	420,9	469,546	469,546	
1066,01	420,6	422,32	422,32	
1066,31	420,3	588,646	588,646	
1066,61	420	571,736	571,736	
1066,91	419,7	646,32	646,32	
1067,21	419,4	527,452	527,452	
1067,51	419,1	514,108	514,108	
1067,81	418,8	523,37	523,37	
1068,11	418,5	400,39	400,39	
1068,41	418,2	355,068	355,068	
1068,71	417,9	583,696	583,696	
1069,01	417,6	525,928	525,928	
1069,31	417,3	489,676	489,676	
1069,61	417	645,048	645,048	
1069,91	416,7	539,076	539,076	
1070,21	416,4	517,626	517,626	
1070,51	416,1	707,91	707,91	
1070,81	415,8	598,238	598,238	
1071,11	415,5	444,252	444,252	
1071,41	415,2	430,916	430,916	
1071,71	414,9	548,67	548,67	
1072,01	414,6	455,702	455,702	
1072,31	414,3	411,176	411,176	
1072,61	414	511,958	511,958	
1072,91	413,7	423,59	423,59	
1073,21	413,4	521,122	521,122	
1073,51	413,1	513,738	513,738	
1073,81	412,8	442,728	442,728	
1074,11	412,5	517,282	517,282	
1074,41	412,2	620,596	620,596	
1074,71	411,9	449,168	449,168	
1075,01	411,6	592,704	592,704	
1075,31	411,3	541,368	541,368	
1075,61	411	524,802	524,802	
1075,91	410,7	477,012	477,012	
1076,21	410,4	455,612	455,612	
1076,51	410,1	523,53	523,53	
1076,81	409,8	479,474	479,474	
1077,11	409,5	461,918	461,918	
1077,41	409,2	567,892	567,892	
1077,71	408,9	453,262	453,262	
1078,01	408,6	525,81	525,81	
1078,31	408,3	500,706	500,706	
1078,61	408	654,418	654,418	
1078,91	407,7	464,8	464,8	
1079,21	407,4	467,968	467,968	
1079,51	407,1	459,06	459,06	
1079,81	406,8	423,492	423,492	
1080,11	406,5	543,208	543,208	
1080,41	406,2	502,998	502,998	
1080,71	405,9	401,922	401,922	
1081,01	405,6	411,468	411,468	
1081,31	405,3	624,924	624,924	
1081,61	405	569,368	569,368	
1081,91	404,7	461,902	461,902	
1082,21	404,4	626,76	626,76	
1082,51	404,1	680,482	680,482	
1082,81	403,8	465,596	465,596	
1083,11	403,5	406,808	406,808	
1083,41	403,2	468,756	468,756	
1083,71	402,9	560,204	560,204	
1084,01	402,6	512,642	512,642	
1084,31	402,3	526,066	526,066	
1084,61	402	455,012	455,012	
1084,91	401,7	593,516	593,516	
1085,21	401,4	623,056	623,056	
1085,51	401,1	508,73	508,73	
1085,81	400,8	406,856	406,856	
1086,11	400,5	414,594	414,594	
1086,41	400,2	506,058	506,058	
1086,71	399,9	554,338	554,338	
1087,01	399,6	513,794	513,794	
1087,31	399,3	464,44	464,44	
1087,61	399	323,198	323,198	
1087,91	398,7	415,076	415,076	
1088,21	398,4	434,928	434,928	
1088,51	398,1	659,284	659,284	
1088,81	397,8	637,212	637,212	
1089,11	397,5	547,888	547,888	
1089,41	397,2	506,898	506,898	
1089,71	396,9	496,006	496,006	
1090,01	396,6	686,836	686,836	
1090,31	396,3	548,912	548,912	
1090,61	396	556,172	556,172	
1090,91	395,7	572,652	572,652	
1091,21	395,4	470,648	470,648	
1091,51	395,1	542,68	542,68	
1091,81	394,8	471,884	471,884	
1092,11	394,5	475,176	475,176	
1092,41	394,2	359,092	359,092	
1092,71	393,9	593,566	593,566	
1093,01	393,6	577,172	577,172	
1093,31	393,3	473,612	473,612	
1093,61	393	426,762	426,762	
1093,91	392,7	664,872	664,872	
1094,21	392,4	535,052	535,052	
1094,51	392,1	479,154	479,154	
1094,81	391,8	706,228	706,228	
1095,11	391,5	622,316	622,316	
1095,41	391,2	620,37	620,37	
1095,71	390,9	491,864	491,864	
1096,01	390,6	573,828	573,828	
1096,31	390,3	624,616	624,616	
1096,61	390	573,358	573,358	
1096,91	389,7	575,02	575,02	
1097,21	389,4	534,822	534,822	
1097,51	389,1	435,826	435,826	
1097,81	388,8	475,848	475,848	
1098,11	388,5	591,602	591,602	
1098,41	388,2	654,368	654,368	
1098,71	387,9	539,368	539,368	
1099,01	387,6	419,276	419,276	
1099,31	387,3	489,004	489,004	
1099,61	387	385,736	385,736	
1099,91	386,7	457,644	457,644	
1100,21	386,4	602,34	602,34	
1100,51	386,1	596,82	596,82	
1100,81	385,8	558,882	558,882	
1101,11	385,5	372,878	372,878	
1101,41	385,2	279,192	279,192	
1101,71	384,9	564,986	564,986	
1102,01	384,6	585,222	585,222	
1102,31	384,3	457,976	457,976	
1102,61	384	497,66	497,66	
1102,91	383,7	522,36	522,36	
1103,21	383,4	483,076	483,076	
1103,51	383,1	521,462	521,462	
1103,81	382,8	473,974	473,974	
1104,11	382,5	563,468	563,468	
1104,41	382,2	585,252	585,252	
1104,71	381,9	404,1	404,1	
1105,01	381,6	514,486	514,486	
1105,31	381,3	510,362	510,362	
1105,61	381	448,836	448,836	
1105,91	380,7	557,466	557,466	
1106,21	380,4	433,642	433,642	
1106,51	380,1	539,318	539,318	
1106,81	379,8	686,424	686,424	
1107,11	379,5	509,872	509,872	
1107,41	379,2	514,826	514,826	
1107,71	378,9	621,994	621,994	
1108,01	378,6	597,896	597,896	
1108,31	378,3	581,874	581,874	
1108,61	378	393,664	393,664	
1108,91	377,7	542,83	542,83	
1109,21	377,4	692,642	692,642	
1109,51	377,1	629,366	629,366	
1109,81	376,8	589,176	589,176	
1110,11	376,5	523,45	523,45	
1110,41	376,2	592,262	592,262	
1110,71	375,9	604,42	604,42	
1111,01	375,6	478,9	478,9	
1111,31	375,3	535,298	535,298	
1111,61	375	679,528	679,528	
1111,91	374,7	663,702	663,702	
1112,21	374,4	497,82	497,82	
1112,51	374,1	468,984	468,984	
1112,81	373,8	491,74	491,74	
1113,11	373,5	510,286	510,286	
1113,41	373,2	545,268	545,268	
1113,71	372,9	461,842	461,842	
1114,01	372,6	593,27	593,27	
1114,31	372,3	596,924	596,924	
1114,61	372	540,16	540,16	
1114,91	371,7	560,202	560,202	
1115,21	371,4	426,55	426,55	
1115,51	371,1	577,118	577,118	
1115,81	370,8	594,1	594,1	
1116,11	370,5	430,642	430,642	
1116,41	370,2	507,532	507,532	
1116,71	369,9	549,47	549,47	
1117,01	369,6	441,684	441,684	
1117,31	369,3	423,358	423,358	
1117,61	369	498,902	498,902	
1117,91	368,7	419,256	419,256	
1118,21	368,4	515	515	
1118,51	368,1	479,45	479,45	
1118,81	367,8	468,66	468,66	
1119,11	367,5	496,248	496,248	
1119,41	367,2	578,394	578,394	
1119,71	366,9	645,112	645,112	
1120,01	366,6	633,402	633,402	
1120,31	366,3	488,56	488,56	
1120,61	366	445,868	445,868	
1120,91	365,7	474,846	474,846	
1121,21	365,4	441,132	441,132	
1121,51	365,1	553,084	553,084	
1121,81	364,8	515,766	515,766	
1122,11	364,5	569,172	569,172	
1122,41	364,2	598,696	598,696	
1122,71	363,9	492,836	492,836	
1123,01	363,6	502,62	502,62	
1123,31	363,3	585,78	585,78	
1123,61	363	600,794	600,794	
1123,91	362,7	484,554	484,554	
1124,21	362,4	534,46	534,46	
1124,51	362,1	563,382	563,382	
1124,81	361,8	469,092	469,092	
1125,11	361,5	502,222	502,222	
1125,41	361,2	343,41	343,41	
1125,71	360,9	456,864	456,864	
1126,01	360,6	611	611	
1126,31	360,3	417,354	417,354	
1126,61	360	506,67	506,67	
1126,91	359,7	648,26	648,26	
1127,21	359,4	614,116	614,116	
1127,51	359,1	433,218	433,218	
1127,81	358,8	461,274	461,274	
1128,11	358,5	595,374	595,374	
1128,41	358,2	620,128	620,128	
1128,71	357,9	629,814	629,814	
1129,01	357,6	578,988	578,988	
1129,31	357,3	682,312	682,312	
1129,61	357	575,49	575,49	
1129,91	356,7	451,134	451,134	
1130,21	356,4	845,04	845,04	
1130,51	356,1	735,428	735,428	
1130,81	355,8	667,146	667,146	
1131,11	355,5	363,25	363,25	
1131,41	355,2	489,148	489,148	
1131,71	354,9	580,988	580,988	
1132,01	354,6	729,45	729,45	
1132,31	354,3	479,378	479,378	
1132,61	354	494,702	494,702	
1132,91	353,7	507,54	507,54	
1133,21	353,4	664,65	664,65	
1133,51	353,1	443,098	443,098	
1133,81	352,8	460,026	460,026	
1134,11	352,5	436,73	436,73	
1134,41	352,2	454,728	454,728	
1134,71	351,9	361,344	361,344	
1135,01	351,6	453,996	453,996	
1135,31	351,3	555,3	555,3	
1135,61	351	631,102	631,102	
1135,91	350,7	447,562	447,562	
1136,21	350,4	498,66	498,66	
1136,51	350,1	420,104	420,104	
1136,81	349,8	332,54	332,54	
1137,11	349,5	408,392	408,392	
1137,41	349,2	386,76	386,76	
1137,71	348,9	393,286	393,286	
1138,01	348,6	497,774	497,774	
1138,31	348,3	488,584	488,584	
1138,61	348	431,614	431,614	
1138,91	347,7	547,686	547,686	
1139,21	347,4	610,84	610,84	
1139,51	347,1	386,002	386,002	
1139,81	346,8	680,768	680,768	
1140,11	346,5	482,702	482,702	
1140,41	346,2	466,818	466,818	
1140,71	345,9	445,322	445,322	
1141,01	345,6	515,484	515,484	
1141,31	345,3	396,744	396,744	
1141,61	345	497,74	497,74	
1141,91	344,7	363,122	363,122	
1142,21	344,4	527,504	527,504	
1142,51	344,1	639,94	639,94	
1142,81	343,8	606,662	606,662	
1143,11	343,5	440,972	440,972	
1143,41	343,2	358,564	358,564	
1143,71	342,9	723,518	723,518	
1144,01	342,6	701,102	701,102	
1144,31	342,3	417,762	417,762	
1144,61	342	560,356	560,356	
1144,91	341,7	485,664	485,664	
1145,21	341,4	502,772	502,772	
1145,51	341,1	525,488	525,488	
1145,81	340,8	412,388	412,388	
1146,11	340,5	363,144	363,144	
1146,41	340,2	535,256	535,256	
1146,71	339,9	492,204	492,204	
1147,01	339,6	488,256	488,256	
1147,31	339,3	519,296	519,296	
1147,61	339	409,844	409,844	
1147,91	338,7	434,166	434,166	
1148,21	338,4	522,236	522,236	
1148,51	338,1	525,668	525,668	
1148,81	337,8	581,678	581,678	
1149,11	337,5	437,282	437,282	
1149,41	337,2	541,828	541,828	
1149,71	336,9	357,628	357,628	
1150,01	336,6	523,966	523,966	
1150,31	336,3	440,866	440,866	
1150,61	336	568,002	568,002	
1150,91	335,7	493,21	493,21	
1151,21	335,4	425,658	425,658	
1151,51	335,1	455,938	455,938	
1151,81	334,8	394,35	394,35	
1152,11	334,5	394,046	394,046	
1152,41	334,2	463,186	463,186	
1152,71	333,9	510,302	510,302	
1153,01	333,6	585,212	585,212	
1153,31	333,3	707,02	707,02	
1153,61	333	549,046	549,046	
1153,91	332,7	499,83	499,83	
1154,21	332,4	465,81	465,81	
1154,51	332,1	573,416	573,416	
1154,81	331,8	521,262	521,262	
1155,11	331,5	494,936	494,936	
1155,41	331,2	529,166	529,166	
1155,71	330,9	479,874	479,874	
1156,01	330,6	458,96	458,96	
1156,31	330,3	432,85	432,85	
1156,61	330	545,16	545,16	
1156,91	329,7	463,506	463,506	
1157,21	329,4	422,994	422,994	
1157,51	329,1	523,232	523,232	
1157,81	328,8	451,406	451,406	
1158,11	328,5	503,772	503,772	
1158,41	328,2	469,878	469,878	
1158,71	327,9	308,128	308,128	
1159,01	327,6	418,168	418,168	
1159,31	327,3	495,178	495,178	
1159,61	327	412,398	412,398	
1159,91	326,7	387,772	387,772	
1160,21	326,4	508,904	508,904	
1160,51	326,1	441,968	441,968	
1160,81	325,8	384,686	384,686	
1161,11	325,5	525,164	525,164	
1161,41	325,2	432,62	432,62	
1161,71	324,9	385,026	385,026	
1162,01	324,6	644,864	644,864	
1162,31	324,3	389,032	389,032	
1162,61	324	392,726	392,726	
1162,91	323,7	407,16	407,16	
1163,21	323,4	463,96	463,96	
1163,51	323,1	486,612	486,612	
1163,81	322,8	431,772	431,772	
1164,11	322,5	475,636	475,636	
1164,41	322,2	485,148	485,148	
1164,71	321,9	443,46	443,46	
1165,01	321,6	443,716	443,716	
1165,31	321,3	355,09	355,09	
1165,61	321	448,724	448,724	
1165,91	320,7	432,188	432,188	
1166,21	320,4	380,18	380,18	
1166,51	320,1	248,73	248,73	
1166,81	319,8	278,32	278,32	
1167,11	319,5	371,548	371,548	
1167,41	319,2	506,854	506,854	
1167,71	318,9	417,408	417,408	
1168,01	318,6	371,07	371,07	
1168,31	318,3	497,622	497,622	
1168,61	318	480,08	480,08	
1168,91	317,7	407,02	407,02	
1169,21	317,4	472,75	472,75	
1169,51	317,1	420,558	420,558	
1169,81	316,8	426,07	426,07	
1170,11	316,5	453,862	453,862	
1170,41	316,2	556,54	556,54	
1170,71	315,9	428,332	428,332	
1171,01	315,6	460,274	460,274	
1171,31	315,3	365,394	365,394	
1171,61	315	466,046	466,046	
1171,91	314,7	472,354	472,354	
1172,21	314,4	525,148	525,148	
1172,51	314,1	539,714	539,714	
1172,81	313,8	517,816	517,816	
1173,11	313,5	568,036	568,036	
1173,41	313,2	664,012	664,012	
1173,71	312,9	744,134	744,134	
1174,01	312,6	579,626	579,626	
1174,31	312,3	796,804	796,804	
1174,61	312	887,63	887,63	
1174,91	311,7	846,336	846,336	
1175,21	311,4	776,492	776,492	
1175,51	311,1	646,572	646,572	
1175,81	310,8	623,766	623,766	
1176,11	310,5	589,556	589,556	
1176,41	310,2	841,542	841,542	
1176,71	309,9	753,772	753,772	
1177,01	309,6	696,096	696,096	
1177,31	309,3	496,076	496,076	
1177,61	309	455,518	455,518	
1177,91	308,7	461,248	461,248	
1178,21	308,4	413,172	413,172	
1178,51	308,1	611,836	611,836	
1178,81	307,8	482,912	482,912	
1179,11	307,5	584,872	584,872	
1179,41	307,2	467,292	467,292	
1179,71	306,9	342,932	342,932	
1180,01	306,6	407,15	407,15	
1180,31	306,3	418,316	418,316	
1180,61	306	377,402	377,402	
1180,91	305,7	418,996	418,996	
1181,21	305,4	317,288	317,288	
1181,51	305,1	249,282	249,282	
1181,81	304,8	226,294	226,294	
1182,11	304,5	323,496	323,496	
1182,41	304,2	329,324	329,324	
1182,71	303,9	409,992	409,992	
1183,01	303,6	287,86	287,86	
1183,31	303,3	224,958	224,958	
1183,61	303	268,78	268,78	
1183,91	302,7	365,716	365,716	
1184,21	302,4	418,802	418,802	
1184,51	302,1	363,972	363,972	
1184,81	301,8	377,732	377,732	
1185,11	301,5	357,862	357,862	
1185,41	301,2	415,266	415,266	
1185,71	300,9	389,096	389,096	
1186,01	300,6	300,19	300,19	
1186,31	300,3	371,836	371,836	
1186,61	300	356,178	356,178	
1186,91	299,7	328,118	328,118	
1187,21	299,4	317,322	317,322	
1187,51	299,1	321,968	321,968	
1187,81	298,8	247,866	247,866	
1188,11	298,5	291,576	291,576	
1188,41	298,2	235,088	235,088	
1188,71	297,9	211,12	211,12	
1189,01	297,6	292,08	292,08	
1189,31	297,3	391,244	391,244	
1189,61	297	332,732	332,732	
1189,91	296,7	440,778	440,778	
1190,21	296,4	299,278	299,278	
1190,51	296,1	394,968	394,968	
1190,81	295,8	199,007	199,007	
1191,11	295,5	230,732	230,732	
1191,41	295,2	259,002	259,002	
1191,71	294,9	217,612	217,612	
1192,01	294,6	407,198	407,198	
1192,31	294,3	292,024	292,024	
1192,61	294	257,534	257,534	
1192,91	293,7	250,968	250,968	
1193,21	293,4	290,128	290,128	
1193,51	293,1	323,932	323,932	
1193,81	292,8	346,322	346,322	
1194,11	292,5	363,676	363,676	
1194,41	292,2	321,78	321,78	
1194,71	291,9	427,49	427,49	
1195,01	291,6	483,378	483,378	
1195,31	291,3	442,048	442,048	
1195,61	291	438,27	438,27	
1195,91	290,7	402,942	402,942	
1196,21	290,4	697,212	697,212	
1196,51	290,1	971,186	971,186	
1196,81	289,8	893,204	893,204	
1197,11	289,5	824,91	824,91	
1197,41	289,2	711,184	711,184	
1197,71	288,9	967,208	967,208	
1198,01	288,6	937,67	937,67	
1198,31	288,3	798,806	798,806	
1198,61	288	796,276	796,276	
1198,91	287,7	567,652	567,652	
1199,21	287,4	571,478	571,478	
1199,51	287,1	506,214	506,214	
1199,81	286,8	484,89	484,89	
1200,11	286,5	679,148	679,148	
1200,41	286,2	495,228	495,228	
1200,71	285,9	328,108	328,108	
1201,01	285,6	350,53	350,53	
1201,31	285,3	463,96	463,96	
1201,61	285	401,15	401,15	
1201,91	284,7	348,236	348,236	
1202,21	284,4	206,822	206,822	
1202,51	284,1	303,206	303,206	
1202,81	283,8	417,442	417,442	
1203,11	283,5	338,812	338,812	
1203,41	283,2	416,102	416,102	
1203,71	282,9	321,062	321,062	
1204,01	282,6	382,528	382,528	
1204,31	282,3	360,626	360,626	
1204,61	282	330,926	330,926	
1204,91	281,7	243,324	243,324	
1205,21	281,4	266,93	266,93	
1205,51	281,1	226,94	226,94	
1205,81	280,8	235,992	235,992	
1206,11	280,5	235,954	235,954	
1206,41	280,2	217,97	217,97	
1206,71	279,9	240,41	240,41	
1207,01	279,6	254,472	254,472	
1207,31	279,3	246,546	246,546	
1207,61	279	261,704	261,704	
1207,91	278,7	273,626	273,626	
1208,21	278,4	282,164	282,164	
1208,51	278,1	296,562	296,562	
1208,81	277,8	271,184	271,184	
1209,11	277,5	192,484	192,484	
1209,41	277,2	279,758	279,758	
1209,71	276,9	315,164	315,164	
1210,01	276,6	258,058	258,058	
1210,31	276,3	256,834	256,834	
1210,61	276	260,386	260,386	
1210,91	275,7	181,842	181,842	
1211,21	275,4	147,023	147,023	
1211,51	275,1	320,588	320,588	
1211,81	274,8	321,212	321,212	
1212,11	274,5	332,95	332,95	
1212,41	274,2	345,838	345,838	
1212,71	273,9	306,416	306,416	
1213,01	273,6	289,464	289,464	
1213,31	273,3	233,514	233,514	
1213,61	273	311,602	311,602	
1213,91	272,7	231,56	231,56	
1214,21	272,4	229,436	229,436	
1214,51	272,1	327,718	327,718	
1214,81	271,8	291,064	291,064	
1215,11	271,5	252,034	252,034	
1215,41	271,2	191,42	191,42	
1215,71	270,9	293,476	293,476	
1216,01	270,6	214,496	214,496	
1216,31	270,3	234,846	234,846	
1216,61	270	343,844	343,844	
1216,91	269,7	259,83	259,83	
1217,21	269,4	201,216	201,216	
1217,51	269,1	245,952	245,952	
1217,81	268,8	221,972	221,972	
1218,11	268,5	187,398	187,398	
1218,41	268,2	229,68	229,68	
1218,71	267,9	232,758	232,758	
1219,01	267,6	151,583	151,583	
1219,31	267,3	226,278	226,278	
1219,61	267	201,882	201,882	
1219,91	266,7	377,622	377,622	
1220,21	266,4	276,138	276,138	
1220,51	266,1	199,088	199,088	
1220,81	265,8	237,982	237,982	
1221,11	265,5	246,564	246,564	
1221,41	265,2	316,05	316,05	
1221,71	264,9	318,762	318,762	
1222,01	264,6	339,828	339,828	
1222,31	264,3	253,928	253,928	
1222,61	264	232,176	232,176	
1222,91	263,7	299,922	299,922	
1223,21	263,4	235,338	235,338	
1223,51	263,1	271,402	271,402	
1223,81	262,8	283,986	283,986	
1224,11	262,5	304,202	304,202	
1224,41	262,2	244,854	244,854	
1224,71	261,9	160,667	160,667	
1225,01	261,6	256,35	256,35	
1225,31	261,3	329,17	329,17	
1225,61	261	188,549	188,549	
1225,91	260,7	238,064	238,064	
1226,21	260,4	405,016	405,016	
1226,51	260,1	252,05	252,05	
1226,81	259,8	191,63	191,63	
1227,11	259,5	289,376	289,376	
1227,41	259,2	268,148	268,148	
1227,71	258,9	195,628	195,628	
1228,01	258,6	371,31	371,31	
1228,31	258,3	279,768	279,768	
1228,61	258	194,548	194,548	
1228,91	257,7	305,252	305,252	
1229,21	257,4	288,99	288,99	
1229,51	257,1	175,823	175,823	
1229,81	256,8	305,95	305,95	
1230,11	256,5	182,896	182,896	
1230,41	256,2	292,504	292,504	
1230,71	255,9	188,682	188,682	
1231,01	255,6	306,102	306,102	
1231,31	255,3	272,306	272,306	
1231,61	255	219,538	219,538	
1231,91	254,7	219,146	219,146	
1232,21	254,4	208,07	208,07	
1232,51	254,1	216,996	216,996	
1232,81	253,8	299,036	299,036	
1233,11	253,5	237,28	237,28	
1233,41	253,2	277,5	277,5	
1233,71	252,9	327,48	327,48	
1234,01	252,6	349,618	349,618	
1234,31	252,3	223,918	223,918	
1234,61	252	254,996	254,996	
1234,91	251,7	208,504	208,504	
1235,21	251,4	321,944	321,944	
1235,51	251,1	240,648	240,648	
1235,81	250,8	220,418	220,418	
1236,11	250,5	227,368	227,368	
1236,41	250,2	269,142	269,142	
1236,71	249,9	235,958	235,958	
1237,01	249,6	214,522	214,522	
1237,31	249,3	211,666	211,666	
1237,61	249	261,412	261,412	
1237,91	248,7	215,408	215,408	
1238,21	248,4	216,868	216,868	
1238,51	248,1	295,976	295,976	
1238,81	247,8	306,022	306,022	
1239,11	247,5	351,616	351,616	
1239,41	247,2	239,362	239,362	
1239,71	246,9	257,584	257,584	
1240,01	246,6	286,044	286,044	
1240,31	246,3	314,054	314,054	
1240,61	246	206,22	206,22	
1240,91	245,7	154,927	154,927	
1241,21	245,4	157,738	157,738	
1241,51	245,1	120,683	120,683	
1241,81	244,8	257,852	257,852	
1242,11	244,5	268,814	268,814	
1242,41	244,2	394,13	394,13	
1242,71	243,9	240,736	240,736	
1243,01	243,6	237,358	237,358	
1243,31	243,3	338,892	338,892	
1243,61	243	226,772	226,772	
1243,91	242,7	176,199	176,199	
1244,21	242,4	187,858	187,858	
1244,51	242,1	261,828	261,828	
1244,81	241,8	294,266	294,266	
1245,11	241,5	305,998	305,998	
1245,41	241,2	241,182	241,182	
1245,71	240,9	243,81	243,81	
1246,01	240,6	242,504	242,504	
1246,31	240,3	332,88	332,88	
1246,61	240	335,656	335,656	
1246,91	239,7	320,036	320,036	
1247,21	239,4	244,268	244,268	
1247,51	239,1	236,65	236,65	
1247,81	238,8	248,238	248,238	
1248,11	238,5	245,762	245,762	
1248,41	238,2	408,118	408,118	
1248,71	237,9	305,276	305,276	
1249,01	237,6	392,39	392,39	
1249,31	237,3	241,344	241,344	
1249,61	237	192,357	192,357	
1249,91	236,7	385,688	385,688	
1250,21	236,4	244,486	244,486	
1250,51	236,1	280,938	280,938	
1250,81	235,8	256,582	256,582	
1251,11	235,5	250,234	250,234	
1251,41	235,2	232,442	232,442	
1251,71	234,9	277,664	277,664	
1252,01	234,6	179,734	179,734	
1252,31	234,3	161,105	161,105	
1252,61	234	342,72	342,72	
1252,91	233,7	312,198	312,198	
1253,21	233,4	175,369	175,369	
1253,51	233,1	230,814	230,814	
1253,81	232,8	198,195	198,195	
1254,11	232,5	156,883	156,883	
1254,41	232,2	193,699	193,699	
1254,71	231,9	281,094	281,094	
1255,01	231,6	295,232	295,232	
1255,31	231,3	262,754	262,754	
1255,61	231	254,87	254,87	
1255,91	230,7	257,75	257,75	
1256,21	230,4	315,242	315,242	
1256,51	230,1	232,594	232,594	
1256,81	229,8	242,654	242,654	
1257,11	229,5	300,422	300,422	
1257,41	229,2	283,464	283,464	
1257,71	228,9	299,854	299,854	
1258,01	228,6	320,59	320,59	
1258,31	228,3	234,2	234,2	
1258,61	228	282,21	282,21	
1258,91	227,7	201,236	201,236	
1259,21	227,4	274,67	274,67	
1259,51	227,1	213,686	213,686	
1259,81	226,8	243,374	243,374	
1260,11	226,5	268,242	268,242	
1260,41	226,2	330,202	330,202	
1260,71	225,9	417,4	417,4	
1261,01	225,6	186,219	186,219	
1261,31	225,3	268,224	268,224	
1261,61	225	282,758	282,758	
1261,91	224,7	317,724	317,724	
1262,21	224,4	173,522	173,522	
1262,51	224,1	183,281	183,281	
1262,81	223,8	244,226	244,226	
1263,11	223,5	311,982	311,982	
1263,41	223,2	279,79	279,79	
1263,71	222,9	244,692	244,692	
1264,01	222,6	248,108	248,108	
1264,31	222,3	312,112	312,112	
1264,61	222	233,756	233,756	
1264,91	221,7	305,65	305,65	
1265,21	221,4	198,254	198,254	
1265,51	221,1	279,308	279,308	
1265,81	220,8	279,678	279,678	
1266,11	220,5	246,772	246,772	
1266,41	220,2	247,114	247,114	
1266,71	219,9	180,367	180,367	
1267,01	219,6	159,169	159,169	
1267,31	219,3	218,768	218,768	
1267,61	219	245,14	245,14	
1267,91	218,7	174,616	174,616	
1268,21	218,4	132,531	132,531	
1268,51	218,1	225,702	225,702	
1268,81	217,8	244,882	244,882	
1269,11	217,5	312,266	312,266	
1269,41	217,2	334,834	334,834	
1269,71	216,9	300,134	300,134	
1270,01	216,6	263,904	263,904	
1270,31	216,3	295,156	295,156	
1270,61	216	248,838	248,838	
1270,91	215,7	341,332	341,332	
1271,21	215,4	302,886	302,886	
1271,51	215,1	228,07	228,07	
1271,81	214,8	275,314	275,314	
1272,11	214,5	323,302	323,302	
1272,41	214,2	324,68	324,68	
1272,71	213,9	279,492	279,492	
1273,01	213,6	309,858	309,858	
1273,31	213,3	376,78	376,78	
1273,61	213	257,086	257,086	
1273,91	212,7	228,234	228,234	
1274,21	212,4	194,354	194,354	
1274,51	212,1	298,548	298,548	
1274,81	211,8	153,027	153,027	
1275,11	211,5	228,98	228,98	
1275,41	211,2	203,592	203,592	
1275,71	210,9	172,598	172,598	
1276,01	210,6	185,399	185,399	
1276,31	210,3	290,832	290,832	
1276,61	210	366,616	366,616	
1276,91	209,7	309,69	309,69	
1277,21	209,4	342,384	342,384	
1277,51	209,1	243,184	243,184	
1277,81	208,8	301,862	301,862	
1278,11	208,5	216,922	216,922	
1278,41	208,2	250,752	250,752	
1278,71	207,9	258,612	258,612	
1279,01	207,6	258,754	258,754	
1279,31	207,3	302,244	302,244	
1279,61	207	281,786	281,786	
1279,91	206,7	180,69	180,69	
1280,21	206,4	236,88	236,88	
1280,51	206,1	329,328	329,328	
1280,81	205,8	256,962	256,962	
1281,11	205,5	261,67	261,67	
1281,41	205,2	238,32	238,32	
1281,71	204,9	247,528	247,528	
1282,01	204,6	248,042	248,042	
1282,31	204,3	205,356	205,356	
1282,61	204	273,4	273,4	
1282,91	203,7	225,634	225,634	
1283,21	203,4	100,524	100,524	
1283,51	203,1	161,355	161,355	
1283,81	202,8	190,864	190,864	
1284,11	202,5	187,591	187,591	
1284,41	202,2	195,759	195,759	
1284,71	201,9	209,246	209,246	
1285,01	201,6	268,598	268,598	
1285,31	201,3	285,636	285,636	
1285,61	201	332,904	332,904	
1285,91	200,7	306,074	306,074	
1286,21	200,4	264,404	264,404	
1286,51	200,1	219,56	219,56	
1286,81	199,8	238,318	238,318	
1287,11	199,5	358,062	358,062	
1287,41	199,2	280,75	280,75	
1287,71	198,9	258,946	258,946	
1288,01	198,6	197,345	197,345	
1288,31	198,3	305,086	305,086	
1288,61	198	384,718	384,718	
1288,91	197,7	290,562	290,562	
1289,21	197,4	133,469	133,469	
1289,51	197,1	110,167	110,167	
1289,81	196,8	156,223	156,223	
1290,11	196,5	235,906	235,906	
1290,41	196,2	208,824	208,824	
1290,71	195,9	212,34	212,34	
1291,01	195,6	251,852	251,852	
1291,31	195,3	286,178	286,178	
1291,61	195	197,314	197,314	
1291,91	194,7	247,568	247,568	
1292,21	194,4	410,416	410,416	
1292,51	194,1	306,448	306,448	
1292,81	193,8	287,576	287,576	
1293,11	193,5	236,768	236,768	
1293,41	193,2	203,836	203,836	
1293,71	192,9	295,324	295,324	
1294,01	192,6	261,576	261,576	
1294,31	192,3	310,452	310,452	
1294,61	192	298,576	298,576	
1294,91	191,7	245,642	245,642	
1295,21	191,4	235,84	235,84	
1295,51	191,1	213,99	213,99	
1295,81	190,8	229,296	229,296	
1296,11	190,5	253,102	253,102	
1296,41	190,2	272,764	272,764	
1296,71	189,9	273,008	273,008	
1297,01	189,6	220,82	220,82	
1297,31	189,3	273,192	273,192	
1297,61	189	233,238	233,238	
1297,91	188,7	127,324	127,324	
1298,21	188,4	191,7	191,7	
1298,51	188,1	222,912	222,912	
1298,81	187,8	278,646	278,646	
1299,11	187,5	211,51	211,51	
1299,41	187,2	198,068	198,068	
1299,71	186,9	90,0168	90,0168	
1300,01	186,6	266,552	266,552	
1300,31	186,3	322,396	322,396	
1300,61	186	326,812	326,812	
1300,91	185,7	275,05	275,05	
1301,21	185,4	355,278	355,278	
1301,51	185,1	370,352	370,352	
1301,81	184,8	288,98	288,98	
1302,11	184,5	290,99	290,99	
1302,41	184,2	193,009	193,009	
1302,71	183,9	276,75	276,75	
1303,01	183,6	278,828	278,828	
1303,31	183,3	305,37	305,37	
1303,61	183	215,94	215,94	
1303,91	182,7	217,902	217,902	
1304,21	182,4	209,174	209,174	
1304,51	182,1	112,457	112,457	
1304,81	181,8	202,676	202,676	
1305,11	181,5	161,913	161,913	
1305,41	181,2	211,982	211,982	
1305,71	180,9	329,346	329,346	
1306,01	180,6	396,75	396,75	
1306,31	180,3	358,09	358,09	
1306,61	180	369,728	369,728	
1306,91	179,7	315,448	315,448	
1307,21	179,4	239,794	239,794	
1307,51	179,1	192,184	192,184	
1307,81	178,8	317,604	317,604	
1308,11	178,5	124,72	124,72	
1308,41	178,2	186,248	186,248	
1308,71	177,9	292,152	292,152	
1309,01	177,6	260,584	260,584	
1309,31	177,3	239,99	239,99	
1309,61	177	204,892	204,892	
1309,91	176,7	222,276	222,276	
1310,21	176,4	254,16	254,16	
1310,51	176,1	249,904	249,904	
1310,81	175,8	165,909	165,909	
1311,11	175,5	216,788	216,788	
1311,41	175,2	267,152	267,152	
1311,71	174,9	281,26	281,26	
1312,01	174,6	267,236	267,236	
1312,31	174,3	199,984	199,984	
1312,61	174	228,268	228,268	
1312,91	173,7	213,186	213,186	
1313,21	173,4	254,528	254,528	
1313,51	173,1	288,01	288,01	
1313,81	172,8	295,012	295,012	
1314,11	172,5	356,786	356,786	
1314,41	172,2	193,698	193,698	
1314,71	171,9	184,892	184,892	
1315,01	171,6	256,892	256,892	
1315,31	171,3	275,838	275,838	
1315,61	171	238,282	238,282	
1315,91	170,7	249,902	249,902	
1316,21	170,4	316,634	316,634	
1316,51	170,1	281,898	281,898	
1316,81	169,8	252,566	252,566	
1317,11	169,5	130,293	130,293	
1317,41	169,2	159,416	159,416	
1317,71	168,9	245,836	245,836	
1318,01	168,6	251,144	251,144	
1318,31	168,3	318,77	318,77	
1318,61	168	143,894	143,894	
1318,91	167,7	198,409	198,409	
1319,21	167,4	211,872	211,872	
1319,51	167,1	186,242	186,242	
1319,81	166,8	179,721	179,721	
1320,11	166,5	165,231	165,231	
1320,41	166,2	162,002	162,002	
1320,71	165,9	182,32	182,32	
1321,01	165,6	203,668	203,668	
1321,31	165,3	195,267	195,267	
1321,61	165	237,898	237,898	
1321,91	164,7	246,498	246,498	
1322,21	164,4	178,667	178,667	
1322,51	164,1	120,998	120,998	
1322,81	163,8	250,686	250,686	
1323,11	163,5	172,54	172,54	
1323,41	163,2	220,14	220,14	
1323,71	162,9	174,341	174,341	
1324,01	162,6	186,636	186,636	
1324,31	162,3	255,99	255,99	
1324,61	162	178,422	178,422	
1324,91	161,7	190,193	190,193	
1325,21	161,4	258,076	258,076	
1325,51	161,1	210,546	210,546	
1325,81	160,8	194,801	194,801	
1326,11	160,5	196,785	196,785	
1326,41	160,2	256,204	256,204	
1326,71	159,9	280,28	280,28	
1327,01	159,6	379,342	379,342	
1327,31	159,3	396,762	396,762	
1327,61	159	317,784	317,784	
1327,91	158,7	601,518	601,518	
1328,21	158,4	511,39	511,39	
1328,51	158,1	377,448	377,448	
1328,81	157,8	320,062	320,062	
1329,11	157,5	556,246	556,246	
1329,41	157,2	500,482	500,482	
1329,71	156,9	363,296	363,296	
1330,01	156,6	383,704	383,704	
1330,31	156,3	293,618	293,618	
1330,61	156	340,314	340,314	
1330,91	155,7	208,186	208,186	
1331,21	155,4	177,233	177,233	
1331,51	155,1	222,964	222,964	
1331,81	154,8	303,326	303,326	
1332,11	154,5	252,26	252,26	
1332,41	154,2	257,836	257,836	
1332,71	153,9	299,586	299,586	
1333,01	153,6	337,756	337,756	
1333,31	153,3	196,237	196,237	
1333,61	153	189,13	189,13	
1333,91	152,7	136,399	136,399	
1334,21	152,4	242,668	242,668	
1334,51	152,1	241,016	241,016	
1334,81	151,8	253,31	253,31	
1335,11	151,5	162,083	162,083	
1335,41	151,2	170,512	170,512	
1335,71	150,9	163,757	163,757	
1336,01	150,6	170,826	170,826	
1336,31	150,3	195,906	195,906	
1336,61	150	161,778	161,778	
1336,91	149,7	269,132	269,132	
1337,21	149,4	283,252	283,252	
1337,51	149,1	347,712	347,712	
1337,81	148,8	225,378	225,378	
1338,11	148,5	215,928	215,928	
1338,41	148,2	183,136	183,136	
1338,71	147,9	98,0354	98,0354	
1339,01	147,6	114,997	114,997	
1339,31	147,3	156,996	156,996	
1339,61	147	151,209	151,209	
1339,91	146,7	102,035	102,035	
1340,21	146,4	236,142	236,142	
1340,51	146,1	186,746	186,746	
1340,81	145,8	223,358	223,358	
1341,11	145,5	128,949	128,949	
1341,41	145,2	153,012	153,012	
1341,71	144,9	215,532	215,532	
1342,01	144,6	240,568	240,568	
1342,31	144,3	143,533	143,533	
1342,61	144	159,54	159,54	
1342,91	143,7	267,442	267,442	
1343,21	143,4	184,273	184,273	
1343,51	143,1	245,766	245,766	
1343,81	142,8	173,28	173,28	
1344,11	142,5	173,462	173,462	
1344,41	142,2	221,538	221,538	
1344,71	141,9	200,876	200,876	
1345,01	141,6	221,21	221,21	
1345,31	141,3	140,679	140,679	
1345,61	141	190,899	190,899	
1345,91	140,7	199,243	199,243	
1346,21	140,4	82,581	82,581	
1346,51	140,1	126,306	126,306	
1346,81	139,8	215,588	215,588	
1347,11	139,5	205,136	205,136	
1347,41	139,2	239,43	239,43	
1347,71	138,9	219,184	219,184	
1348,01	138,6	182,804	182,804	
1348,31	138,3	214,932	214,932	
1348,61	138	227,068	227,068	
1348,91	137,7	213,23	213,23	
1349,21	137,4	92,14	92,14	
1349,51	137,1	191,006	191,006	
1349,81	136,8	147,131	147,131	
1350,11	136,5	264,472	264,472	
1350,41	136,2	178,323	178,323	
1350,71	135,9	209,932	209,932	
1351,01	135,6	142,872	142,872	
1351,31	135,3	149,933	149,933	
1351,61	135	260,668	260,668	
1351,91	134,7	157,532	157,532	
1352,21	134,4	161,22	161,22	
1352,51	134,1	272,206	272,206	
1352,81	133,8	213,868	213,868	
1353,11	133,5	234,942	234,942	
1353,41	133,2	209,902	209,902	
1353,71	132,9	202,934	202,934	
1354,01	132,6	261,826	261,826	
1354,31	132,3	198,988	198,988	
1354,61	132	133,884	133,884	
1354,91	131,7	185,584	185,584	
1355,21	131,4	207,318	207,318	
1355,51	131,1	155,417	155,417	
1355,81	130,8	113,507	113,507	
1356,11	130,5	140,479	140,479	
1356,41	130,2	212,608	212,608	
1356,71	129,9	221,534	221,534	
1357,01	129,6	82,4922	82,4922	
1357,31	129,3	169,586	169,586	
1357,61	129	211,404	211,404	
1357,91	128,7	86,4358	86,4358	
1358,21	128,4	143,012	143,012	
1358,51	128,1	146,34	146,34	
1358,81	127,8	108,89	108,89	
1359,11	127,5	87,0242	87,0242	
1359,41	127,2	151,469	151,469	
1359,71	126,9	197,658	197,658	
1360,01	126,6	261,036	261,036	
1360,31	126,3	235,352	235,352	
1360,61	126	324,794	324,794	
1360,91	125,7	141,447	141,447	
1361,21	125,4	224,596	224,596	
1361,51	125,1	178,541	178,541	
1361,81	124,8	252,704	252,704	
1362,11	124,5	262,538	262,538	
1362,41	124,2	287,128	287,128	
1362,71	123,9	271,996	271,996	
1363,01	123,6	263,522	263,522	
1363,31	123,3	381,976	381,976	
1363,61	123	265,154	265,154	
1363,91	122,7	272,368	272,368	
1364,21	122,4	201,818	201,818	
1364,51	122,1	127,949	127,949	
1364,81	121,8	131,332	131,332	
1365,11	121,5	130,944	130,944	
1365,41	121,2	141,147	141,147	
1365,71	120,9	123,717	123,717	
1366,01	120,6	152,373	152,373	
1366,31	120,3	123,217	123,217	
1366,61	120	123,247	123,247	
1366,91	119,7	159,887	159,887	
1367,21	119,4	183,143	183,143	
1367,51	119,1	158,984	158,984	
1367,81	118,8	152,643	152,643	
1368,11	118,5	74,556	74,556	
1368,41	118,2	95,3266	95,3266	
1368,71	117,9	67,09	67,09	
1369,01	117,6	104,486	104,486	
1369,31	117,3	74,4122	74,4122	
1369,61	117	109,21	109,21	
1369,91	116,7	139,593	139,593	
1370,21	116,4	200,602	200,602	
1370,51	116,1	153,566	153,566	
1370,81	115,8	126,691	126,691	
1371,11	115,5	98,2232	98,2232	
1371,41	115,2	74,1358	74,1358	
1371,71	114,9	66,899	66,899	
1372,01	114,6	54,2332	54,2332	
1372,31	114,3	110,567	110,567	
1372,61	114	102,57	102,57	
1372,91	113,7	104,775	104,775	
1373,21	113,4	106,519	106,519	
1373,51	113,1	65,1174	65,1174	
1373,81	112,8	147,411	147,411	
1374,11	112,5	99,12	99,12	
1374,41	112,2	80,5018	80,5018	
1374,71	111,9	119,615	119,615	
1375,01	111,6	113,162	113,162	
1375,31	111,3	139,075	139,075	
1375,61	111	132,25	132,25	
1375,91	110,7	107,8	107,8	
1376,21	110,4	109,872	109,872	
1376,51	110,1	103,477	103,477	
1376,81	109,8	74,0334	74,0334	
1377,11	109,5	82,9664	82,9664	
1377,41	109,2	172,471	172,471	
1377,71	108,9	189,438	189,438	
1378,01	108,6	243,508	243,508	
1378,31	108,3	347,26	347,26	
1378,61	108	528,728	528,728	
1378,91	107,7	453,63	453,63	
1379,21	107,4	415,568	415,568	
1379,51	107,1	423,184	423,184	
1379,81	106,8	499,658	499,658	
1380,11	106,5	319,758	319,758	
1380,41	106,2	413,018	413,018	
1380,71	105,9	240,216	240,216	
1381,01	105,6	339,91	339,91	
1381,31	105,3	257,884	257,884	
1381,61	105	330,798	330,798	
1381,91	104,7	288,198	288,198	
1382,21	104,4	286,844	286,844	
1382,51	104,1	66,9476	66,9476	
1382,81	103,8	121,308	121,308	
1383,11	103,5	149,704	149,704	
1383,41	103,2	207,482	207,482	
1383,71	102,9	122,672	122,672	
1384,01	102,6	83,6814	83,6814	
1384,31	102,3	116,389	116,389	
1384,61	102	105,44	105,44	
1384,91	101,7	145,761	145,761	
1385,21	101,4	127,617	127,617	
1385,51	101,1	84,2528	84,2528	
1385,81	100,8	29,8924	29,8924	
1386,11	100,5	128,616	128,616	
1386,41	100,2	85,9398	85,9398	
1386,71	99,9	106,152	106,152	
1387,01	99,6	109,067	109,067	
1387,31	99,3	105,117	105,117	
1387,61	99	102,257	102,257	
1387,91	98,7	130,243	130,243	
1388,21	98,4	75,2686	75,2686	
1388,51	98,1	54,7358	54,7358	
1388,81	97,8	0,5412	0,5412	
1389,11	97,5	86,5556	86,5556	
1389,41	97,2	64,8102	64,8102	
1389,71	96,9	19,4802	19,4802	
1390,01	96,6	88,406	88,406	
1390,31	96,3	89,764	89,764	
1390,61	96	107,269	107,269	
1390,91	95,7	137,315	137,315	
1391,21	95,4	72,7096	72,7096	
1391,51	95,1	136,581	136,581	
1391,81	94,8	216,356	216,356	
1392,11	94,5	135,026	135,026	
1392,41	94,2	142,245	142,245	
1392,71	93,9	110,087	110,087	
1393,01	93,6	143,19	143,19	
1393,31	93,3	134,743	134,743	
1393,61	93	172,323	172,323	
1393,91	92,7	134,426	134,426	
1394,21	92,4	104,374	104,374	
1394,51	92,1	95,9518	95,9518	
1394,81	91,8	151,979	151,979	
1395,11	91,5	127,75	127,75	
1395,41	91,2	44,2696	44,2696	
1395,71	90,9	130,848	130,848	
1396,01	90,6	67,3868	67,3868	
1396,31	90,3	27,8454	27,8454	
1396,61	90	65,5004	65,5004	
1396,91	89,7	111,145	111,145	
1397,21	89,4	51,315	51,315	
1397,51	89,1	63,2132	63,2132	
1397,81	88,8	81,2512	81,2512	
1398,11	88,5	60,759	60,759	
1398,41	88,2	70,3258	70,3258	
1398,71	87,9	25,3808	25,3808	
1399,01	87,6	28,876	28,876	
1399,31	87,3	36,8802	36,8802	
1399,61	87	61,4424	61,4424	
1399,91	86,7	44,3636	44,3636	
1400,21	86,4	63,3274	63,3274	
1400,51	86,1	70,647	70,647	
1400,81	85,8	67,0246	67,0246	
1401,11	85,5	56,5852	56,5852	
1401,41	85,2	36,2268	36,2268	
1401,71	84,9	47,3166	47,3166	
1402,01	84,6	51,3684	51,3684	
1402,31	84,3	64,5862	64,5862	
1402,61	84	26,245	26,245	
1402,91	83,7	86,6612	86,6612	
1403,21	83,4	51,0286	51,0286	
1403,51	83,1	66,1862	66,1862	
1403,81	82,8	66,021	66,021	
1404,11	82,5	68,2358	68,2358	
1404,41	82,2	96,7382	96,7382	
1404,71	81,9	83,301	83,301	
1405,01	81,6	142,579	142,579	
1405,31	81,3	58,4798	58,4798	
1405,61	81	72,4064	72,4064	
1405,91	80,7	95,538	95,538	
1406,21	80,4	170,365	170,365	
1406,51	80,1	223,39	223,39	
1406,81	79,8	174,676	174,676	
1407,11	79,5	171,973	171,973	
1407,41	79,2	142,358	142,358	
1407,71	78,9	94,8722	94,8722	
1408,01	78,6	116,129	116,129	
1408,31	78,3	211,156	211,156	
1408,61	78	237,834	237,834	
1408,91	77,7	124,742	124,742	
1409,21	77,4	151,557	151,557	
1409,51	77,1	123,12	123,12	
1409,81	76,8	66,7792	66,7792	
1410,11	76,5	90,5416	90,5416	
1410,41	76,2	32,7026	32,7026	
1410,71	75,9	53,9626	53,9626	
1411,01	75,6	26,308	26,308	
1411,31	75,3	113,889	113,889	
1411,61	75	117,446	117,446	
1411,91	74,7	54,1554	54,1554	
1412,21	74,4	48,8584	48,8584	
1412,51	74,1	54,4124	54,4124	
1412,81	73,8	84,931	84,931	
1413,11	73,5	45,1476	45,1476	
1413,41	73,2	76,6452	76,6452	
1413,71	72,9	77,9542	77,9542	
1414,01	72,6	62,5422	62,5422	
1414,31	72,3	64,1104	64,1104	
1414,61	72	55,6104	55,6104	
1414,91	71,7	39,1876	39,1876	
1415,21	71,4	79,4982	79,4982	
1415,51	71,1	105,765	105,765	
1415,81	70,8	76,4288	76,4288	
1416,11	70,5	57,1102	57,1102	
1416,41	70,2	78,9328	78,9328	
1416,71	69,9	104,136	104,136	
1417,01	69,6	87,0274	87,0274	
1417,31	69,3	52,9726	52,9726	
1417,61	69	82,9866	82,9866	
1417,91	68,7	50,2416	50,2416	
1418,21	68,4	9,7408	9,7408	
1418,51	68,1	44,1764	44,1764	
1418,81	67,8	68,6858	68,6858	
1419,11	67,5	133,767	133,767	
1419,41	67,2	89,2492	89,2492	
1419,71	66,9	74,9222	74,9222	
1420,01	66,6	77,8128	77,8128	
1420,31	66,3	83,0766	83,0766	
1420,61	66	32,3762	32,3762	
1420,91	65,7	36,2966	36,2966	
1421,21	65,4	14,2568	14,2568	
1421,51	65,1	12,1232	12,1232	
1421,81	64,8	51,9614	51,9614	
1422,11	64,5	41,2962	41,2962	
1422,41	64,2	42,0162	42,0162	
1422,71	63,9	58,2544	58,2544	
1423,01	63,6	58,1626	58,1626	
1423,31	63,3	93,6576	93,6576	
1423,61	63	64,819	64,819	
1423,91	62,7	43,0902	43,0902	
1424,21	62,4	70,283	70,283	
1424,51	62,1	55,5324	55,5324	
1424,81	61,8	117,772	117,772	
1425,11	61,5	95,3688	95,3688	
1425,41	61,2	48,4236	48,4236	
1425,71	60,9	85,602	85,602	
1426,01	60,6	52,762	52,762	
1426,31	60,3	28,876	28,876	
1426,61	60	35,881	35,881	
1426,91	59,7	125,45	125,45	
1427,21	59,4	129,457	129,457	
1427,51	59,1	49,2116	49,2116	
1427,81	58,8	61,9868	61,9868	
1428,11	58,5	90,2304	90,2304	
1428,41	58,2	77,8266	77,8266	
1428,71	57,9	115,864	115,864	
1429,01	57,6	79,4724	79,4724	
1429,31	57,3	25,7358	25,7358	
1429,61	57	50,8738	50,8738	
1429,91	56,7	66,414	66,414	
1430,21	56,4	52,887	52,887	
1430,51	56,1	57,0312	57,0312	
1430,81	55,8	64,8348	64,8348	
1431,11	55,5	84,05	84,05	
1431,41	55,2	139,978	139,978	
1431,71	54,9	84,5758	84,5758	
1432,01	54,6	64,7544	64,7544	
1432,31	54,3	77,8728	77,8728	
1432,61	54	80,9902	80,9902	
1432,91	53,7	93,235	93,235	
1433,21	53,4	83,0592	83,0592	
1433,51	53,1	46,194	46,194	
1433,81	52,8	131,261	131,261	
1434,11	52,5	78,4196	78,4196	
1434,41	52,2	44,861	44,861	
1434,71	51,9	59,3528	59,3528	
1435,01	51,6	51,9426	51,9426	
1435,31	51,3	54,063	54,063	
1435,61	51	50,0512	50,0512	
1435,91	50,7	74,598	74,598	
1436,21	50,4	69,135	69,135	
1436,51	50,1	44,9468	44,9468	
1436,81	49,8	64,2704	64,2704	
1437,11	49,5	30,6194	30,6194	
1437,41	49,2	79,8946	79,8946	
1437,71	48,9	117,411	117,411	
1438,01	48,6	142,575	142,575	
1438,31	48,3	82,6588	82,6588	
1438,61	48	68,4848	68,4848	
1438,91	47,7	110,868	110,868	
1439,21	47,4	97,8024	97,8024	
1439,51	47,1	62,88	62,88	
1439,81	46,8	12,4174	12,4174	
1440,11	46,5	25,527	25,527	
1440,41	46,2	8,093	8,093	
1440,71	45,9	18,5932	18,5932	
1441,01	45,6	37,0468	37,0468	
1441,31	45,3	40,9696	40,9696	
1441,61	45	29,7704	29,7704	
1441,91	44,7	19,2714	19,2714	
1442,21	44,4	111,368	111,368	
1442,51	44,1	99,641	99,641	
1442,81	43,8	44,36	44,36	
1443,11	43,5	80,1344	80,1344	
1443,41	43,2	39,1154	39,1154	
1443,71	42,9	26,38	26,38	
1444,01	42,6	33,3494	33,3494	
1444,31	42,3	0	0	
1444,61	42	37,0706	37,0706	
1444,91	41,7	8,3103	8,3103	
1445,21	41,4	20,3624	20,3624	
1445,51	41,1	29,8968	29,8968	
1445,81	40,8	10,3738	10,3738	
1446,11	40,5	49,6262	49,6262	
1446,41	40,2	10,74	10,74	
1446,71	39,9	43,0592	43,0592	
1447,01	39,6	22,4678	22,4678	
1447,31	39,3	42,481	42,481	
1447,61	39	17,7353	17,7353	
1447,91	38,7	52,3678	52,3678	
1448,21	38,4	49,8968	49,8968	
1448,51	38,1	11,3553	11,3553	
1448,81	37,8	66,5064	66,5064	
1449,11	37,5	38,867	38,867	
1449,41	37,2	44,1288	44,1288	
1449,71	36,9	48,4582	48,4582	
1450,01	36,6	22,9472	22,9472	
1450,31	36,3	63,4846	63,4846	
1450,61	36	77,8618	77,8618	
1450,91	35,7	69,7778	69,7778	
1451,21	35,4	96,188	96,188	
1451,51	35,1	17,1614	17,1614	
1451,81	34,8	44,7866	44,7866	
1452,11	34,5	69,133	69,133	
1452,41	34,2	60,0842	60,0842	
1452,71	33,9	75,3916	75,3916	
1453,01	33,6	30,8678	30,8678	
1453,31	33,3	58,4846	58,4846	
1453,61	33	46,988	46,988	
1453,91	32,7	46,1638	46,1638	
1454,21	32,4	41,061	41,061	
1454,51	32,1	81,852	81,852	
1454,81	31,8	69,7844	69,7844	
1455,11	31,5	46,299	46,299	
1455,41	31,2	28,7416	28,7416	
1455,71	30,9	78,9342	78,9342	
1456,01	30,6	147,179	147,179	
1456,31	30,3	194,729	194,729	
1456,61	30	120,952	120,952	
1456,91	29,7	110,934	110,934	
1457,21	29,4	130,635	130,635	
1457,51	29,1	99,155	99,155	
1457,81	28,8	202,622	202,622	
1458,11	28,5	98,7272	98,7272	
1458,41	28,2	109,206	109,206	
1458,71	27,9	137,063	137,063	
1459,01	27,6	67,56	67,56	
1459,31	27,3	143,309	143,309	
1459,61	27	90,391	90,391	
1459,91	26,7	167,229	167,229	
1460,21	26,4	89,7706	89,7706	
1460,51	26,1	80,8422	80,8422	
1460,81	25,8	18,3226	18,3226	
1461,11	25,5	44,9164	44,9164	
1461,41	25,2	62,662	62,662	
1461,71	24,9	71,2294	71,2294	
1462,01	24,6	76,2268	76,2268	
1462,31	24,3	119,746	119,746	
1462,61	24	26,8966	26,8966	
1462,91	23,7	23,8766	23,8766	
1463,21	23,4	68,2608	68,2608	
1463,51	23,1	39,7696	39,7696	
1463,81	22,8	46,7566	46,7566	
1464,11	22,5	27,0796	27,0796	
1464,41	22,2	42,02	42,02	
1464,71	21,9	56,9394	56,9394	
1465,01	21,6	32,794	32,794	
1465,31	21,3	51,5876	51,5876	
1465,61	21	30,9158	30,9158	
1465,91	20,7	0	0	
1466,21	20,4	34,388	34,388	
1466,51	20,1	36,267	36,267	
1466,81	19,8	31,5858	31,5858	
1467,11	19,5	37,7594	37,7594	
1467,41	19,2	0	0	
1467,71	18,9	23,0236	23,0236	
1468,01	18,6	47,206	47,206	
1468,31	18,3	10,041	10,041	
1468,61	18	49,5938	49,5938	
1468,91	17,7	10,4061	10,4061	
1469,21	17,4	42,753	42,753	
1469,51	17,1	22,3572	22,3572	
1469,81	16,8	32,9062	32,9062	
1470,11	16,5	40,0356	40,0356	
1470,41	16,2	1,67739	1,67739	
1470,71	15,9	48,784	48,784	
1471,01	15,6	81,4456	81,4456	
1471,31	15,3	9,7704	9,7704	
1471,61	15	0	0	
1471,91	14,7	12,3938	12,3938	
1472,21	14,4	64,894	64,894	
1472,51	14,1	44,9454	44,9454	
1472,81	13,8	18,0374	18,0374	
1473,11	13,5	20	20	
1473,41	13,2	20	20	
1473,71	12,9	31,6364	31,6364	
1474,01	12,6	43,609	43,609	
1474,31	12,3	79,9372	79,9372	
1474,61	12	66,7802	66,7802	
1474,91	11,7	42,4694	42,4694	
1475,21	11,4	26,414	26,414	
1475,51	11,1	8,8834	8,8834	
1475,81	10,8	0	0	
1476,11	10,5	5,7432	5,7432	
1476,41	10,2	32,5794	32,5794	
1476,71	9,9	41,8084	41,8084	