%!PS-Adobe-3.0 EPSF-3.0
%%BoundingBox: 0 0 772 591
%%LanguageLevel: 2
%%Creator: OriginLab Corporation
%%Title: (C:\Users\gzaug\OneDrive\Dokumente\Uni\Nano\Blockkurse\block_course_protocols\PSI_Glass_Fiber_Coatings\data\ref_fits\Al2s.eps)
%%CreationDate: Fri Feb 26 15:14:14 2021
%%EndComments

/OriginLab::PSL1 128 dict dup begin def
/Save0 save def
%%BeginResource: procset OriginLab::PSL1
/wd{1 index where{pop pop pop}{bind def}ifelse}bind def
/setcmykcolor{1 sub 4 1 roll 3{3 index add neg dup 0 lt{pop 0}if 3 1 roll}repeat setrgbcolor pop}wd
/selectfont{dup type/arraytype eq{exch findfont exch makefont setfont}{exch findfont exch scalefont setfont}ifelse}wd
/xshow{1 index length 0 le{}{currentpoint exch 3 index length 1 sub 0 exch 1 exch{dup 5 index exch 1 getinterval show 3 index exch get add 2 copy exch moveto}for pop pop}ifelse pop pop}wd
/grayimage/image load def/rgbtogray{cvx exec dup length 3 idiv 1 sub 0 exch 1 exch{dup 3 mul dup 3 index exch get 255 div .3 mul exch
 1 add dup 4 index exch get 255 div .59 mul exch 1 add 4 index exch get 255 div .11 mul add add
 255 mul dup 255 gt{255}if round cvi 2 index 3 1 roll put}for dup length 3 idiv 0 exch getinterval}bind def
/colorimage{0 setgray pop pop cvlit/rgbtogray cvx 2 packedarray cvx grayimage}wd
/bd{bind def}bind def/ld{load def}bd/ed{exch def}bd/xd{cvx def}bd
/np/newpath ld/a/arc ld/m/moveto ld/l/lineto ld/c/curveto ld/rm/rmoveto ld/rl/rlineto ld/rc/rcurveto ld/cp/closepath ld/cpt/currentpoint ld
/tr/translate ld/sc/scale ld/ro/rotate ld/t/transform ld/it/itransform ld/dt/dtransform ld/idt/idtransform ld
/mtx/matrix ld/cmtx/currentmatrix ld/dmtx/defaultmatrix ld/smtx/setmatrix ld/catmtx/concatmatrix ld
/sw/setlinewidth ld/scap/setlinecap ld/sj/setlinejoin ld/sm/setmiterlimit ld/sd/setdash ld/rgb/setrgbcolor ld/crgb/currentrgbcolor ld/cmyk/setcmykcolor ld/gs/gsave ld/gr/grestore ld
/st/stroke ld/fi/fill ld/eofi/eofill ld/cl/clip ld/eocl/eoclip ld
/glyphshowEmulation{matrix currentmatrix exch currentfont dup/FontMatrix get concat currentpoint translate
 dup/Metrics get 2 index get 0 4 2 roll gsave/CharProcs get exch 2 copy known not{pop/.notdef}if
 get exec fill grestore moveto setmatrix} bind def
/isWord2010 false def
currentsystemparams /PrinterName known{currentsystemparams /PrinterName get (Access Softek) eq {/isWord2010 true def} if } if
isWord2010{/glyphshowCommand/glyphshowEmulation ld}{/glyphshowCommand/glyphshow ld}ifelse
/df/definefont ld/ff/findfont ld/sf/setfont ld/scf/scalefont ld/self/selectfont ld/cf/currentfont ld
/s/show ld/xs/xshow ld/gls/glyphshowCommand ld/xgls{cpt 3 1 roll add exch 3 -1 roll gls m}bd
/xglsh{cpt 3 1 roll add exch 3 -1 roll glyphshowCommand m}bd
/cd/currentdict ld/i/index ld
/DrawBox{4 2 roll m 1 index 0 rl 0 exch rl neg 0 rl cp}bd
/plus.re { 6 { 3 index } repeat moveto 0 exch rlineto 0 rlineto pop pop neg 0 exch rlineto pop lineto closepath } def
/DrawBcc{4 2 roll m 2 copy 0 lt exch 0 lt xor{dup 0 exch rl exch 0 rl neg 0 exch rl}{exch dup 0 rl exch 0 exch rl neg 0 rl}ifelse cp}bd
/rectline{dup type/arraytype eq{dup length 0 exch 4 exch 4 sub{0 1 3{3 copy add get 4 1 roll pop}for pop 5 1 roll DrawBox}for pop}{DrawBox}ifelse}bd
/rectpath{dup type/arraytype eq{dup length 0 exch 4 exch 4 sub{0 1 3{3 copy add get 4 1 roll pop}for pop 5 1 roll DrawBcc}for pop}{DrawBcc}ifelse}bd
/pathproc{[{/m cvx}{/l cvx}{/c cvx}{/cp cvx}pathforall]cvx}bd
/L1img/image ld/L1idx[{0}
 {dup 7 and 3 1 roll -3 bitshift get exch 7 sub 1 mul bitshift  1 and}bind 1 index dup
 {dup 1 and 3 1 roll -1 bitshift get exch 1 sub 4 mul bitshift 15 and}bind 1 index dup dup
 {get}bind]def
/image{dup type/dicttype eq {dup/ImgCS get 0 get/Indexed eq}{false}ifelse
 {begin Width Height 8 ImageMatrix {rgb_string rgb_lookup
 cd/DataSource get dup type/filetype eq
 {mystring readstring pop}{exec}ifelse
 dup length 0 ne
 {L1idx BitsPerComponent get 0 1 Width 1 sub
 {3 copy exch exec exch 3 mul exch
 3 mul dup 5 index exch get exch 1 add dup 6 index exch get exch 1 add 6 index exch get
 7 index exch 4 index 2 add exch put 6 index exch 3 index 1 add exch put 5 index exch 2 index exch put pop
 }for pop pop pop }{pop pop pop ()}ifelse }false 3 colorimage end} {dup type/dicttype eq
 {{dup mark exch L1img pop pop}stopped{cleartomark begin Width Height BitsPerComponent ImageMatrix
 {cd/DataSource get dup type/filetype eq {mystring readstring pop}{exec}ifelse
 }false 3 colorimage end} if}{L1img}ifelse}ifelse
 }bd
/L1imgmask/imagemask ld/imagemask{dup type/dicttype eq
 {{dup mark exch L1imgmask pop pop}stopped {cleartomark begin Width Height polarityflag ImageMatrix
 {cd/DataSource get dup type/filetype eq {mystring readstring pop}{exec}ifelse
 }L1imgmask end}if}{L1imgmask}ifelse
 }bd
% Gradient function
/GradientStep 1 150 div def
/GradientStartRGB { /R1 exch def /G1 exch def /B1 exch def } def
/GradientEndRGB { /R2 exch def /G2 exch def /B2 exch def
/GradientSteps GradientLength GradientStep div def
/GradientRStep R2 R1 sub GradientSteps div def
/GradientGStep G2 G1 sub GradientSteps div def
/GradientBStep B2 B1 sub GradientSteps div def
} def
/GradientStepRGB { /R1 R1 GradientRStep add def
/G1 G1 GradientGStep add def
/B1 B1 GradientBStep add def
R1 G1 B1 setrgbcolor
} def
%%EndResource
/rectclip{np rectpath clip np}wd
/rectfill{gs np rectpath fi gr}wd
/rectstroke{gs np dup type/arraytype eq{dup length 6 eq}{false}ifelse{1 index type/arraytype eq{exch}{5 1 roll}ifelse rectline concat st}{rectline st}ifelse gr}wd
%%BeginResource: procset OriginLab::Image
/OriginLab::Image 32 dict dup begin
/BinProc{[currentfile mystring /readstring cvx /pop cvx] cvx bind}bd
/HexProc{[currentfile mystring /readhexstring cvx /pop cvx] cvx bind}bd
/Ascii85Proc{currentfile /ASCII85Decode filter}bd
/LZWA85{currentfile /ASCII85Decode filter /LZWDecode filter}bd
/ImgProcArray[/BinProc /HexProc /Ascii85Proc /LZWA85]def
/ImgDict{/ImgDict 16 dict def ImgDict dup begin /ImageType 1 def /MultipleDataSource false def end}bd
/L2Dec{{[1 0]}{[0 1]}ifelse}bd
/BegImg{ /Img_sv save def
 /ImgDir ed ImgProcArray exch get /ImgProc exch ld
 dup /polarityflag ed L2Dec /polarity ed /smoothflag ed
 tr /dx 2 index def /dy 1 index abs def sc
 string /mystring ed /bpc ed /ih ed /iw ed
 }bd
/EndImg {Img_sv restore}bd
/DoXImg{ /rgb_lookup ed /hival ed ImgDict dup begin
 [/Indexed /DeviceRGB hival rgb_lookup] /L1img where{pop/ImgCS ed}{setcolorspace}ifelse
 /rgb_string iw 3 mul string def
 /Width iw def
 /Height ih def
 /Decode [0 1 bpc{2 mul}repeat 1 sub] def
 /ImageMatrix
  ImgDir 0 eq{[iw 0 0 ih 0 0]}if
  ImgDir 1 eq{[iw neg 0 0 ih iw 0]}if
  ImgDir 2 eq{[iw 0 0 ih neg 0 ih]}if
  ImgDir 3 eq{[iw neg 0 0 ih neg iw ih]}if
  def
 /DataSource ImgProc def
 /BitsPerComponent bpc def
 /Interpolate smoothflag def
 end image}bd
/DoImg{ ImgDict dup begin
 [/DeviceRGB] /L1img where{pop/ImgCS ed}{setcolorspace}ifelse
 /rgb_string iw 3 mul string def
 /Width iw def
 /Height ih def
 /Decode [0 1 0 1 0 1] def
 /ImageMatrix
  ImgDir 0 eq{[iw 0 0 ih 0 0]}if
  ImgDir 1 eq{[iw neg 0 0 ih iw 0]}if
  ImgDir 2 eq{[iw 0 0 ih neg 0 ih]}if
  ImgDir 3 eq{[iw neg 0 0 ih neg iw ih]}if
  def
 /DataSource ImgProc def
 /BitsPerComponent 8 def
 /Interpolate smoothflag def
 end image}bd
end def
%%EndResource
/initmtx mtx cmtx def
%%BeginFont: /MC1_Arial
12 dict begin
/FontInfo 8 dict dup begin
/ItalicAngle 0 def
/UnderlinePosition -217.00 def
/UnderlineThickness 150.00 def
/StrikeoutPosition 530.00 def
/StrikeoutThickness 102.00 def
/isFixedPitch false def
end readonly def
/FontName /MC1_Arial def
/FontType 3 def
/FontMatrix [1 2048 div 0 0 1 2048 div 0 0] def
/FontBBox [-1361 -665 4096 2129] def
/Encoding 256 array def 0 1 255{Encoding exch/.notdef put}for
Encoding 32/s32 put
Encoding 40/s40 put
Encoding 41/s41 put
Encoding 48/s48 put
Encoding 49/s49 put
Encoding 50/s50 put
Encoding 51/s51 put
Encoding 53/s53 put
Encoding 57/s57 put
Encoding 65/s65 put
Encoding 66/s66 put
Encoding 67/s67 put
Encoding 69/s69 put
Encoding 71/s71 put
Encoding 80/s80 put
Encoding 83/s83 put
Encoding 86/s86 put
Encoding 100/s100 put
Encoding 101/s101 put
Encoding 103/s103 put
Encoding 105/s105 put
Encoding 108/s108 put
Encoding 110/s110 put
Encoding 114/s114 put
Encoding 115/s115 put
Encoding 121/s121 put
/BoundingBoxes 27 dict def
BoundingBoxes begin
/s32 [0 -434 569 1854] def
/s40 [0 -434 682 1854] def
/s41 [0 -434 682 1854] def
/s48 [0 -434 1139 1854] def
/s49 [0 -434 1139 1854] def
/s50 [0 -434 1139 1854] def
/s51 [0 -434 1139 1854] def
/s53 [0 -434 1139 1854] def
/s57 [0 -434 1139 1854] def
/s65 [-3 -434 1366 1854] def
/s66 [0 -434 1366 1854] def
/s67 [0 -434 1479 1854] def
/s69 [0 -434 1366 1854] def
/s71 [0 -434 1593 1854] def
/s80 [0 -434 1366 1854] def
/s83 [0 -434 1366 1854] def
/s86 [0 -434 1366 1854] def
/s100 [0 -434 1139 1854] def
/s101 [0 -434 1139 1854] def
/s103 [0 -434 1139 1854] def
/s105 [0 -434 455 1854] def
/s108 [0 -434 455 1854] def
/s110 [0 -434 1139 1854] def
/s114 [0 -434 682 1854] def
/s115 [0 -434 1024 1854] def
/s121 [0 -434 1024 1854] def
end
/Metrics 27 dict def
 Metrics begin
/s32 569 def
/s40 682 def
/s41 682 def
/s48 1139 def
/s49 1139 def
/s50 1139 def
/s51 1139 def
/s53 1139 def
/s57 1139 def
/s65 1366 def
/s66 1366 def
/s67 1479 def
/s69 1366 def
/s71 1593 def
/s80 1366 def
/s83 1366 def
/s86 1366 def
/s100 1139 def
/s101 1139 def
/s103 1139 def
/s105 455 def
/s108 455 def
/s110 1139 def
/s114 682 def
/s115 1024 def
/s121 1024 def
end
/CharProcs 27 dict def
CharProcs begin
/.notdef {} def
/s40 {
479 -431 m
379.67 -305.67 295.67 -159 227 9 c
158.33 177 124 351 124 531 c
124 689.67 149.67 841.67 201 987 c
261 1155.67 353.67 1323.67 479 1491 c
608 1491 479 1491 608 1491 c
527.33 1352.33 474 1253.33 448 1194 c
407.33 1102 375.33 1006 352 906 c
323.33 781.33 309 656 309 530 c
309 209.33 408.67 -111 608 -431 c
479 -431 608 -431 479 -431 c
closepath } bind def
/s41 {
253 -431 m
124 -431 253 -431 124 -431 c
323.33 -111 423 209.33 423 530 c
423 655.33 408.67 779.67 380 903 c
357.33 1003 325.67 1099 285 1191 c
259 1251 205.33 1351 124 1491 c
253 1491 124 1491 253 1491 c
378.33 1323.67 471 1155.67 531 987 c
582.33 841.67 608 689.67 608 531 c
608 351 573.5 177 504.5 9 c
435.5 -159 351.67 -305.67 253 -431 c
closepath } bind def
/s48 {
85 723 m
85 896.33 102.83 1035.83 138.5 1141.5 c
174.17 1247.17 227.17 1328.67 297.5 1386 c
367.83 1443.33 456.33 1472 563 1472 c
641.67 1472 710.67 1456.17 770 1424.5 c
829.33 1392.83 878.33 1347.17 917 1287.5 c
955.67 1227.83 986 1155.17 1008 1069.5 c
1030 983.83 1041 868.33 1041 723 c
1041 551 1023.33 412.17 988 306.5 c
952.67 200.83 899.83 119.17 829.5 61.5 c
759.17 3.83 670.33 -25 563 -25 c
421.67 -25 310.67 25.67 230 127 c
133.33 249 85 447.67 85 723 c
closepath 270 723 m
270 482.33 298.17 322.17 354.5 242.5 c
410.83 162.83 480.33 123 563 123 c
645.67 123 715.17 163 771.5 243 c
827.83 323 856 483 856 723 c
856 964.33 827.83 1124.67 771.5 1204 c
715.17 1283.33 645 1323 561 1323 c
478.33 1323 412.33 1288 363 1218 c
301 1128.67 270 963.67 270 723 c
closepath } bind def
/s49 {
763 0 m
583 0 763 0 583 0 c
583 1147 583 0 583 1147 c
539.67 1105.67 482.83 1064.33 412.5 1023 c
342.17 981.67 279 950.67 223 930 c
223 1104 223 930 223 1104 c
323.67 1151.33 411.67 1208.67 487 1276 c
562.33 1343.33 615.67 1408.67 647 1472 c
763 1472 647 1472 763 1472 c
763 0 763 1472 763 0 c
closepath } bind def
/s50 {
1031 173 m
1031 0 1031 173 1031 0 c
62 0 1031 0 62 0 c
60.67 43.33 67.67 85 83 125 c
107.67 191 147.17 256 201.5 320 c
255.83 384 334.33 458 437 542 c
596.33 672.67 704 776.17 760 852.5 c
816 928.83 844 1001 844 1069 c
844 1140.33 818.5 1200.5 767.5 1249.5 c
716.5 1298.5 650 1323 568 1323 c
481.33 1323 412 1297 360 1245 c
308 1193 281.67 1121 281 1029 c
96 1048 281 1029 96 1048 c
108.67 1186 156.33 1291.17 239 1363.5 c
321.67 1435.83 432.67 1472 572 1472 c
712.67 1472 824 1433 906 1355 c
988 1277 1029 1180.33 1029 1065 c
1029 1006.33 1017 948.67 993 892 c
969 835.33 929.17 775.67 873.5 713 c
817.83 650.33 725.33 564.33 596 455 c
488 364.33 418.67 302.83 388 270.5 c
357.33 238.17 332 205.67 312 173 c
1031 173 312 173 1031 173 c
closepath } bind def
/s51 {
86 387 m
266 411 86 387 266 411 c
286.67 309 321.83 235.5 371.5 190.5 c
421.17 145.5 481.67 123 553 123 c
637.67 123 709.17 152.33 767.5 211 c
825.83 269.67 855 342.33 855 429 c
855 511.67 828 579.83 774 633.5 c
720 687.17 651.33 714 568 714 c
534 714 491.67 707.33 441 694 c
461 852 441 694 461 852 c
473 850.67 482.67 850 490 850 c
566.67 850 635.67 870 697 910 c
758.33 950 789 1011.67 789 1095 c
789 1161 766.67 1215.67 722 1259 c
677.33 1302.33 619.67 1324 549 1324 c
479 1324 420.67 1302 374 1258 c
327.33 1214 297.33 1148 284 1060 c
104 1092 284 1060 104 1092 c
126 1212.67 176 1306.17 254 1372.5 c
332 1438.83 429 1472 545 1472 c
625 1472 698.67 1454.83 766 1420.5 c
833.33 1386.17 884.83 1339.33 920.5 1280 c
956.17 1220.67 974 1157.67 974 1091 c
974 1027.67 957 970 923 918 c
889 866 838.67 824.67 772 794 c
858.67 774 926 732.5 974 669.5 c
1022 606.5 1046 527.67 1046 433 c
1046 305 999.33 196.5 906 107.5 c
812.67 18.5 694.67 -26 552 -26 c
423.33 -26 316.5 12.33 231.5 89 c
146.5 165.67 98 265 86 387 c
closepath } bind def
/s53 {
85 384 m
274 400 85 384 274 400 c
288 308 320.5 238.83 371.5 192.5 c
422.5 146.17 484 123 556 123 c
642.67 123 716 155.67 776 221 c
836 286.33 866 373 866 481 c
866 583.67 837.17 664.67 779.5 724 c
721.83 783.33 646.33 813 553 813 c
495 813 442.67 799.83 396 773.5 c
349.33 747.17 312.67 713 286 671 c
117 693 286 671 117 693 c
259 1446 117 693 259 1446 c
988 1446 259 1446 988 1446 c
988 1274 988 1446 988 1274 c
403 1274 988 1274 403 1274 c
324 880 403 1274 324 880 c
412 941.33 504.33 972 601 972 c
729 972 837 927.67 925 839 c
1013 750.33 1057 636.33 1057 497 c
1057 364.33 1018.33 249.67 941 153 c
847 34.33 718.67 -25 556 -25 c
422.67 -25 313.83 12.33 229.5 87 c
145.17 161.67 97 260.67 85 384 c
closepath } bind def
/s57 {
112 339 m
285 355 112 339 285 355 c
299.67 273.67 327.67 214.67 369 178 c
410.33 141.33 463.33 123 528 123 c
583.33 123 631.83 135.67 673.5 161 c
715.17 186.33 749.33 220.17 776 262.5 c
802.67 304.83 825 362 843 434 c
861 506 870 579.33 870 654 c
870 662 869.67 674 869 690 c
833 632.67 783.83 586.17 721.5 550.5 c
659.17 514.83 591.67 497 519 497 c
397.67 497 295 541 211 629 c
127 717 85 833 85 977 c
85 1125.67 128.83 1245.33 216.5 1336 c
304.17 1426.67 414 1472 546 1472 c
641.33 1472 728.5 1446.33 807.5 1395 c
886.5 1343.67 946.5 1270.5 987.5 1175.5 c
1028.5 1080.5 1049 943 1049 763 c
1049 575.67 1028.67 426.5 988 315.5 c
947.33 204.5 886.83 120 806.5 62 c
726.17 4 632 -25 524 -25 c
409.33 -25 315.67 6.83 243 70.5 c
170.33 134.17 126.67 223.67 112 339 c
closepath 849 986 m
849 1089.33 821.5 1171.33 766.5 1232 c
711.5 1292.67 645.33 1323 568 1323 c
488 1323 418.33 1290.33 359 1225 c
299.67 1159.67 270 1075 270 971 c
270 877.67 298.17 801.83 354.5 743.5 c
410.83 685.17 480.33 656 563 656 c
646.33 656 714.83 685.17 768.5 743.5 c
822.17 801.83 849 882.67 849 986 c
closepath } bind def
/s65 {
-3 0 m
560 1466 -3 0 560 1466 c
769 1466 560 1466 769 1466 c
1369 0 769 1466 1369 0 c
1148 0 1369 0 1148 0 c
977 444 1148 0 977 444 c
364 444 977 444 364 444 c
203 0 364 444 203 0 c
-3 0 203 0 -3 0 c
closepath 420 602 m
917 602 420 602 917 602 c
764 1008 917 602 764 1008 c
717.33 1131.33 682.67 1232.67 660 1312 c
641.33 1218 615 1124.67 581 1032 c
420 602 581 1032 420 602 c
closepath } bind def
/s66 {
150 0 m
150 1466 150 0 150 1466 c
700 1466 150 1466 700 1466 c
812 1466 901.83 1451.17 969.5 1421.5 c
1037.17 1391.83 1090.17 1346.17 1128.5 1284.5 c
1166.83 1222.83 1186 1158.33 1186 1091 c
1186 1028.33 1169 969.33 1135 914 c
1101 858.67 1049.67 814 981 780 c
1069.67 754 1137.83 709.67 1185.5 647 c
1233.17 584.33 1257 510.33 1257 425 c
1257 356.33 1242.5 292.5 1213.5 233.5 c
1184.5 174.5 1148.67 129 1106 97 c
1063.33 65 1009.83 40.83 945.5 24.5 c
881.17 8.17 802.33 0 709 0 c
150 0 709 0 150 0 c
closepath 344 850 m
661 850 344 850 661 850 c
747 850 808.67 855.67 846 867 c
895.33 881.67 932.5 906 957.5 940 c
982.5 974 995 1016.67 995 1068 c
995 1116.67 983.33 1159.5 960 1196.5 c
936.67 1233.5 903.33 1258.83 860 1272.5 c
816.67 1286.17 742.33 1293 637 1293 c
344 1293 637 1293 344 1293 c
344 850 344 1293 344 850 c
closepath 344 173 m
709 173 344 173 709 173 c
771.67 173 815.67 175.33 841 180 c
885.67 188 923 201.33 953 220 c
983 238.67 1007.67 265.83 1027 301.5 c
1046.33 337.17 1056 378.33 1056 425 c
1056 479.67 1042 527.17 1014 567.5 c
986 607.83 947.17 636.17 897.5 652.5 c
847.83 668.83 776.33 677 683 677 c
344 677 683 677 344 677 c
344 173 344 677 344 173 c
closepath } bind def
/s67 {
1204 514 m
1398 465 1204 514 1398 465 c
1357.33 305.67 1284.17 184.17 1178.5 100.5 c
1072.83 16.83 943.67 -25 791 -25 c
633 -25 504.5 7.17 405.5 71.5 c
306.5 135.83 231.17 229 179.5 351 c
127.83 473 102 604 102 744 c
102 896.67 131.17 1029.83 189.5 1143.5 c
247.83 1257.17 330.83 1343.5 438.5 1402.5 c
546.17 1461.5 664.67 1491 794 1491 c
940.67 1491 1064 1453.67 1164 1379 c
1264 1304.33 1333.67 1199.33 1373 1064 c
1182 1019 1373 1064 1182 1019 c
1148 1125.67 1098.67 1203.33 1034 1252 c
969.33 1300.67 888 1325 790 1325 c
677.33 1325 583.17 1298 507.5 1244 c
431.83 1190 378.67 1117.5 348 1026.5 c
317.33 935.5 302 841.67 302 745 c
302 620.33 320.17 511.5 356.5 418.5 c
392.83 325.5 449.33 256 526 210 c
602.67 164 685.67 141 775 141 c
883.67 141 975.67 172.33 1051 235 c
1126.33 297.67 1177.33 390.67 1204 514 c
closepath } bind def
/s69 {
162 0 m
162 1466 162 0 162 1466 c
1222 1466 162 1466 1222 1466 c
1222 1293 1222 1466 1222 1293 c
356 1293 1222 1293 356 1293 c
356 844 356 1293 356 844 c
1167 844 356 844 1167 844 c
1167 672 1167 844 1167 672 c
356 672 1167 672 356 672 c
356 173 356 672 356 173 c
1256 173 356 173 1256 173 c
1256 0 1256 173 1256 0 c
162 0 1256 0 162 0 c
closepath } bind def
/s71 {
844 575 m
844 747 844 575 844 747 c
1465 748 844 747 1465 748 c
1465 204 1465 748 1465 204 c
1369.67 128 1271.33 70.83 1170 32.5 c
1068.67 -5.83 964.67 -25 858 -25 c
714 -25 583.17 5.83 465.5 67.5 c
347.83 129.17 259 218.33 199 335 c
139 451.67 109 582 109 726 c
109 868.67 138.83 1001.83 198.5 1125.5 c
258.17 1249.17 344 1341 456 1401 c
568 1461 697 1491 843 1491 c
949 1491 1044.83 1473.83 1130.5 1439.5 c
1216.17 1405.17 1283.33 1357.33 1332 1296 c
1380.67 1234.67 1417.67 1154.67 1443 1056 c
1268 1008 1443 1056 1268 1008 c
1246 1082.67 1218.67 1141.33 1186 1184 c
1153.33 1226.67 1106.67 1260.83 1046 1286.5 c
985.33 1312.17 918 1325 844 1325 c
755.33 1325 678.67 1311.5 614 1284.5 c
549.33 1257.5 497.17 1222 457.5 1178 c
417.83 1134 387 1085.67 365 1033 c
327.67 942.33 309 844 309 738 c
309 607.33 331.5 498 376.5 410 c
421.5 322 487 256.67 573 214 c
659 171.33 750.33 150 847 150 c
931 150 1013 166.17 1093 198.5 c
1173 230.83 1233.67 265.33 1275 302 c
1275 575 1275 302 1275 575 c
844 575 1275 575 844 575 c
closepath } bind def
/s80 {
158 0 m
158 1466 158 0 158 1466 c
711 1466 158 1466 711 1466 c
808.33 1466 882.67 1461.33 934 1452 c
1006 1440 1066.33 1417.17 1115 1383.5 c
1163.67 1349.83 1202.83 1302.67 1232.5 1242 c
1262.17 1181.33 1277 1114.67 1277 1042 c
1277 917.33 1237.33 811.83 1158 725.5 c
1078.67 639.17 935.33 596 728 596 c
352 596 728 596 352 596 c
352 0 352 596 352 0 c
158 0 352 0 158 0 c
closepath 352 769 m
731 769 352 769 731 769 c
856.33 769 945.33 792.33 998 839 c
1050.67 885.67 1077 951.33 1077 1036 c
1077 1097.33 1061.5 1149.83 1030.5 1193.5 c
999.5 1237.17 958.67 1266 908 1280 c
875.33 1288.67 815 1293 727 1293 c
352 1293 727 1293 352 1293 c
352 769 352 1293 352 769 c
closepath } bind def
/s83 {
92 471 m
275 487 92 471 275 487 c
283.67 413.67 303.83 353.5 335.5 306.5 c
367.17 259.5 416.33 221.5 483 192.5 c
549.67 163.5 624.67 149 708 149 c
782 149 847.33 160 904 182 c
960.67 204 1002.83 234.17 1030.5 272.5 c
1058.17 310.83 1072 352.67 1072 398 c
1072 444 1058.67 484.17 1032 518.5 c
1005.33 552.83 961.33 581.67 900 605 c
860.67 620.33 773.67 644.17 639 676.5 c
504.33 708.83 410 739.33 356 768 c
286 804.67 233.83 850.17 199.5 904.5 c
165.17 958.83 148 1019.67 148 1087 c
148 1161 169 1230.17 211 1294.5 c
253 1358.83 314.33 1407.67 395 1441 c
475.67 1474.33 565.33 1491 664 1491 c
772.67 1491 868.5 1473.5 951.5 1438.5 c
1034.5 1403.5 1098.33 1352 1143 1284 c
1187.67 1216 1211.67 1139 1215 1053 c
1029 1039 1215 1053 1029 1039 c
1019 1131.67 985.17 1201.67 927.5 1249 c
869.83 1296.33 784.67 1320 672 1320 c
554.67 1320 469.17 1298.5 415.5 1255.5 c
361.83 1212.5 335 1160.67 335 1100 c
335 1047.33 354 1004 392 970 c
429.33 936 526.83 901.17 684.5 865.5 c
842.17 829.83 950.33 798.67 1009 772 c
1094.33 732.67 1157.33 682.83 1198 622.5 c
1238.67 562.17 1259 492.67 1259 414 c
1259 336 1236.67 262.5 1192 193.5 c
1147.33 124.5 1083.17 70.83 999.5 32.5 c
915.83 -5.83 821.67 -25 717 -25 c
584.33 -25 473.17 -5.67 383.5 33 c
293.83 71.67 223.5 129.83 172.5 207.5 c
121.5 285.17 94.67 373 92 471 c
closepath } bind def
/s86 {
577 0 m
9 1466 577 0 9 1466 c
219 1466 9 1466 219 1466 c
600 401 219 1466 600 401 c
630.67 315.67 656.33 235.67 677 161 c
699.67 241 726 321 756 401 c
1152 1466 756 401 1152 1466 c
1350 1466 1152 1466 1350 1466 c
776 0 1350 1466 776 0 c
577 0 776 0 577 0 c
closepath } bind def
/s100 {
824 0 m
824 134 824 0 824 134 c
756.67 28.67 657.67 -24 527 -24 c
442.33 -24 364.5 -0.67 293.5 46 c
222.5 92.67 167.5 157.83 128.5 241.5 c
89.5 325.17 70 421.33 70 530 c
70 636 87.67 732.17 123 818.5 c
158.33 904.83 211.33 971 282 1017 c
352.67 1063 431.67 1086 519 1086 c
583 1086 640 1072.5 690 1045.5 c
740 1018.5 780.67 983.33 812 940 c
812 1466 812 940 812 1466 c
991 1466 812 1466 991 1466 c
991 0 991 1466 991 0 c
824 0 991 0 824 0 c
closepath 255 530 m
255 394 283.67 292.33 341 225 c
398.33 157.67 466 124 544 124 c
622.67 124 689.5 156.17 744.5 220.5 c
799.5 284.83 827 383 827 515 c
827 660.33 799 767 743 835 c
687 903 618 937 536 937 c
456 937 389.17 904.33 335.5 839 c
281.83 773.67 255 670.67 255 530 c
closepath } bind def
/s101 {
862 342 m
1048 319 862 342 1048 319 c
1018.67 210.33 964.33 126 885 66 c
805.67 6 704.33 -24 581 -24 c
425.67 -24 302.5 23.83 211.5 119.5 c
120.5 215.17 75 349.33 75 522 c
75 700.67 121 839.33 213 938 c
305 1036.67 424.33 1086 571 1086 c
713 1086 829 1037.67 919 941 c
1009 844.33 1054 708.33 1054 533 c
1054 522.33 1053.67 506.33 1053 485 c
261 485 1053 485 261 485 c
267.67 368.33 300.67 279 360 217 c
419.33 155 493.33 124 582 124 c
648 124 704.33 141.33 751 176 c
797.67 210.67 834.67 266 862 342 c
closepath 271 633 m
864 633 271 633 864 633 c
856 722.33 833.33 789.33 796 834 c
738.67 903.33 664.33 938 573 938 c
490.33 938 420.83 910.33 364.5 855 c
308.17 799.67 277 725.67 271 633 c
closepath } bind def
/s103 {
102 -88 m
277 -114 102 -88 277 -114 c
284.33 -168 304.67 -207.33 338 -232 c
382.67 -265.33 443.67 -282 521 -282 c
604.33 -282 668.67 -265.33 714 -232 c
759.33 -198.67 790 -152 806 -92 c
815.33 -55.33 819.67 21.67 819 139 c
740.33 46.33 642.33 0 525 0 c
379 0 266 52.67 186 158 c
106 263.33 66 389.67 66 537 c
66 638.33 84.33 731.83 121 817.5 c
157.67 903.17 210.83 969.33 280.5 1016 c
350.17 1062.67 432 1086 526 1086 c
651.33 1086 754.67 1035.33 836 934 c
836 1062 836 934 836 1062 c
1002 1062 836 1062 1002 1062 c
1002 144 1002 1062 1002 144 c
1002 -21.33 985.17 -138.5 951.5 -207.5 c
917.83 -276.5 864.5 -331 791.5 -371 c
718.5 -411 628.67 -431 522 -431 c
395.33 -431 293 -402.5 215 -345.5 c
137 -288.5 99.33 -202.67 102 -88 c
closepath 251 550 m
251 410.67 278.67 309 334 245 c
389.33 181 458.67 149 542 149 c
624.67 149 694 180.83 750 244.5 c
806 308.17 834 408 834 544 c
834 674 805.17 772 747.5 838 c
689.83 904 620.33 937 539 937 c
459 937 391 904.5 335 839.5 c
279 774.5 251 678 251 550 c
closepath } bind def
/s105 {
136 1259 m
136 1466 136 1259 136 1466 c
316 1466 136 1466 316 1466 c
316 1259 316 1466 316 1259 c
136 1259 316 1259 136 1259 c
closepath 136 0 m
136 1062 136 0 136 1062 c
316 1062 136 1062 316 1062 c
316 0 316 1062 316 0 c
136 0 316 0 136 0 c
closepath } bind def
/s108 {
131 0 m
131 1466 131 0 131 1466 c
311 1466 131 1466 311 1466 c
311 0 311 1466 311 0 c
131 0 311 0 131 0 c
closepath } bind def
/s110 {
135 0 m
135 1062 135 0 135 1062 c
297 1062 135 1062 297 1062 c
297 911 297 1062 297 911 c
375 1027.67 487.67 1086 635 1086 c
699 1086 757.83 1074.5 811.5 1051.5 c
865.17 1028.5 905.33 998.33 932 961 c
958.67 923.67 977.33 879.33 988 828 c
994.67 794.67 998 736.33 998 653 c
998 0 998 653 998 0 c
818 0 998 0 818 0 c
818 646 818 0 818 646 c
818 719.33 811 774.17 797 810.5 c
783 846.83 758.17 875.83 722.5 897.5 c
686.83 919.17 645 930 597 930 c
520.33 930 454.17 905.67 398.5 857 c
342.83 808.33 315 716 315 580 c
315 0 315 580 315 0 c
135 0 315 0 135 0 c
closepath } bind def
/s114 {
133 0 m
133 1062 133 0 133 1062 c
295 1062 133 1062 295 1062 c
295 901 295 1062 295 901 c
336.33 976.33 374.5 1026 409.5 1050 c
444.5 1074 483 1086 525 1086 c
585.67 1086 647.33 1066.67 710 1028 c
648 861 710 1028 648 861 c
604 887 560 900 516 900 c
476.67 900 441.33 888.17 410 864.5 c
378.67 840.83 356.33 808 343 766 c
323 702 313 632 313 556 c
313 0 313 556 313 0 c
133 0 313 0 133 0 c
closepath } bind def
/s115 {
63 317 m
241 345 63 317 241 345 c
251 273.67 278.83 219 324.5 181 c
370.17 143 434 124 516 124 c
598.67 124 660 140.83 700 174.5 c
740 208.17 760 247.67 760 293 c
760 333.67 742.33 365.67 707 389 c
682.33 405 621 425.33 523 450 c
391 483.33 299.5 512.17 248.5 536.5 c
197.5 560.83 158.83 594.5 132.5 637.5 c
106.17 680.5 93 728 93 780 c
93 827.33 103.83 871.17 125.5 911.5 c
147.17 951.83 176.67 985.33 214 1012 c
242 1032.67 280.17 1050.17 328.5 1064.5 c
376.83 1078.83 428.67 1086 484 1086 c
567.33 1086 640.5 1074 703.5 1050 c
766.5 1026 813 993.5 843 952.5 c
873 911.5 893.67 856.67 905 788 c
729 764 905 788 729 764 c
721 818.67 697.83 861.33 659.5 892 c
621.17 922.67 567 938 497 938 c
414.33 938 355.33 924.33 320 897 c
284.67 869.67 267 837.67 267 801 c
267 777.67 274.33 756.67 289 738 c
303.67 718.67 326.67 702.67 358 690 c
376 683.33 429 668 517 644 c
644.33 610 733.17 582.17 783.5 560.5 c
833.83 538.83 873.33 507.33 902 466 c
930.67 424.67 945 373.33 945 312 c
945 252 927.5 195.5 892.5 142.5 c
857.5 89.5 807 48.5 741 19.5 c
675 -9.5 600.33 -24 517 -24 c
379 -24 273.83 4.67 201.5 62 c
129.17 119.33 83 204.33 63 317 c
closepath } bind def
/s121 {
127 -409 m
107 -240 127 -409 107 -240 c
146.33 -250.67 180.67 -256 210 -256 c
250 -256 282 -249.33 306 -236 c
330 -222.67 349.67 -204 365 -180 c
376.33 -162 394.67 -117.33 420 -46 c
423.33 -36 428.67 -21.33 436 -2 c
33 1062 436 -2 33 1062 c
227 1062 33 1062 227 1062 c
448 447 227 1062 448 447 c
476.67 369 502.33 287 525 201 c
545.67 283.67 570.33 364.33 599 443 c
826 1062 599 443 826 1062 c
1006 1062 826 1062 1006 1062 c
602 -18 1006 1062 602 -18 c
558.67 -134.67 525 -215 501 -259 c
469 -318.33 432.33 -361.83 391 -389.5 c
349.67 -417.17 300.33 -431 243 -431 c
208.33 -431 169.67 -423.67 127 -409 c
closepath } bind def
end
/BuildGlyph {
 exch dup /Metrics get 2 index get 0 setcharwidth
/CharProcs get exch 2 copy known not{pop/.notdef}if get exec fill}bind def
/BuildChar {
1 index /Encoding get exch get
1 index /BuildGlyph get exec
} bind def
currentdict end /MC1_Arial exch definefont pop
%%EndFont
%%BeginFont: /MC2_Arial
12 dict begin
/FontInfo 8 dict dup begin
/ItalicAngle 0 def
/UnderlinePosition -217.00 def
/UnderlineThickness 150.00 def
/StrikeoutPosition 530.00 def
/StrikeoutThickness 102.00 def
/isFixedPitch false def
end readonly def
/FontName /MC2_Arial def
/FontType 3 def
/FontMatrix [1 2048 div 0 0 1 2048 div 0 0] def
/FontBBox [-1361 -665 4096 2129] def
/Encoding 256 array def 0 1 255{Encoding exch/.notdef put}for
Encoding 32/s32 put
Encoding 40/s40 put
Encoding 41/s41 put
Encoding 73/s73 put
Encoding 97/s97 put
Encoding 98/s98 put
Encoding 101/s101 put
Encoding 105/s105 put
Encoding 110/s110 put
Encoding 114/s114 put
Encoding 115/s115 put
Encoding 116/s116 put
Encoding 121/s121 put
/BoundingBoxes 14 dict def
BoundingBoxes begin
/s32 [0 -434 569 1854] def
/s40 [0 -434 682 1854] def
/s41 [0 -434 682 1854] def
/s73 [0 -434 569 1854] def
/s97 [0 -434 1139 1854] def
/s98 [0 -434 1139 1854] def
/s101 [0 -434 1139 1854] def
/s105 [0 -434 455 1854] def
/s110 [0 -434 1139 1854] def
/s114 [0 -434 682 1854] def
/s115 [0 -434 1024 1854] def
/s116 [0 -434 569 1854] def
/s121 [0 -434 1024 1854] def
end
/Metrics 14 dict def
 Metrics begin
/s32 569 def
/s40 682 def
/s41 682 def
/s73 569 def
/s97 1139 def
/s98 1139 def
/s101 1139 def
/s105 455 def
/s110 1139 def
/s114 682 def
/s115 1024 def
/s116 569 def
/s121 1024 def
end
/CharProcs 14 dict def
CharProcs begin
/.notdef {} def
/s40 {
479 -431 m
379.67 -305.67 295.67 -159 227 9 c
158.33 177 124 351 124 531 c
124 689.67 149.67 841.67 201 987 c
261 1155.67 353.67 1323.67 479 1491 c
608 1491 479 1491 608 1491 c
527.33 1352.33 474 1253.33 448 1194 c
407.33 1102 375.33 1006 352 906 c
323.33 781.33 309 656 309 530 c
309 209.33 408.67 -111 608 -431 c
479 -431 608 -431 479 -431 c
closepath } bind def
/s41 {
253 -431 m
124 -431 253 -431 124 -431 c
323.33 -111 423 209.33 423 530 c
423 655.33 408.67 779.67 380 903 c
357.33 1003 325.67 1099 285 1191 c
259 1251 205.33 1351 124 1491 c
253 1491 124 1491 253 1491 c
378.33 1323.67 471 1155.67 531 987 c
582.33 841.67 608 689.67 608 531 c
608 351 573.5 177 504.5 9 c
435.5 -159 351.67 -305.67 253 -431 c
closepath } bind def
/s73 {
191 0 m
191 1466 191 0 191 1466 c
385 1466 191 1466 385 1466 c
385 0 385 1466 385 0 c
191 0 385 0 191 0 c
closepath } bind def
/s97 {
828 131 m
761.33 74.33 697.17 34.33 635.5 11 c
573.83 -12.33 507.67 -24 437 -24 c
320.33 -24 230.67 4.5 168 61.5 c
105.33 118.5 74 191.33 74 280 c
74 332 85.83 379.5 109.5 422.5 c
133.17 465.5 164.17 500 202.5 526 c
240.83 552 284 571.67 332 585 c
367.33 594.33 420.67 603.33 492 612 c
637.33 629.33 744.33 650 813 674 c
813.67 698.67 814 714.33 814 721 c
814 794.33 797 846 763 876 c
717 916.67 648.67 937 558 937 c
473.33 937 410.83 922.17 370.5 892.5 c
330.17 862.83 300.33 810.33 281 735 c
105 759 281 735 105 759 c
121 834.33 147.33 895.17 184 941.5 c
220.67 987.83 273.67 1023.5 343 1048.5 c
412.33 1073.5 492.67 1086 584 1086 c
674.67 1086 748.33 1075.33 805 1054 c
861.67 1032.67 903.33 1005.83 930 973.5 c
956.67 941.17 975.33 900.33 986 851 c
992 820.33 995 765 995 685 c
995 445 995 685 995 445 c
995 277.67 998.83 171.83 1006.5 127.5 c
1014.17 83.17 1029.33 40.67 1052 0 c
864 0 1052 0 864 0 c
845.33 37.33 833.33 81 828 131 c
closepath 813 533 m
747.67 506.33 649.67 483.67 519 465 c
445 454.33 392.67 442.33 362 429 c
331.33 415.67 307.67 396.17 291 370.5 c
274.33 344.83 266 316.33 266 285 c
266 237 284.17 197 320.5 165 c
356.83 133 410 117 480 117 c
549.33 117 611 132.17 665 162.5 c
719 192.83 758.67 234.33 784 287 c
803.33 327.67 813 387.67 813 467 c
813 533 813 467 813 533 c
closepath } bind def
/s98 {
301 0 m
134 0 301 0 134 0 c
134 1466 134 0 134 1466 c
314 1466 134 1466 314 1466 c
314 943 314 1466 314 943 c
390 1038.33 487 1086 605 1086 c
670.33 1086 732.17 1072.83 790.5 1046.5 c
848.83 1020.17 896.83 983.17 934.5 935.5 c
972.17 887.83 1001.67 830.33 1023 763 c
1044.33 695.67 1055 623.67 1055 547 c
1055 365 1010 224.33 920 125 c
830 25.67 722 -24 596 -24 c
470.67 -24 372.33 28.33 301 133 c
301 0 301 133 301 0 c
closepath 299 539 m
299 411.67 316.33 319.67 351 263 c
407.67 170.33 484.33 124 581 124 c
659.67 124 727.67 158.17 785 226.5 c
842.33 294.83 871 396.67 871 532 c
871 670.67 843.5 773 788.5 839 c
733.5 905 667 938 589 938 c
510.33 938 442.33 903.83 385 835.5 c
327.67 767.17 299 668.33 299 539 c
closepath } bind def
/s101 {
862 342 m
1048 319 862 342 1048 319 c
1018.67 210.33 964.33 126 885 66 c
805.67 6 704.33 -24 581 -24 c
425.67 -24 302.5 23.83 211.5 119.5 c
120.5 215.17 75 349.33 75 522 c
75 700.67 121 839.33 213 938 c
305 1036.67 424.33 1086 571 1086 c
713 1086 829 1037.67 919 941 c
1009 844.33 1054 708.33 1054 533 c
1054 522.33 1053.67 506.33 1053 485 c
261 485 1053 485 261 485 c
267.67 368.33 300.67 279 360 217 c
419.33 155 493.33 124 582 124 c
648 124 704.33 141.33 751 176 c
797.67 210.67 834.67 266 862 342 c
closepath 271 633 m
864 633 271 633 864 633 c
856 722.33 833.33 789.33 796 834 c
738.67 903.33 664.33 938 573 938 c
490.33 938 420.83 910.33 364.5 855 c
308.17 799.67 277 725.67 271 633 c
closepath } bind def
/s105 {
136 1259 m
136 1466 136 1259 136 1466 c
316 1466 136 1466 316 1466 c
316 1259 316 1466 316 1259 c
136 1259 316 1259 136 1259 c
closepath 136 0 m
136 1062 136 0 136 1062 c
316 1062 136 1062 316 1062 c
316 0 316 1062 316 0 c
136 0 316 0 136 0 c
closepath } bind def
/s110 {
135 0 m
135 1062 135 0 135 1062 c
297 1062 135 1062 297 1062 c
297 911 297 1062 297 911 c
375 1027.67 487.67 1086 635 1086 c
699 1086 757.83 1074.5 811.5 1051.5 c
865.17 1028.5 905.33 998.33 932 961 c
958.67 923.67 977.33 879.33 988 828 c
994.67 794.67 998 736.33 998 653 c
998 0 998 653 998 0 c
818 0 998 0 818 0 c
818 646 818 0 818 646 c
818 719.33 811 774.17 797 810.5 c
783 846.83 758.17 875.83 722.5 897.5 c
686.83 919.17 645 930 597 930 c
520.33 930 454.17 905.67 398.5 857 c
342.83 808.33 315 716 315 580 c
315 0 315 580 315 0 c
135 0 315 0 135 0 c
closepath } bind def
/s114 {
133 0 m
133 1062 133 0 133 1062 c
295 1062 133 1062 295 1062 c
295 901 295 1062 295 901 c
336.33 976.33 374.5 1026 409.5 1050 c
444.5 1074 483 1086 525 1086 c
585.67 1086 647.33 1066.67 710 1028 c
648 861 710 1028 648 861 c
604 887 560 900 516 900 c
476.67 900 441.33 888.17 410 864.5 c
378.67 840.83 356.33 808 343 766 c
323 702 313 632 313 556 c
313 0 313 556 313 0 c
133 0 313 0 133 0 c
closepath } bind def
/s115 {
63 317 m
241 345 63 317 241 345 c
251 273.67 278.83 219 324.5 181 c
370.17 143 434 124 516 124 c
598.67 124 660 140.83 700 174.5 c
740 208.17 760 247.67 760 293 c
760 333.67 742.33 365.67 707 389 c
682.33 405 621 425.33 523 450 c
391 483.33 299.5 512.17 248.5 536.5 c
197.5 560.83 158.83 594.5 132.5 637.5 c
106.17 680.5 93 728 93 780 c
93 827.33 103.83 871.17 125.5 911.5 c
147.17 951.83 176.67 985.33 214 1012 c
242 1032.67 280.17 1050.17 328.5 1064.5 c
376.83 1078.83 428.67 1086 484 1086 c
567.33 1086 640.5 1074 703.5 1050 c
766.5 1026 813 993.5 843 952.5 c
873 911.5 893.67 856.67 905 788 c
729 764 905 788 729 764 c
721 818.67 697.83 861.33 659.5 892 c
621.17 922.67 567 938 497 938 c
414.33 938 355.33 924.33 320 897 c
284.67 869.67 267 837.67 267 801 c
267 777.67 274.33 756.67 289 738 c
303.67 718.67 326.67 702.67 358 690 c
376 683.33 429 668 517 644 c
644.33 610 733.17 582.17 783.5 560.5 c
833.83 538.83 873.33 507.33 902 466 c
930.67 424.67 945 373.33 945 312 c
945 252 927.5 195.5 892.5 142.5 c
857.5 89.5 807 48.5 741 19.5 c
675 -9.5 600.33 -24 517 -24 c
379 -24 273.83 4.67 201.5 62 c
129.17 119.33 83 204.33 63 317 c
closepath } bind def
/s116 {
528 161 m
554 2 528 161 554 2 c
503.33 -8.67 458 -14 418 -14 c
352.67 -14 302 -3.67 266 17 c
230 37.67 204.67 64.83 190 98.5 c
175.33 132.17 168 203 168 311 c
168 922 168 311 168 922 c
36 922 168 922 36 922 c
36 1062 36 922 36 1062 c
168 1062 36 1062 168 1062 c
168 1325 168 1062 168 1325 c
347 1433 168 1325 347 1433 c
347 1062 347 1433 347 1062 c
528 1062 347 1062 528 1062 c
528 922 528 1062 528 922 c
347 922 528 922 347 922 c
347 301 347 922 347 301 c
347 249.67 350.17 216.67 356.5 202 c
362.83 187.33 373.17 175.67 387.5 167 c
401.83 158.33 422.33 154 449 154 c
469 154 495.33 156.33 528 161 c
closepath } bind def
/s121 {
127 -409 m
107 -240 127 -409 107 -240 c
146.33 -250.67 180.67 -256 210 -256 c
250 -256 282 -249.33 306 -236 c
330 -222.67 349.67 -204 365 -180 c
376.33 -162 394.67 -117.33 420 -46 c
423.33 -36 428.67 -21.33 436 -2 c
33 1062 436 -2 33 1062 c
227 1062 33 1062 227 1062 c
448 447 227 1062 448 447 c
476.67 369 502.33 287 525 201 c
545.67 283.67 570.33 364.33 599 443 c
826 1062 599 443 826 1062 c
1006 1062 826 1062 1006 1062 c
602 -18 1006 1062 602 -18 c
558.67 -134.67 525 -215 501 -259 c
469 -318.33 432.33 -361.83 391 -389.5 c
349.67 -417.17 300.33 -431 243 -431 c
208.33 -431 169.67 -423.67 127 -409 c
closepath } bind def
end
/BuildGlyph {
 exch dup /Metrics get 2 index get 0 setcharwidth
/CharProcs get exch 2 copy known not{pop/.notdef}if get exec fill}bind def
/BuildChar {
1 index /Encoding get exch get
1 index /BuildGlyph get exec
} bind def
currentdict end /MC2_Arial exch definefont pop
%%EndFont
/clipproc{clippath{[{/m cvx}{/l cvx}{/c cvx}{/cp cvx}pathforall}stopped
{cleartomark[pathbbox exch 3 i sub exch 2 i sub/rectpath cvx}if]np}bd
/iclmtx mtx cmtx def/iclpath clipproc xd/clinit{pathproc initclip np iclpath cl np exec}bd
/clmove{pathproc 3 1 roll clippath pathproc 2 i neg 2 i neg tr initclip np exec cl tr np exec}bd
/clrect[gs np iclpath{pathbbox}stopped{0 0 771.85 590.88 }if gr]def
/cloper{mtx cmtx iclmtx smtx exch exec smtx}bd
/cland{{exch cvx exec}cloper}bd
/clcopy{{exch clinit cvx exec}cloper}bd
/cldiff{{exch pathbbox 4 -1 roll clrect 0 get 2 copy gt{exch}if pop 4 1 roll
 3 -1 roll clrect 1 get 2 copy gt{exch}if pop 3 1 roll
 2 -1 roll clrect 2 get 2 copy lt{exch}if pop 2 1 roll
 1 -1 roll clrect 3 get 2 copy lt{exch}if pop 1 1 roll
 exch 3 i sub exch 2 i sub rectpath cvx exec}cloper}bd
/icl{{clinit}cloper}bd
0.554822 0.554197 sc

/initmtx mtx cmtx def
initmtx smtx
[1.0000 0.0000 0.0000 1.0000 0.0000 0.0000 ] concat
 [0.432579 -0 0 -0.433071 0 1066.2] concat
gs
2769 2053 m
576 2053 l
7 sw
1 sj
2 scap
st
2640 2053 m
2640 2036 l
0 scap
st
2382 2053 m
2382 2036 l
st
2124 2053 m
2124 2036 l
st
1866 2053 m
1866 2036 l
st
1608 2053 m
1608 2036 l
st
1350 2053 m
1350 2036 l
st
1092 2053 m
1092 2036 l
st
834 2053 m
834 2036 l
st
576 2053 m
576 2036 l
st
2769 2053 m
2769 2019 l
st
2511 2053 m
2511 2019 l
st
2253 2053 m
2253 2019 l
st
1995 2053 m
1995 2019 l
st
1737 2053 m
1737 2019 l
st
1479 2053 m
1479 2019 l
st
1221 2053 m
1221 2019 l
st
963 2053 m
963 2019 l
st
705 2053 m
705 2019 l
st
2769 286 m
576 286 l
2 scap
st
2769 2053 m
2769 286 l
st
576 2053 m
576 286 l
st
576 2053 m
593 2053 l
0 scap
st
576 1732 m
593 1732 l
st
576 1410 m
593 1410 l
st
576 1089 m
593 1089 l
st
576 768 m
593 768 l
st
576 447 m
593 447 l
st
576 1892 m
610 1892 l
st
576 1571 m
610 1571 l
st
576 1250 m
610 1250 l
st
576 929 m
610 929 l
st
576 607 m
610 607 l
st
576 286 m
610 286 l
st
gs
gr
gs
gr
gs
1 -1 sc
/MC1_Arial 75 self 2727 -2150 m
(95)[41 41 ] xs
1 -1 sc
gr
gs
gr
gs
gr
gs
1 -1 sc
/MC1_Arial 75 self 2448 -2150 m
(100)[41 41 41 ] xs
1 -1 sc
gr
gs
gr
gs
gr
gs
1 -1 sc
/MC1_Arial 75 self 2190 -2150 m
(105)[41 41 41 ] xs
1 -1 sc
gr
gs
gr
gs
gr
gs
1 -1 sc
/MC1_Arial 75 self 1932 -2150 m
(110)[41 41 41 ] xs
1 -1 sc
gr
gs
gr
gs
gr
gs
1 -1 sc
/MC1_Arial 75 self 1674 -2150 m
(115)[41 41 41 ] xs
1 -1 sc
gr
gs
gr
gs
gr
gs
1 -1 sc
/MC1_Arial 75 self 1416 -2150 m
(120)[41 41 41 ] xs
1 -1 sc
gr
gs
gr
gs
gr
gs
1 -1 sc
/MC1_Arial 75 self 1158 -2150 m
(125)[41 41 41 ] xs
1 -1 sc
gr
gs
gr
gs
gr
gs
1 -1 sc
/MC1_Arial 75 self 900 -2150 m
(130)[41 41 41 ] xs
1 -1 sc
gr
gs
gr
gs
gr
gs
1 -1 sc
/MC1_Arial 75 self 642 -2150 m
(135)[41 41 41 ] xs
1 -1 sc
gr
gs
gr
gs
gr
gs
1 -1 sc
/MC1_Arial 75 self 454 -1915 m
(50)[41 41 ] xs
1 -1 sc
gr
gs
gr
gs
gr
gs
1 -1 sc
/MC1_Arial 75 self 412 -1594 m
(100)[41 41 41 ] xs
1 -1 sc
gr
gs
gr
gs
gr
gs
1 -1 sc
/MC1_Arial 75 self 412 -1273 m
(150)[41 41 41 ] xs
1 -1 sc
gr
gs
gr
gs
gr
gs
1 -1 sc
/MC1_Arial 75 self 412 -952 m
(200)[41 41 41 ] xs
1 -1 sc
gr
gs
gr
gs
gr
gs
1 -1 sc
/MC1_Arial 75 self 412 -630 m
(250)[41 41 41 ] xs
1 -1 sc
gr
gs
gr
gs
gr
gs
1 -1 sc
/MC1_Arial 75 self 412 -309 m
(300)[41 41 41 ] xs
1 -1 sc
gr
gs
gr
gs
gr
gs
gr
gs
gr
gs
gr
gs
gr
gs
gr
gs
gr
gs
gr
gs
gr
gs
gr
gs
gr
gs
gr
gs
gr
gs
gr
gs
gr
gs
gr
gs
gr
gs
gr
gs
gr
gs
gr
gs
gr
gs
gr
gs
gr
gs
gr
gs
gr
gs
gr
gs
gr
gs
gr
gs
gr
gs
gr
gs
gr
gs
gr
gs
gr
gs
gr
gs
gr
gs
gr
gs
gr
gs
pathproc 576 286 2194 1768 np rectpath
/eocl cland
np exec
0.318 0.318 0.318 rgb
751 1521 12 12 rectfill
610 286 m
1 sw
1 scap
751 1521 12 12 rectstroke
756 1608 12 12 rectfill
756 1608 12 12 rectstroke
761 1354 12 12 rectfill
761 1354 12 12 rectstroke
766 1417 12 12 rectfill
766 1417 12 12 rectstroke
771 1479 12 12 rectfill
771 1479 12 12 rectstroke
776 1379 12 12 rectfill
776 1379 12 12 rectstroke
782 1480 12 12 rectfill
782 1480 12 12 rectstroke
787 1528 12 12 rectfill
787 1528 12 12 rectstroke
792 1512 12 12 rectfill
792 1512 12 12 rectstroke
797 1488 12 12 rectfill
797 1488 12 12 rectstroke
802 1466 12 12 rectfill
802 1466 12 12 rectstroke
807 1587 12 12 rectfill
807 1587 12 12 rectstroke
813 1656 12 12 rectfill
813 1656 12 12 rectstroke
818 1524 12 12 rectfill
818 1524 12 12 rectstroke
823 1521 12 12 rectfill
823 1521 12 12 rectstroke
828 1423 12 12 rectfill
828 1423 12 12 rectstroke
833 1369 12 12 rectfill
833 1369 12 12 rectstroke
838 1301 12 12 rectfill
838 1301 12 12 rectstroke
843 1590 12 12 rectfill
843 1590 12 12 rectstroke
849 1558 12 12 rectfill
849 1558 12 12 rectstroke
854 1656 12 12 rectfill
854 1656 12 12 rectstroke
859 1450 12 12 rectfill
859 1450 12 12 rectstroke
864 1575 12 12 rectfill
864 1575 12 12 rectstroke
869 1476 12 12 rectfill
869 1476 12 12 rectstroke
874 1537 12 12 rectfill
874 1537 12 12 rectstroke
880 1380 12 12 rectfill
880 1380 12 12 rectstroke
885 1344 12 12 rectfill
885 1344 12 12 rectstroke
890 1590 12 12 rectfill
890 1590 12 12 rectstroke
895 1378 12 12 rectfill
895 1378 12 12 rectstroke
900 1433 12 12 rectfill
900 1433 12 12 rectstroke
905 1601 12 12 rectfill
905 1601 12 12 rectstroke
911 1652 12 12 rectfill
911 1652 12 12 rectstroke
916 1504 12 12 rectfill
916 1504 12 12 rectstroke
921 1476 12 12 rectfill
921 1476 12 12 rectstroke
926 1392 12 12 rectfill
926 1392 12 12 rectstroke
931 1444 12 12 rectfill
931 1444 12 12 rectstroke
936 1557 12 12 rectfill
936 1557 12 12 rectstroke
942 1638 12 12 rectfill
942 1638 12 12 rectstroke
947 1521 12 12 rectfill
947 1521 12 12 rectstroke
952 1547 12 12 rectfill
952 1547 12 12 rectstroke
957 1486 12 12 rectfill
957 1486 12 12 rectstroke
962 1496 12 12 rectfill
962 1496 12 12 rectstroke
967 1552 12 12 rectfill
967 1552 12 12 rectstroke
972 1570 12 12 rectfill
972 1570 12 12 rectstroke
978 1536 12 12 rectfill
978 1536 12 12 rectstroke
983 1596 12 12 rectfill
983 1596 12 12 rectstroke
988 1625 12 12 rectfill
988 1625 12 12 rectstroke
993 1682 12 12 rectfill
993 1682 12 12 rectstroke
998 1559 12 12 rectfill
998 1559 12 12 rectstroke
1003 1562 12 12 rectfill
1003 1562 12 12 rectstroke
1009 1506 12 12 rectfill
1009 1506 12 12 rectstroke
1014 1500 12 12 rectfill
1014 1500 12 12 rectstroke
1019 1561 12 12 rectfill
1019 1561 12 12 rectstroke
1024 1572 12 12 rectfill
1024 1572 12 12 rectstroke
1029 1591 12 12 rectfill
1029 1591 12 12 rectstroke
1034 1512 12 12 rectfill
1034 1512 12 12 rectstroke
1040 1318 12 12 rectfill
1040 1318 12 12 rectstroke
1045 1525 12 12 rectfill
1045 1525 12 12 rectstroke
1050 1567 12 12 rectfill
1050 1567 12 12 rectstroke
1055 1572 12 12 rectfill
1055 1572 12 12 rectstroke
1060 1640 12 12 rectfill
1060 1640 12 12 rectstroke
1065 1590 12 12 rectfill
1065 1590 12 12 rectstroke
1071 1495 12 12 rectfill
1071 1495 12 12 rectstroke
1076 1359 12 12 rectfill
1076 1359 12 12 rectstroke
1081 1370 12 12 rectfill
1081 1370 12 12 rectstroke
1086 1349 12 12 rectfill
1086 1349 12 12 rectstroke
1091 1473 12 12 rectfill
1091 1473 12 12 rectstroke
1096 1480 12 12 rectfill
1096 1480 12 12 rectstroke
1101 1600 12 12 rectfill
1101 1600 12 12 rectstroke
1107 1404 12 12 rectfill
1107 1404 12 12 rectstroke
1112 1529 12 12 rectfill
1112 1529 12 12 rectstroke
1117 1479 12 12 rectfill
1117 1479 12 12 rectstroke
1122 1491 12 12 rectfill
1122 1491 12 12 rectstroke
1127 1396 12 12 rectfill
1127 1396 12 12 rectstroke
1132 1428 12 12 rectfill
1132 1428 12 12 rectstroke
1138 1424 12 12 rectfill
1138 1424 12 12 rectstroke
1143 1385 12 12 rectfill
1143 1385 12 12 rectstroke
1148 1390 12 12 rectfill
1148 1390 12 12 rectstroke
1153 1394 12 12 rectfill
1153 1394 12 12 rectstroke
1158 1551 12 12 rectfill
1158 1551 12 12 rectstroke
1163 1457 12 12 rectfill
1163 1457 12 12 rectstroke
1169 1321 12 12 rectfill
1169 1321 12 12 rectstroke
1174 1547 12 12 rectfill
1174 1547 12 12 rectstroke
1179 1357 12 12 rectfill
1179 1357 12 12 rectstroke
1184 1554 12 12 rectfill
1184 1554 12 12 rectstroke
1189 1479 12 12 rectfill
1189 1479 12 12 rectstroke
1194 1489 12 12 rectfill
1194 1489 12 12 rectstroke
1200 1408 12 12 rectfill
1200 1408 12 12 rectstroke
1205 1497 12 12 rectfill
1205 1497 12 12 rectstroke
1210 1429 12 12 rectfill
1210 1429 12 12 rectstroke
1215 1474 12 12 rectfill
1215 1474 12 12 rectstroke
1220 1344 12 12 rectfill
1220 1344 12 12 rectstroke
1225 1503 12 12 rectfill
1225 1503 12 12 rectstroke
1230 1500 12 12 rectfill
1230 1500 12 12 rectstroke
1236 1444 12 12 rectfill
1236 1444 12 12 rectstroke
1241 1454 12 12 rectfill
1241 1454 12 12 rectstroke
1246 1495 12 12 rectfill
1246 1495 12 12 rectstroke
1251 1522 12 12 rectfill
1251 1522 12 12 rectstroke
1256 1583 12 12 rectfill
1256 1583 12 12 rectstroke
1261 1485 12 12 rectfill
1261 1485 12 12 rectstroke
1267 1413 12 12 rectfill
1267 1413 12 12 rectstroke
1272 1425 12 12 rectfill
1272 1425 12 12 rectstroke
1277 1401 12 12 rectfill
1277 1401 12 12 rectstroke
1282 1467 12 12 rectfill
1282 1467 12 12 rectstroke
1287 1425 12 12 rectfill
1287 1425 12 12 rectstroke
1292 1512 12 12 rectfill
1292 1512 12 12 rectstroke
1298 1417 12 12 rectfill
1298 1417 12 12 rectstroke
1303 1359 12 12 rectfill
1303 1359 12 12 rectstroke
1308 1415 12 12 rectfill
1308 1415 12 12 rectstroke
1313 1603 12 12 rectfill
1313 1603 12 12 rectstroke
1318 1491 12 12 rectfill
1318 1491 12 12 rectstroke
1323 1478 12 12 rectfill
1323 1478 12 12 rectstroke
1329 1431 12 12 rectfill
1329 1431 12 12 rectstroke
1334 1348 12 12 rectfill
1334 1348 12 12 rectstroke
1339 1308 12 12 rectfill
1339 1308 12 12 rectstroke
1344 1355 12 12 rectfill
1344 1355 12 12 rectstroke
1349 1438 12 12 rectfill
1349 1438 12 12 rectstroke
1354 1349 12 12 rectfill
1354 1349 12 12 rectstroke
1359 1300 12 12 rectfill
1359 1300 12 12 rectstroke
1365 1227 12 12 rectfill
1365 1227 12 12 rectstroke
1370 1266 12 12 rectfill
1370 1266 12 12 rectstroke
1375 1325 12 12 rectfill
1375 1325 12 12 rectstroke
1380 1210 12 12 rectfill
1380 1210 12 12 rectstroke
1385 1283 12 12 rectfill
1385 1283 12 12 rectstroke
1390 1344 12 12 rectfill
1390 1344 12 12 rectstroke
1396 1441 12 12 rectfill
1396 1441 12 12 rectstroke
1401 1266 12 12 rectfill
1401 1266 12 12 rectstroke
1406 1170 12 12 rectfill
1406 1170 12 12 rectstroke
1411 1258 12 12 rectfill
1411 1258 12 12 rectstroke
1416 1122 12 12 rectfill
1416 1122 12 12 rectstroke
1421 1154 12 12 rectfill
1421 1154 12 12 rectstroke
1427 1264 12 12 rectfill
1427 1264 12 12 rectstroke
1432 1223 12 12 rectfill
1432 1223 12 12 rectstroke
1437 1316 12 12 rectfill
1437 1316 12 12 rectstroke
1442 1312 12 12 rectfill
1442 1312 12 12 rectstroke
1447 1338 12 12 rectfill
1447 1338 12 12 rectstroke
1452 1318 12 12 rectfill
1452 1318 12 12 rectstroke
1458 1092 12 12 rectfill
1458 1092 12 12 rectstroke
1463 1322 12 12 rectfill
1463 1322 12 12 rectstroke
1468 1241 12 12 rectfill
1468 1241 12 12 rectstroke
1473 1362 12 12 rectfill
1473 1362 12 12 rectstroke
1478 1269 12 12 rectfill
1478 1269 12 12 rectstroke
1483 1282 12 12 rectfill
1483 1282 12 12 rectstroke
1488 1412 12 12 rectfill
1488 1412 12 12 rectstroke
1494 1221 12 12 rectfill
1494 1221 12 12 rectstroke
1499 1336 12 12 rectfill
1499 1336 12 12 rectstroke
1504 1293 12 12 rectfill
1504 1293 12 12 rectstroke
1509 1431 12 12 rectfill
1509 1431 12 12 rectstroke
1514 1422 12 12 rectfill
1514 1422 12 12 rectstroke
1519 1309 12 12 rectfill
1519 1309 12 12 rectstroke
1525 1425 12 12 rectfill
1525 1425 12 12 rectstroke
1530 1286 12 12 rectfill
1530 1286 12 12 rectstroke
1535 1472 12 12 rectfill
1535 1472 12 12 rectstroke
1540 1456 12 12 rectfill
1540 1456 12 12 rectstroke
1545 1548 12 12 rectfill
1545 1548 12 12 rectstroke
1550 1518 12 12 rectfill
1550 1518 12 12 rectstroke
1556 1518 12 12 rectfill
1556 1518 12 12 rectstroke
1561 1597 12 12 rectfill
1561 1597 12 12 rectstroke
1566 1574 12 12 rectfill
1566 1574 12 12 rectstroke
1571 1541 12 12 rectfill
1571 1541 12 12 rectstroke
1576 1447 12 12 rectfill
1576 1447 12 12 rectstroke
1581 1560 12 12 rectfill
1581 1560 12 12 rectstroke
1587 1564 12 12 rectfill
1587 1564 12 12 rectstroke
1592 1497 12 12 rectfill
1592 1497 12 12 rectstroke
1597 1450 12 12 rectfill
1597 1450 12 12 rectstroke
1602 1605 12 12 rectfill
1602 1605 12 12 rectstroke
1607 1448 12 12 rectfill
1607 1448 12 12 rectstroke
1612 1490 12 12 rectfill
1612 1490 12 12 rectstroke
1617 1497 12 12 rectfill
1617 1497 12 12 rectstroke
1623 1537 12 12 rectfill
1623 1537 12 12 rectstroke
1628 1370 12 12 rectfill
1628 1370 12 12 rectstroke
1633 1491 12 12 rectfill
1633 1491 12 12 rectstroke
1638 1646 12 12 rectfill
1638 1646 12 12 rectstroke
1643 1653 12 12 rectfill
1643 1653 12 12 rectstroke
1648 1697 12 12 rectfill
1648 1697 12 12 rectstroke
1654 1616 12 12 rectfill
1654 1616 12 12 rectstroke
1659 1589 12 12 rectfill
1659 1589 12 12 rectstroke
1664 1627 12 12 rectfill
1664 1627 12 12 rectstroke
1669 1433 12 12 rectfill
1669 1433 12 12 rectstroke
1674 1619 12 12 rectfill
1674 1619 12 12 rectstroke
1679 1622 12 12 rectfill
1679 1622 12 12 rectstroke
1685 1707 12 12 rectfill
1685 1707 12 12 rectstroke
1690 1600 12 12 rectfill
1690 1600 12 12 rectstroke
1695 1596 12 12 rectfill
1695 1596 12 12 rectstroke
1700 1582 12 12 rectfill
1700 1582 12 12 rectstroke
1705 1631 12 12 rectfill
1705 1631 12 12 rectstroke
1710 1575 12 12 rectfill
1710 1575 12 12 rectstroke
1716 1621 12 12 rectfill
1716 1621 12 12 rectstroke
1721 1620 12 12 rectfill
1721 1620 12 12 rectstroke
1726 1729 12 12 rectfill
1726 1729 12 12 rectstroke
1731 1668 12 12 rectfill
1731 1668 12 12 rectstroke
1736 1666 12 12 rectfill
1736 1666 12 12 rectstroke
1741 1707 12 12 rectfill
1741 1707 12 12 rectstroke
1746 1596 12 12 rectfill
1746 1596 12 12 rectstroke
1752 1625 12 12 rectfill
1752 1625 12 12 rectstroke
1757 1667 12 12 rectfill
1757 1667 12 12 rectstroke
1762 1690 12 12 rectfill
1762 1690 12 12 rectstroke
1767 1641 12 12 rectfill
1767 1641 12 12 rectstroke
1772 1712 12 12 rectfill
1772 1712 12 12 rectstroke
1777 1712 12 12 rectfill
1777 1712 12 12 rectstroke
1783 1674 12 12 rectfill
1783 1674 12 12 rectstroke
1788 1727 12 12 rectfill
1788 1727 12 12 rectstroke
1793 1855 12 12 rectfill
1793 1855 12 12 rectstroke
1798 1745 12 12 rectfill
1798 1745 12 12 rectstroke
1803 1545 12 12 rectfill
1803 1545 12 12 rectstroke
1808 1653 12 12 rectfill
1808 1653 12 12 rectstroke
1814 1630 12 12 rectfill
1814 1630 12 12 rectstroke
1819 1675 12 12 rectfill
1819 1675 12 12 rectstroke
1824 1722 12 12 rectfill
1824 1722 12 12 rectstroke
1829 1572 12 12 rectfill
1829 1572 12 12 rectstroke
1834 1504 12 12 rectfill
1834 1504 12 12 rectstroke
1839 1671 12 12 rectfill
1839 1671 12 12 rectstroke
1845 1644 12 12 rectfill
1845 1644 12 12 rectstroke
1850 1643 12 12 rectfill
1850 1643 12 12 rectstroke
1855 1644 12 12 rectfill
1855 1644 12 12 rectstroke
1860 1596 12 12 rectfill
1860 1596 12 12 rectstroke
1865 1614 12 12 rectfill
1865 1614 12 12 rectstroke
1870 1738 12 12 rectfill
1870 1738 12 12 rectstroke
1875 1819 12 12 rectfill
1875 1819 12 12 rectstroke
1881 1618 12 12 rectfill
1881 1618 12 12 rectstroke
1886 1659 12 12 rectfill
1886 1659 12 12 rectstroke
1891 1742 12 12 rectfill
1891 1742 12 12 rectstroke
1896 1679 12 12 rectfill
1896 1679 12 12 rectstroke
1901 1682 12 12 rectfill
1901 1682 12 12 rectstroke
1906 1573 12 12 rectfill
1906 1573 12 12 rectstroke
1912 1770 12 12 rectfill
1912 1770 12 12 rectstroke
1917 1791 12 12 rectfill
1917 1791 12 12 rectstroke
1922 1822 12 12 rectfill
1922 1822 12 12 rectstroke
1927 1867 12 12 rectfill
1927 1867 12 12 rectstroke
1932 1648 12 12 rectfill
1932 1648 12 12 rectstroke
1937 1827 12 12 rectfill
1937 1827 12 12 rectstroke
1943 1703 12 12 rectfill
1943 1703 12 12 rectstroke
1948 1817 12 12 rectfill
1948 1817 12 12 rectstroke
1953 1821 12 12 rectfill
1953 1821 12 12 rectstroke
1958 1774 12 12 rectfill
1958 1774 12 12 rectstroke
1963 1791 12 12 rectfill
1963 1791 12 12 rectstroke
1968 1662 12 12 rectfill
1968 1662 12 12 rectstroke
1974 1603 12 12 rectfill
1974 1603 12 12 rectstroke
1979 1646 12 12 rectfill
1979 1646 12 12 rectstroke
1984 1729 12 12 rectfill
1984 1729 12 12 rectstroke
1989 1831 12 12 rectfill
1989 1831 12 12 rectstroke
1994 1804 12 12 rectfill
1994 1804 12 12 rectstroke
1999 1851 12 12 rectfill
1999 1851 12 12 rectstroke
2004 1756 12 12 rectfill
2004 1756 12 12 rectstroke
2010 1811 12 12 rectfill
2010 1811 12 12 rectstroke
2015 1831 12 12 rectfill
2015 1831 12 12 rectstroke
2020 1779 12 12 rectfill
2020 1779 12 12 rectstroke
2025 1836 12 12 rectfill
2025 1836 12 12 rectstroke
2030 1719 12 12 rectfill
2030 1719 12 12 rectstroke
2035 1700 12 12 rectfill
2035 1700 12 12 rectstroke
2041 1747 12 12 rectfill
2041 1747 12 12 rectstroke
2046 1747 12 12 rectfill
2046 1747 12 12 rectstroke
2051 1751 12 12 rectfill
2051 1751 12 12 rectstroke
2056 1651 12 12 rectfill
2056 1651 12 12 rectstroke
2061 1742 12 12 rectfill
2061 1742 12 12 rectstroke
2066 1844 12 12 rectfill
2066 1844 12 12 rectstroke
2072 1747 12 12 rectfill
2072 1747 12 12 rectstroke
2077 1749 12 12 rectfill
2077 1749 12 12 rectstroke
2082 1826 12 12 rectfill
2082 1826 12 12 rectstroke
2087 1795 12 12 rectfill
2087 1795 12 12 rectstroke
2092 1781 12 12 rectfill
2092 1781 12 12 rectstroke
2097 1684 12 12 rectfill
2097 1684 12 12 rectstroke
2103 1783 12 12 rectfill
2103 1783 12 12 rectstroke
2108 1905 12 12 rectfill
2108 1905 12 12 rectstroke
2113 1880 12 12 rectfill
2113 1880 12 12 rectstroke
2118 1818 12 12 rectfill
2118 1818 12 12 rectstroke
2123 1724 12 12 rectfill
2123 1724 12 12 rectstroke
2128 1732 12 12 rectfill
2128 1732 12 12 rectstroke
2133 1717 12 12 rectfill
2133 1717 12 12 rectstroke
2139 1673 12 12 rectfill
2139 1673 12 12 rectstroke
2144 1661 12 12 rectfill
2144 1661 12 12 rectstroke
2149 1663 12 12 rectfill
2149 1663 12 12 rectstroke
2154 1728 12 12 rectfill
2154 1728 12 12 rectstroke
2159 1603 12 12 rectfill
2159 1603 12 12 rectstroke
2164 1649 12 12 rectfill
2164 1649 12 12 rectstroke
2170 1716 12 12 rectfill
2170 1716 12 12 rectstroke
2175 1656 12 12 rectfill
2175 1656 12 12 rectstroke
2180 1506 12 12 rectfill
2180 1506 12 12 rectstroke
2185 1737 12 12 rectfill
2185 1737 12 12 rectstroke
2190 1644 12 12 rectfill
2190 1644 12 12 rectstroke
2195 1668 12 12 rectfill
2195 1668 12 12 rectstroke
2201 1422 12 12 rectfill
2201 1422 12 12 rectstroke
2206 1335 12 12 rectfill
2206 1335 12 12 rectstroke
2211 1269 12 12 rectfill
2211 1269 12 12 rectstroke
2216 1300 12 12 rectfill
2216 1300 12 12 rectstroke
2221 1198 12 12 rectfill
2221 1198 12 12 rectstroke
2226 1311 12 12 rectfill
2226 1311 12 12 rectstroke
2232 1060 12 12 rectfill
2232 1060 12 12 rectstroke
2237 1067 12 12 rectfill
2237 1067 12 12 rectstroke
2242 1064 12 12 rectfill
2242 1064 12 12 rectstroke
2247 988 12 12 rectfill
2247 988 12 12 rectstroke
2252 884 12 12 rectfill
2252 884 12 12 rectstroke
2257 976 12 12 rectfill
2257 976 12 12 rectstroke
2262 834 12 12 rectfill
2262 834 12 12 rectstroke
2268 689 12 12 rectfill
2268 689 12 12 rectstroke
2273 628 12 12 rectfill
2273 628 12 12 rectstroke
2278 466 12 12 rectfill
2278 466 12 12 rectstroke
2283 616 12 12 rectfill
2283 616 12 12 rectstroke
2288 762 12 12 rectfill
2288 762 12 12 rectstroke
2293 842 12 12 rectfill
2293 842 12 12 rectstroke
2299 747 12 12 rectfill
2299 747 12 12 rectstroke
2304 585 12 12 rectfill
2304 585 12 12 rectstroke
2309 827 12 12 rectfill
2309 827 12 12 rectstroke
2314 738 12 12 rectfill
2314 738 12 12 rectstroke
2319 865 12 12 rectfill
2319 865 12 12 rectstroke
2324 702 12 12 rectfill
2324 702 12 12 rectstroke
2330 750 12 12 rectfill
2330 750 12 12 rectstroke
2335 853 12 12 rectfill
2335 853 12 12 rectstroke
2340 1013 12 12 rectfill
2340 1013 12 12 rectstroke
2345 937 12 12 rectfill
2345 937 12 12 rectstroke
2350 884 12 12 rectfill
2350 884 12 12 rectstroke
2355 950 12 12 rectfill
2355 950 12 12 rectstroke
2361 1011 12 12 rectfill
2361 1011 12 12 rectstroke
2366 1153 12 12 rectfill
2366 1153 12 12 rectstroke
2371 1146 12 12 rectfill
2371 1146 12 12 rectstroke
2376 1114 12 12 rectfill
2376 1114 12 12 rectstroke
2381 1068 12 12 rectfill
2381 1068 12 12 rectstroke
2386 1009 12 12 rectfill
2386 1009 12 12 rectstroke
2391 1295 12 12 rectfill
2391 1295 12 12 rectstroke
2397 1284 12 12 rectfill
2397 1284 12 12 rectstroke
2402 1417 12 12 rectfill
2402 1417 12 12 rectstroke
2407 1302 12 12 rectfill
2407 1302 12 12 rectstroke
2412 1445 12 12 rectfill
2412 1445 12 12 rectstroke
2417 1271 12 12 rectfill
2417 1271 12 12 rectstroke
2422 1404 12 12 rectfill
2422 1404 12 12 rectstroke
2428 1457 12 12 rectfill
2428 1457 12 12 rectstroke
2433 1468 12 12 rectfill
2433 1468 12 12 rectstroke
2438 1585 12 12 rectfill
2438 1585 12 12 rectstroke
2443 1675 12 12 rectfill
2443 1675 12 12 rectstroke
2448 1403 12 12 rectfill
2448 1403 12 12 rectstroke
2453 1515 12 12 rectfill
2453 1515 12 12 rectstroke
2459 1588 12 12 rectfill
2459 1588 12 12 rectstroke
2464 1536 12 12 rectfill
2464 1536 12 12 rectstroke
2469 1433 12 12 rectfill
2469 1433 12 12 rectstroke
2474 1719 12 12 rectfill
2474 1719 12 12 rectstroke
2479 1503 12 12 rectfill
2479 1503 12 12 rectstroke
2484 1547 12 12 rectfill
2484 1547 12 12 rectstroke
2490 1559 12 12 rectfill
2490 1559 12 12 rectstroke
2495 1583 12 12 rectfill
2495 1583 12 12 rectstroke
2500 1693 12 12 rectfill
2500 1693 12 12 rectstroke
2505 1687 12 12 rectfill
2505 1687 12 12 rectstroke
2510 1566 12 12 rectfill
2510 1566 12 12 rectstroke
2515 1471 12 12 rectfill
2515 1471 12 12 rectstroke
2520 1566 12 12 rectfill
2520 1566 12 12 rectstroke
2526 1644 12 12 rectfill
2526 1644 12 12 rectstroke
2531 1524 12 12 rectfill
2531 1524 12 12 rectstroke
2536 1627 12 12 rectfill
2536 1627 12 12 rectstroke
2541 1603 12 12 rectfill
2541 1603 12 12 rectstroke
2546 1559 12 12 rectfill
2546 1559 12 12 rectstroke
2551 1465 12 12 rectfill
2551 1465 12 12 rectstroke
2557 1604 12 12 rectfill
2557 1604 12 12 rectstroke
gr
gs
pathproc 576 286 2194 1768 np rectpath
/eocl cland
np exec
757 1525 m
762 1612 l
767 1357 l
772 1420 l
777 1482 l
782 1382 l
788 1483 l
793 1531 l
798 1515 l
803 1491 l
808 1468 l
813 1590 l
819 1658 l
824 1527 l
829 1523 l
834 1425 l
839 1372 l
844 1303 l
849 1592 l
855 1559 l
860 1657 l
865 1451 l
870 1576 l
875 1477 l
880 1537 l
886 1380 l
891 1345 l
896 1590 l
901 1378 l
906 1433 l
911 1600 l
917 1651 l
922 1503 l
927 1474 l
932 1390 l
937 1442 l
942 1543 l
948 1544 l
953 1545 l
958 1545 l
963 1546 l
968 1547 l
973 1547 l
978 1548 l
984 1548 l
989 1549 l
994 1549 l
999 1550 l
1004 1550 l
1009 1551 l
1015 1551 l
1020 1551 l
1025 1551 l
1030 1552 l
1035 1552 l
1040 1552 l
1046 1552 l
1051 1551 l
1056 1551 l
1061 1551 l
1066 1550 l
1071 1550 l
1077 1549 l
1082 1548 l
1087 1548 l
1092 1547 l
1097 1545 l
1102 1544 l
1107 1543 l
1113 1541 l
1118 1540 l
1123 1538 l
1128 1536 l
1133 1534 l
1138 1531 l
1144 1529 l
1149 1526 l
1154 1523 l
1159 1520 l
1164 1517 l
1169 1514 l
1175 1510 l
1180 1506 l
1185 1502 l
1190 1498 l
1195 1494 l
1200 1489 l
1206 1485 l
1211 1480 l
1216 1475 l
1221 1470 l
1226 1464 l
1231 1459 l
1236 1453 l
1242 1448 l
1247 1442 l
1252 1436 l
1257 1430 l
1262 1424 l
1267 1418 l
1273 1412 l
1278 1406 l
1283 1400 l
1288 1394 l
1293 1388 l
1298 1382 l
1304 1377 l
1309 1371 l
1314 1365 l
1319 1360 l
1324 1355 l
1329 1350 l
1335 1345 l
1340 1340 l
1345 1336 l
1350 1331 l
1355 1328 l
1360 1324 l
1365 1321 l
1371 1318 l
1376 1315 l
1381 1313 l
1386 1311 l
1391 1309 l
1396 1308 l
1402 1308 l
1407 1307 l
1412 1307 l
1417 1308 l
1422 1309 l
1427 1310 l
1433 1311 l
1438 1314 l
1443 1316 l
1448 1319 l
1453 1322 l
1458 1326 l
1464 1330 l
1469 1334 l
1474 1339 l
1479 1344 l
1484 1349 l
1489 1355 l
1494 1361 l
1500 1367 l
1505 1373 l
1510 1380 l
1515 1387 l
1520 1394 l
1525 1401 l
1531 1408 l
1536 1416 l
1541 1423 l
1546 1431 l
1551 1439 l
1556 1446 l
1562 1454 l
1567 1462 l
1572 1470 l
1577 1478 l
1582 1486 l
1587 1493 l
1593 1501 l
1598 1508 l
1603 1516 l
1608 1523 l
1613 1530 l
1618 1538 l
1623 1545 l
1629 1551 l
1634 1558 l
1639 1564 l
1644 1571 l
1649 1577 l
1654 1583 l
1660 1588 l
1665 1594 l
1670 1599 l
1675 1604 l
1680 1609 l
1685 1614 l
1691 1619 l
1696 1623 l
1701 1627 l
1706 1632 l
1711 1635 l
1716 1639 l
1722 1643 l
1727 1646 l
1732 1649 l
1737 1652 l
1742 1655 l
1747 1658 l
1752 1661 l
1758 1663 l
1763 1665 l
1768 1668 l
1773 1670 l
1778 1672 l
1783 1674 l
1789 1675 l
1794 1677 l
1799 1679 l
1804 1680 l
1809 1681 l
1814 1683 l
1820 1684 l
1825 1685 l
1830 1686 l
1835 1687 l
1840 1688 l
1845 1689 l
1851 1690 l
1856 1691 l
1861 1692 l
1866 1692 l
1871 1693 l
1876 1693 l
1881 1694 l
1887 1695 l
1892 1656 l
1897 1739 l
1902 1677 l
1907 1679 l
1912 1571 l
1918 1769 l
1923 1790 l
1928 1821 l
1933 1867 l
1938 1648 l
1943 1827 l
1949 1703 l
1954 1817 l
1959 1822 l
1964 1775 l
1969 1792 l
1974 1664 l
1980 1604 l
1985 1648 l
1990 1731 l
1995 1833 l
2000 1806 l
2005 1854 l
2010 1758 l
2016 1814 l
2021 1834 l
2026 1782 l
2031 1839 l
2036 1722 l
2041 1703 l
2047 1750 l
2052 1751 l
2057 1754 l
2062 1654 l
2067 1745 l
2072 1848 l
2078 1751 l
2083 1753 l
2088 1830 l
2093 1799 l
2098 1784 l
2103 1688 l
2109 1787 l
2114 1909 l
2119 1884 l
2124 1823 l
2129 1728 l
2134 1736 l
2139 1721 l
2145 1677 l
2150 1666 l
2155 1668 l
2160 1733 l
2165 1607 l
2170 1653 l
2176 1721 l
2181 1660 l
2186 1511 l
2191 1741 l
2196 1649 l
2201 1672 l
2207 1426 l
2212 1340 l
2217 1273 l
2222 1305 l
2227 1202 l
2232 1316 l
2238 1065 l
2243 1072 l
2248 1069 l
2253 993 l
2258 889 l
2263 981 l
2268 839 l
2274 694 l
2279 633 l
2284 471 l
2289 621 l
2294 767 l
2299 847 l
2305 752 l
2310 590 l
2315 832 l
2320 743 l
2325 870 l
2330 708 l
2336 755 l
2341 858 l
2346 1018 l
2351 943 l
2356 889 l
2361 955 l
2367 1016 l
2372 1158 l
2377 1152 l
2382 1120 l
2387 1073 l
2392 1014 l
2397 1300 l
2403 1289 l
2408 1422 l
2413 1307 l
2418 1450 l
2423 1277 l
2428 1409 l
2434 1463 l
2439 1473 l
2444 1590 l
2449 1680 l
2454 1408 l
2459 1520 l
2465 1593 l
2470 1541 l
2475 1439 l
2480 1725 l
2485 1508 l
2490 1552 l
2496 1564 l
2501 1589 l
2506 1698 l
2511 1693 l
2516 1572 l
2521 1476 l
2526 1572 l
2532 1649 l
2537 1530 l
2542 1633 l
2547 1608 l
2552 1565 l
2557 1470 l
2563 1609 l
5 sw
0.945 0.251 0.251 rgb
1 scap
st
gr
gs
pathproc 576 286 2194 1768 np rectpath
/eocl cland
np exec
757 1527 m
762 1614 l
767 1360 l
772 1423 l
777 1485 l
782 1385 l
788 1486 l
793 1534 l
798 1518 l
803 1494 l
808 1472 l
813 1593 l
819 1662 l
824 1530 l
829 1527 l
834 1429 l
839 1375 l
844 1307 l
849 1596 l
855 1564 l
860 1662 l
865 1456 l
870 1581 l
875 1482 l
880 1543 l
886 1386 l
891 1350 l
896 1596 l
901 1384 l
906 1439 l
911 1607 l
917 1658 l
922 1510 l
927 1482 l
932 1398 l
937 1450 l
942 1552 l
948 1553 l
953 1555 l
958 1556 l
963 1557 l
968 1558 l
973 1559 l
978 1560 l
984 1562 l
989 1563 l
994 1564 l
999 1565 l
1004 1567 l
1009 1568 l
1015 1569 l
1020 1571 l
1025 1572 l
1030 1573 l
1035 1575 l
1040 1576 l
1046 1577 l
1051 1579 l
1056 1580 l
1061 1581 l
1066 1583 l
1071 1584 l
1077 1586 l
1082 1587 l
1087 1588 l
1092 1590 l
1097 1591 l
1102 1593 l
1107 1594 l
1113 1596 l
1118 1597 l
1123 1599 l
1128 1600 l
1133 1601 l
1138 1603 l
1144 1604 l
1149 1606 l
1154 1607 l
1159 1609 l
1164 1610 l
1169 1612 l
1175 1613 l
1180 1614 l
1185 1616 l
1190 1617 l
1195 1619 l
1200 1620 l
1206 1622 l
1211 1623 l
1216 1625 l
1221 1626 l
1226 1628 l
1231 1629 l
1236 1630 l
1242 1632 l
1247 1633 l
1252 1635 l
1257 1636 l
1262 1638 l
1267 1639 l
1273 1640 l
1278 1642 l
1283 1643 l
1288 1645 l
1293 1646 l
1298 1648 l
1304 1649 l
1309 1650 l
1314 1652 l
1319 1653 l
1324 1654 l
1329 1656 l
1335 1657 l
1340 1659 l
1345 1660 l
1350 1661 l
1355 1663 l
1360 1664 l
1365 1665 l
1371 1666 l
1376 1668 l
1381 1669 l
1386 1670 l
1391 1671 l
1396 1672 l
1402 1673 l
1407 1675 l
1412 1676 l
1417 1677 l
1422 1678 l
1427 1679 l
1433 1680 l
1438 1681 l
1443 1682 l
1448 1682 l
1453 1683 l
1458 1684 l
1464 1685 l
1469 1686 l
1474 1686 l
1479 1687 l
1484 1688 l
1489 1689 l
1494 1689 l
1500 1690 l
1505 1690 l
1510 1691 l
1515 1691 l
1520 1692 l
1525 1693 l
1531 1693 l
1536 1693 l
1541 1694 l
1546 1694 l
1551 1695 l
1556 1695 l
1562 1696 l
1567 1696 l
1572 1696 l
1577 1697 l
1582 1697 l
1587 1697 l
1593 1698 l
1598 1698 l
1603 1698 l
1608 1699 l
1613 1699 l
1618 1699 l
1623 1699 l
1629 1700 l
1634 1700 l
1639 1700 l
1644 1700 l
1649 1700 l
1654 1701 l
1660 1701 l
1665 1701 l
1670 1701 l
1675 1701 l
1680 1702 l
1685 1702 l
1691 1702 l
1696 1702 l
1701 1702 l
1706 1702 l
1711 1702 l
1716 1703 l
1722 1703 l
1727 1703 l
1732 1703 l
1737 1703 l
1742 1703 l
1747 1703 l
1752 1703 l
1758 1703 l
1763 1703 l
1768 1703 l
1773 1704 l
1778 1704 l
1783 1704 l
1789 1704 l
1794 1704 l
1799 1704 l
1804 1704 l
1809 1704 l
1814 1704 l
1820 1704 l
1825 1704 l
1830 1704 l
1835 1704 l
1840 1704 l
1845 1705 l
1851 1705 l
1856 1705 l
1861 1705 l
1866 1705 l
1871 1705 l
1876 1705 l
1881 1705 l
1887 1705 l
1892 1665 l
1897 1748 l
1902 1685 l
1907 1688 l
1912 1579 l
1918 1776 l
1923 1797 l
1928 1828 l
1933 1873 l
1938 1654 l
1943 1833 l
1949 1709 l
1954 1823 l
1959 1827 l
1964 1780 l
1969 1797 l
1974 1668 l
1980 1609 l
1985 1652 l
1990 1735 l
1995 1837 l
2000 1810 l
2005 1857 l
2010 1762 l
2016 1817 l
2021 1837 l
2026 1785 l
2031 1842 l
2036 1725 l
2041 1706 l
2047 1753 l
2052 1753 l
2057 1757 l
2062 1657 l
2067 1748 l
2072 1850 l
2078 1753 l
2083 1755 l
2088 1832 l
2093 1801 l
2098 1787 l
2103 1690 l
2109 1789 l
2114 1911 l
2119 1886 l
2124 1824 l
2129 1730 l
2134 1738 l
2139 1723 l
2145 1679 l
2150 1667 l
2155 1669 l
2160 1734 l
2165 1609 l
2170 1655 l
2176 1722 l
2181 1662 l
2186 1512 l
2191 1743 l
2196 1650 l
2201 1674 l
2207 1428 l
2212 1341 l
2217 1275 l
2222 1306 l
2227 1204 l
2232 1317 l
2238 1066 l
2243 1073 l
2248 1070 l
2253 994 l
2258 890 l
2263 982 l
2268 840 l
2274 695 l
2279 634 l
2284 472 l
2289 622 l
2294 768 l
2299 848 l
2305 753 l
2310 591 l
2315 833 l
2320 744 l
2325 871 l
2330 708 l
2336 756 l
2341 859 l
2346 1019 l
2351 943 l
2356 890 l
2361 956 l
2367 1017 l
2372 1159 l
2377 1152 l
2382 1120 l
2387 1074 l
2392 1015 l
2397 1301 l
2403 1290 l
2408 1423 l
2413 1308 l
2418 1451 l
2423 1277 l
2428 1410 l
2434 1463 l
2439 1474 l
2444 1591 l
2449 1681 l
2454 1409 l
2459 1521 l
2465 1594 l
2470 1542 l
2475 1439 l
2480 1725 l
2485 1509 l
2490 1553 l
2496 1565 l
2501 1589 l
2506 1699 l
2511 1693 l
2516 1572 l
2521 1477 l
2526 1572 l
2532 1650 l
2537 1530 l
2542 1633 l
2547 1609 l
2552 1565 l
2557 1471 l
2563 1610 l
5 sw
0.102 0.435 0.875 rgb
1 scap
st
gr
gs
pathproc 576 286 2194 1768 np rectpath
/eocl cland
np exec
gr
gs
gs
1 -1 sc
375 -1448 tr
90 ro
/MC2_Arial 91 self 0 0 m
(Intensity \(arb\))[24 50 24 50 50 45 19 24 45 24 29 50 29 50 29 ] xs
1 -1 sc
gr
gr
gs
1 -1 sc
/MC1_Arial 91 self 1265 -2288 m
(Binding Energy \(eV\))[60 19 50 50 19 50 50 24 60 50 50 29 50 42 24 29 50 60 29 ] xs
1 -1 sc
gr
1987 334 m
2476 334 l
2476 600 l
1987 600 l
cp
gs
1 1 1 rgb
eofi
gr
3 sw
0 sj
2 scap
st
gs
gs
gr
gs
0.318 0.318 0.318 rgb
2069 376 12 12 rectfill
1987 600 m
1 sw
1 sj
1 scap
2069 376 12 12 rectstroke
gr
1 -1 sc
/MC1_Arial 69 self 2152 -406 m
( )[18 ] xs
1 -1 sc
1 -1 sc
2171 -406 m
(Al2s CPS)[45 14 37 34 18 49 45 45 ] xs
1 -1 sc
gs
gr
gs
gs
1998 467 m
2152 467 l
5 sw
0.945 0.251 0.251 rgb
1 sj
1 scap
st
gr
gr
1 -1 sc
2152 -491 m
( )[18 ] xs
1 -1 sc
1 -1 sc
2171 -491 m
(Al2s)[45 14 37 34 ] xs
1 -1 sc
gs
gr
gs
gs
1998 552 m
2152 552 l
5 sw
0.102 0.435 0.875 rgb
1 sj
1 scap
st
gr
gr
1 -1 sc
2152 -576 m
( )[18 ] xs
1 -1 sc
1 -1 sc
2171 -576 m
(BG)[45 53 ] xs
1 -1 sc
gr
gr
gs
gr
Save0 restore end
showpage
%%EOF
