%!PS-Adobe-3.0 EPSF-3.0
%%BoundingBox: 0 0 772 591
%%LanguageLevel: 2
%%Creator: OriginLab Corporation
%%Title: (C:\Users\gzaug\OneDrive\Dokumente\Uni\Nano\Blockkurse\block_course_protocols\PSI_Glass_Fiber_Coatings\data\ref_fits\Si2p.eps)
%%CreationDate: Fri Feb 26 15:14:14 2021
%%EndComments

/OriginLab::PSL1 128 dict dup begin def
/Save0 save def
%%BeginResource: procset OriginLab::PSL1
/wd{1 index where{pop pop pop}{bind def}ifelse}bind def
/setcmykcolor{1 sub 4 1 roll 3{3 index add neg dup 0 lt{pop 0}if 3 1 roll}repeat setrgbcolor pop}wd
/selectfont{dup type/arraytype eq{exch findfont exch makefont setfont}{exch findfont exch scalefont setfont}ifelse}wd
/xshow{1 index length 0 le{}{currentpoint exch 3 index length 1 sub 0 exch 1 exch{dup 5 index exch 1 getinterval show 3 index exch get add 2 copy exch moveto}for pop pop}ifelse pop pop}wd
/grayimage/image load def/rgbtogray{cvx exec dup length 3 idiv 1 sub 0 exch 1 exch{dup 3 mul dup 3 index exch get 255 div .3 mul exch
 1 add dup 4 index exch get 255 div .59 mul exch 1 add 4 index exch get 255 div .11 mul add add
 255 mul dup 255 gt{255}if round cvi 2 index 3 1 roll put}for dup length 3 idiv 0 exch getinterval}bind def
/colorimage{0 setgray pop pop cvlit/rgbtogray cvx 2 packedarray cvx grayimage}wd
/bd{bind def}bind def/ld{load def}bd/ed{exch def}bd/xd{cvx def}bd
/np/newpath ld/a/arc ld/m/moveto ld/l/lineto ld/c/curveto ld/rm/rmoveto ld/rl/rlineto ld/rc/rcurveto ld/cp/closepath ld/cpt/currentpoint ld
/tr/translate ld/sc/scale ld/ro/rotate ld/t/transform ld/it/itransform ld/dt/dtransform ld/idt/idtransform ld
/mtx/matrix ld/cmtx/currentmatrix ld/dmtx/defaultmatrix ld/smtx/setmatrix ld/catmtx/concatmatrix ld
/sw/setlinewidth ld/scap/setlinecap ld/sj/setlinejoin ld/sm/setmiterlimit ld/sd/setdash ld/rgb/setrgbcolor ld/crgb/currentrgbcolor ld/cmyk/setcmykcolor ld/gs/gsave ld/gr/grestore ld
/st/stroke ld/fi/fill ld/eofi/eofill ld/cl/clip ld/eocl/eoclip ld
/glyphshowEmulation{matrix currentmatrix exch currentfont dup/FontMatrix get concat currentpoint translate
 dup/Metrics get 2 index get 0 4 2 roll gsave/CharProcs get exch 2 copy known not{pop/.notdef}if
 get exec fill grestore moveto setmatrix} bind def
/isWord2010 false def
currentsystemparams /PrinterName known{currentsystemparams /PrinterName get (Access Softek) eq {/isWord2010 true def} if } if
isWord2010{/glyphshowCommand/glyphshowEmulation ld}{/glyphshowCommand/glyphshow ld}ifelse
/df/definefont ld/ff/findfont ld/sf/setfont ld/scf/scalefont ld/self/selectfont ld/cf/currentfont ld
/s/show ld/xs/xshow ld/gls/glyphshowCommand ld/xgls{cpt 3 1 roll add exch 3 -1 roll gls m}bd
/xglsh{cpt 3 1 roll add exch 3 -1 roll glyphshowCommand m}bd
/cd/currentdict ld/i/index ld
/DrawBox{4 2 roll m 1 index 0 rl 0 exch rl neg 0 rl cp}bd
/plus.re { 6 { 3 index } repeat moveto 0 exch rlineto 0 rlineto pop pop neg 0 exch rlineto pop lineto closepath } def
/DrawBcc{4 2 roll m 2 copy 0 lt exch 0 lt xor{dup 0 exch rl exch 0 rl neg 0 exch rl}{exch dup 0 rl exch 0 exch rl neg 0 rl}ifelse cp}bd
/rectline{dup type/arraytype eq{dup length 0 exch 4 exch 4 sub{0 1 3{3 copy add get 4 1 roll pop}for pop 5 1 roll DrawBox}for pop}{DrawBox}ifelse}bd
/rectpath{dup type/arraytype eq{dup length 0 exch 4 exch 4 sub{0 1 3{3 copy add get 4 1 roll pop}for pop 5 1 roll DrawBcc}for pop}{DrawBcc}ifelse}bd
/pathproc{[{/m cvx}{/l cvx}{/c cvx}{/cp cvx}pathforall]cvx}bd
/L1img/image ld/L1idx[{0}
 {dup 7 and 3 1 roll -3 bitshift get exch 7 sub 1 mul bitshift  1 and}bind 1 index dup
 {dup 1 and 3 1 roll -1 bitshift get exch 1 sub 4 mul bitshift 15 and}bind 1 index dup dup
 {get}bind]def
/image{dup type/dicttype eq {dup/ImgCS get 0 get/Indexed eq}{false}ifelse
 {begin Width Height 8 ImageMatrix {rgb_string rgb_lookup
 cd/DataSource get dup type/filetype eq
 {mystring readstring pop}{exec}ifelse
 dup length 0 ne
 {L1idx BitsPerComponent get 0 1 Width 1 sub
 {3 copy exch exec exch 3 mul exch
 3 mul dup 5 index exch get exch 1 add dup 6 index exch get exch 1 add 6 index exch get
 7 index exch 4 index 2 add exch put 6 index exch 3 index 1 add exch put 5 index exch 2 index exch put pop
 }for pop pop pop }{pop pop pop ()}ifelse }false 3 colorimage end} {dup type/dicttype eq
 {{dup mark exch L1img pop pop}stopped{cleartomark begin Width Height BitsPerComponent ImageMatrix
 {cd/DataSource get dup type/filetype eq {mystring readstring pop}{exec}ifelse
 }false 3 colorimage end} if}{L1img}ifelse}ifelse
 }bd
/L1imgmask/imagemask ld/imagemask{dup type/dicttype eq
 {{dup mark exch L1imgmask pop pop}stopped {cleartomark begin Width Height polarityflag ImageMatrix
 {cd/DataSource get dup type/filetype eq {mystring readstring pop}{exec}ifelse
 }L1imgmask end}if}{L1imgmask}ifelse
 }bd
% Gradient function
/GradientStep 1 150 div def
/GradientStartRGB { /R1 exch def /G1 exch def /B1 exch def } def
/GradientEndRGB { /R2 exch def /G2 exch def /B2 exch def
/GradientSteps GradientLength GradientStep div def
/GradientRStep R2 R1 sub GradientSteps div def
/GradientGStep G2 G1 sub GradientSteps div def
/GradientBStep B2 B1 sub GradientSteps div def
} def
/GradientStepRGB { /R1 R1 GradientRStep add def
/G1 G1 GradientGStep add def
/B1 B1 GradientBStep add def
R1 G1 B1 setrgbcolor
} def
%%EndResource
/rectclip{np rectpath clip np}wd
/rectfill{gs np rectpath fi gr}wd
/rectstroke{gs np dup type/arraytype eq{dup length 6 eq}{false}ifelse{1 index type/arraytype eq{exch}{5 1 roll}ifelse rectline concat st}{rectline st}ifelse gr}wd
%%BeginResource: procset OriginLab::Image
/OriginLab::Image 32 dict dup begin
/BinProc{[currentfile mystring /readstring cvx /pop cvx] cvx bind}bd
/HexProc{[currentfile mystring /readhexstring cvx /pop cvx] cvx bind}bd
/Ascii85Proc{currentfile /ASCII85Decode filter}bd
/LZWA85{currentfile /ASCII85Decode filter /LZWDecode filter}bd
/ImgProcArray[/BinProc /HexProc /Ascii85Proc /LZWA85]def
/ImgDict{/ImgDict 16 dict def ImgDict dup begin /ImageType 1 def /MultipleDataSource false def end}bd
/L2Dec{{[1 0]}{[0 1]}ifelse}bd
/BegImg{ /Img_sv save def
 /ImgDir ed ImgProcArray exch get /ImgProc exch ld
 dup /polarityflag ed L2Dec /polarity ed /smoothflag ed
 tr /dx 2 index def /dy 1 index abs def sc
 string /mystring ed /bpc ed /ih ed /iw ed
 }bd
/EndImg {Img_sv restore}bd
/DoXImg{ /rgb_lookup ed /hival ed ImgDict dup begin
 [/Indexed /DeviceRGB hival rgb_lookup] /L1img where{pop/ImgCS ed}{setcolorspace}ifelse
 /rgb_string iw 3 mul string def
 /Width iw def
 /Height ih def
 /Decode [0 1 bpc{2 mul}repeat 1 sub] def
 /ImageMatrix
  ImgDir 0 eq{[iw 0 0 ih 0 0]}if
  ImgDir 1 eq{[iw neg 0 0 ih iw 0]}if
  ImgDir 2 eq{[iw 0 0 ih neg 0 ih]}if
  ImgDir 3 eq{[iw neg 0 0 ih neg iw ih]}if
  def
 /DataSource ImgProc def
 /BitsPerComponent bpc def
 /Interpolate smoothflag def
 end image}bd
/DoImg{ ImgDict dup begin
 [/DeviceRGB] /L1img where{pop/ImgCS ed}{setcolorspace}ifelse
 /rgb_string iw 3 mul string def
 /Width iw def
 /Height ih def
 /Decode [0 1 0 1 0 1] def
 /ImageMatrix
  ImgDir 0 eq{[iw 0 0 ih 0 0]}if
  ImgDir 1 eq{[iw neg 0 0 ih iw 0]}if
  ImgDir 2 eq{[iw 0 0 ih neg 0 ih]}if
  ImgDir 3 eq{[iw neg 0 0 ih neg iw ih]}if
  def
 /DataSource ImgProc def
 /BitsPerComponent 8 def
 /Interpolate smoothflag def
 end image}bd
end def
%%EndResource
/initmtx mtx cmtx def
%%BeginFont: /MC1_Arial
12 dict begin
/FontInfo 8 dict dup begin
/ItalicAngle 0 def
/UnderlinePosition -217.00 def
/UnderlineThickness 150.00 def
/StrikeoutPosition 530.00 def
/StrikeoutThickness 102.00 def
/isFixedPitch false def
end readonly def
/FontName /MC1_Arial def
/FontType 3 def
/FontMatrix [1 2048 div 0 0 1 2048 div 0 0] def
/FontBBox [-1361 -665 4096 2129] def
/Encoding 256 array def 0 1 255{Encoding exch/.notdef put}for
Encoding 32/s32 put
Encoding 40/s40 put
Encoding 41/s41 put
Encoding 45/s45 put
Encoding 48/s48 put
Encoding 49/s49 put
Encoding 50/s50 put
Encoding 53/s53 put
Encoding 56/s56 put
Encoding 57/s57 put
Encoding 66/s66 put
Encoding 67/s67 put
Encoding 69/s69 put
Encoding 71/s71 put
Encoding 79/s79 put
Encoding 80/s80 put
Encoding 83/s83 put
Encoding 86/s86 put
Encoding 97/s97 put
Encoding 100/s100 put
Encoding 101/s101 put
Encoding 103/s103 put
Encoding 105/s105 put
Encoding 108/s108 put
Encoding 110/s110 put
Encoding 111/s111 put
Encoding 112/s112 put
Encoding 114/s114 put
Encoding 118/s118 put
Encoding 121/s121 put
/BoundingBoxes 31 dict def
BoundingBoxes begin
/s32 [0 -434 569 1854] def
/s40 [0 -434 682 1854] def
/s41 [0 -434 682 1854] def
/s45 [0 -434 682 1854] def
/s48 [0 -434 1139 1854] def
/s49 [0 -434 1139 1854] def
/s50 [0 -434 1139 1854] def
/s53 [0 -434 1139 1854] def
/s56 [0 -434 1139 1854] def
/s57 [0 -434 1139 1854] def
/s66 [0 -434 1366 1854] def
/s67 [0 -434 1479 1854] def
/s69 [0 -434 1366 1854] def
/s71 [0 -434 1593 1854] def
/s79 [0 -434 1593 1854] def
/s80 [0 -434 1366 1854] def
/s83 [0 -434 1366 1854] def
/s86 [0 -434 1366 1854] def
/s97 [0 -434 1139 1854] def
/s100 [0 -434 1139 1854] def
/s101 [0 -434 1139 1854] def
/s103 [0 -434 1139 1854] def
/s105 [0 -434 455 1854] def
/s108 [0 -434 455 1854] def
/s110 [0 -434 1139 1854] def
/s111 [0 -434 1139 1854] def
/s112 [0 -434 1139 1854] def
/s114 [0 -434 682 1854] def
/s118 [0 -434 1024 1854] def
/s121 [0 -434 1024 1854] def
end
/Metrics 31 dict def
 Metrics begin
/s32 569 def
/s40 682 def
/s41 682 def
/s45 682 def
/s48 1139 def
/s49 1139 def
/s50 1139 def
/s53 1139 def
/s56 1139 def
/s57 1139 def
/s66 1366 def
/s67 1479 def
/s69 1366 def
/s71 1593 def
/s79 1593 def
/s80 1366 def
/s83 1366 def
/s86 1366 def
/s97 1139 def
/s100 1139 def
/s101 1139 def
/s103 1139 def
/s105 455 def
/s108 455 def
/s110 1139 def
/s111 1139 def
/s112 1139 def
/s114 682 def
/s118 1024 def
/s121 1024 def
end
/CharProcs 31 dict def
CharProcs begin
/.notdef {} def
/s40 {
479 -431 m
379.67 -305.67 295.67 -159 227 9 c
158.33 177 124 351 124 531 c
124 689.67 149.67 841.67 201 987 c
261 1155.67 353.67 1323.67 479 1491 c
608 1491 479 1491 608 1491 c
527.33 1352.33 474 1253.33 448 1194 c
407.33 1102 375.33 1006 352 906 c
323.33 781.33 309 656 309 530 c
309 209.33 408.67 -111 608 -431 c
479 -431 608 -431 479 -431 c
closepath } bind def
/s41 {
253 -431 m
124 -431 253 -431 124 -431 c
323.33 -111 423 209.33 423 530 c
423 655.33 408.67 779.67 380 903 c
357.33 1003 325.67 1099 285 1191 c
259 1251 205.33 1351 124 1491 c
253 1491 124 1491 253 1491 c
378.33 1323.67 471 1155.67 531 987 c
582.33 841.67 608 689.67 608 531 c
608 351 573.5 177 504.5 9 c
435.5 -159 351.67 -305.67 253 -431 c
closepath } bind def
/s45 {
65 440 m
65 621 65 440 65 621 c
618 621 65 621 618 621 c
618 440 618 621 618 440 c
65 440 618 440 65 440 c
closepath } bind def
/s48 {
85 723 m
85 896.33 102.83 1035.83 138.5 1141.5 c
174.17 1247.17 227.17 1328.67 297.5 1386 c
367.83 1443.33 456.33 1472 563 1472 c
641.67 1472 710.67 1456.17 770 1424.5 c
829.33 1392.83 878.33 1347.17 917 1287.5 c
955.67 1227.83 986 1155.17 1008 1069.5 c
1030 983.83 1041 868.33 1041 723 c
1041 551 1023.33 412.17 988 306.5 c
952.67 200.83 899.83 119.17 829.5 61.5 c
759.17 3.83 670.33 -25 563 -25 c
421.67 -25 310.67 25.67 230 127 c
133.33 249 85 447.67 85 723 c
closepath 270 723 m
270 482.33 298.17 322.17 354.5 242.5 c
410.83 162.83 480.33 123 563 123 c
645.67 123 715.17 163 771.5 243 c
827.83 323 856 483 856 723 c
856 964.33 827.83 1124.67 771.5 1204 c
715.17 1283.33 645 1323 561 1323 c
478.33 1323 412.33 1288 363 1218 c
301 1128.67 270 963.67 270 723 c
closepath } bind def
/s49 {
763 0 m
583 0 763 0 583 0 c
583 1147 583 0 583 1147 c
539.67 1105.67 482.83 1064.33 412.5 1023 c
342.17 981.67 279 950.67 223 930 c
223 1104 223 930 223 1104 c
323.67 1151.33 411.67 1208.67 487 1276 c
562.33 1343.33 615.67 1408.67 647 1472 c
763 1472 647 1472 763 1472 c
763 0 763 1472 763 0 c
closepath } bind def
/s50 {
1031 173 m
1031 0 1031 173 1031 0 c
62 0 1031 0 62 0 c
60.67 43.33 67.67 85 83 125 c
107.67 191 147.17 256 201.5 320 c
255.83 384 334.33 458 437 542 c
596.33 672.67 704 776.17 760 852.5 c
816 928.83 844 1001 844 1069 c
844 1140.33 818.5 1200.5 767.5 1249.5 c
716.5 1298.5 650 1323 568 1323 c
481.33 1323 412 1297 360 1245 c
308 1193 281.67 1121 281 1029 c
96 1048 281 1029 96 1048 c
108.67 1186 156.33 1291.17 239 1363.5 c
321.67 1435.83 432.67 1472 572 1472 c
712.67 1472 824 1433 906 1355 c
988 1277 1029 1180.33 1029 1065 c
1029 1006.33 1017 948.67 993 892 c
969 835.33 929.17 775.67 873.5 713 c
817.83 650.33 725.33 564.33 596 455 c
488 364.33 418.67 302.83 388 270.5 c
357.33 238.17 332 205.67 312 173 c
1031 173 312 173 1031 173 c
closepath } bind def
/s53 {
85 384 m
274 400 85 384 274 400 c
288 308 320.5 238.83 371.5 192.5 c
422.5 146.17 484 123 556 123 c
642.67 123 716 155.67 776 221 c
836 286.33 866 373 866 481 c
866 583.67 837.17 664.67 779.5 724 c
721.83 783.33 646.33 813 553 813 c
495 813 442.67 799.83 396 773.5 c
349.33 747.17 312.67 713 286 671 c
117 693 286 671 117 693 c
259 1446 117 693 259 1446 c
988 1446 259 1446 988 1446 c
988 1274 988 1446 988 1274 c
403 1274 988 1274 403 1274 c
324 880 403 1274 324 880 c
412 941.33 504.33 972 601 972 c
729 972 837 927.67 925 839 c
1013 750.33 1057 636.33 1057 497 c
1057 364.33 1018.33 249.67 941 153 c
847 34.33 718.67 -25 556 -25 c
422.67 -25 313.83 12.33 229.5 87 c
145.17 161.67 97 260.67 85 384 c
closepath } bind def
/s56 {
362 795 m
287.33 822.33 232 861.33 196 912 c
160 962.67 142 1023.33 142 1094 c
142 1200.67 180.33 1290.33 257 1363 c
333.67 1435.67 435.67 1472 563 1472 c
691 1472 794 1434.83 872 1360.5 c
950 1286.17 989 1195.67 989 1089 c
989 1021 971.17 961.83 935.5 911.5 c
899.83 861.17 845.67 822.33 773 795 c
863 765.67 931.5 718.33 978.5 653 c
1025.5 587.67 1049 509.67 1049 419 c
1049 293.67 1004.67 188.33 916 103 c
827.33 17.67 710.67 -25 566 -25 c
421.33 -25 304.67 17.83 216 103.5 c
127.33 189.17 83 296 83 424 c
83 519.33 107.17 599.17 155.5 663.5 c
203.83 727.83 272.67 771.67 362 795 c
closepath 326 1100 m
326 1030.67 348.33 974 393 930 c
437.67 886 495.67 864 567 864 c
636.33 864 693.17 885.83 737.5 929.5 c
781.83 973.17 804 1026.67 804 1090 c
804 1156 781.17 1211.5 735.5 1256.5 c
689.83 1301.5 633 1324 565 1324 c
496.33 1324 439.33 1302 394 1258 c
348.67 1214 326 1161.33 326 1100 c
closepath 268 423 m
268 371.67 280.17 322 304.5 274 c
328.83 226 365 188.83 413 162.5 c
461 136.17 512.67 123 568 123 c
654 123 725 150.67 781 206 c
837 261.33 865 331.67 865 417 c
865 503.67 836.17 575.33 778.5 632 c
720.83 688.67 648.67 717 562 717 c
477.33 717 407.17 689 351.5 633 c
295.83 577 268 507 268 423 c
closepath } bind def
/s57 {
112 339 m
285 355 112 339 285 355 c
299.67 273.67 327.67 214.67 369 178 c
410.33 141.33 463.33 123 528 123 c
583.33 123 631.83 135.67 673.5 161 c
715.17 186.33 749.33 220.17 776 262.5 c
802.67 304.83 825 362 843 434 c
861 506 870 579.33 870 654 c
870 662 869.67 674 869 690 c
833 632.67 783.83 586.17 721.5 550.5 c
659.17 514.83 591.67 497 519 497 c
397.67 497 295 541 211 629 c
127 717 85 833 85 977 c
85 1125.67 128.83 1245.33 216.5 1336 c
304.17 1426.67 414 1472 546 1472 c
641.33 1472 728.5 1446.33 807.5 1395 c
886.5 1343.67 946.5 1270.5 987.5 1175.5 c
1028.5 1080.5 1049 943 1049 763 c
1049 575.67 1028.67 426.5 988 315.5 c
947.33 204.5 886.83 120 806.5 62 c
726.17 4 632 -25 524 -25 c
409.33 -25 315.67 6.83 243 70.5 c
170.33 134.17 126.67 223.67 112 339 c
closepath 849 986 m
849 1089.33 821.5 1171.33 766.5 1232 c
711.5 1292.67 645.33 1323 568 1323 c
488 1323 418.33 1290.33 359 1225 c
299.67 1159.67 270 1075 270 971 c
270 877.67 298.17 801.83 354.5 743.5 c
410.83 685.17 480.33 656 563 656 c
646.33 656 714.83 685.17 768.5 743.5 c
822.17 801.83 849 882.67 849 986 c
closepath } bind def
/s66 {
150 0 m
150 1466 150 0 150 1466 c
700 1466 150 1466 700 1466 c
812 1466 901.83 1451.17 969.5 1421.5 c
1037.17 1391.83 1090.17 1346.17 1128.5 1284.5 c
1166.83 1222.83 1186 1158.33 1186 1091 c
1186 1028.33 1169 969.33 1135 914 c
1101 858.67 1049.67 814 981 780 c
1069.67 754 1137.83 709.67 1185.5 647 c
1233.17 584.33 1257 510.33 1257 425 c
1257 356.33 1242.5 292.5 1213.5 233.5 c
1184.5 174.5 1148.67 129 1106 97 c
1063.33 65 1009.83 40.83 945.5 24.5 c
881.17 8.17 802.33 0 709 0 c
150 0 709 0 150 0 c
closepath 344 850 m
661 850 344 850 661 850 c
747 850 808.67 855.67 846 867 c
895.33 881.67 932.5 906 957.5 940 c
982.5 974 995 1016.67 995 1068 c
995 1116.67 983.33 1159.5 960 1196.5 c
936.67 1233.5 903.33 1258.83 860 1272.5 c
816.67 1286.17 742.33 1293 637 1293 c
344 1293 637 1293 344 1293 c
344 850 344 1293 344 850 c
closepath 344 173 m
709 173 344 173 709 173 c
771.67 173 815.67 175.33 841 180 c
885.67 188 923 201.33 953 220 c
983 238.67 1007.67 265.83 1027 301.5 c
1046.33 337.17 1056 378.33 1056 425 c
1056 479.67 1042 527.17 1014 567.5 c
986 607.83 947.17 636.17 897.5 652.5 c
847.83 668.83 776.33 677 683 677 c
344 677 683 677 344 677 c
344 173 344 677 344 173 c
closepath } bind def
/s67 {
1204 514 m
1398 465 1204 514 1398 465 c
1357.33 305.67 1284.17 184.17 1178.5 100.5 c
1072.83 16.83 943.67 -25 791 -25 c
633 -25 504.5 7.17 405.5 71.5 c
306.5 135.83 231.17 229 179.5 351 c
127.83 473 102 604 102 744 c
102 896.67 131.17 1029.83 189.5 1143.5 c
247.83 1257.17 330.83 1343.5 438.5 1402.5 c
546.17 1461.5 664.67 1491 794 1491 c
940.67 1491 1064 1453.67 1164 1379 c
1264 1304.33 1333.67 1199.33 1373 1064 c
1182 1019 1373 1064 1182 1019 c
1148 1125.67 1098.67 1203.33 1034 1252 c
969.33 1300.67 888 1325 790 1325 c
677.33 1325 583.17 1298 507.5 1244 c
431.83 1190 378.67 1117.5 348 1026.5 c
317.33 935.5 302 841.67 302 745 c
302 620.33 320.17 511.5 356.5 418.5 c
392.83 325.5 449.33 256 526 210 c
602.67 164 685.67 141 775 141 c
883.67 141 975.67 172.33 1051 235 c
1126.33 297.67 1177.33 390.67 1204 514 c
closepath } bind def
/s69 {
162 0 m
162 1466 162 0 162 1466 c
1222 1466 162 1466 1222 1466 c
1222 1293 1222 1466 1222 1293 c
356 1293 1222 1293 356 1293 c
356 844 356 1293 356 844 c
1167 844 356 844 1167 844 c
1167 672 1167 844 1167 672 c
356 672 1167 672 356 672 c
356 173 356 672 356 173 c
1256 173 356 173 1256 173 c
1256 0 1256 173 1256 0 c
162 0 1256 0 162 0 c
closepath } bind def
/s71 {
844 575 m
844 747 844 575 844 747 c
1465 748 844 747 1465 748 c
1465 204 1465 748 1465 204 c
1369.67 128 1271.33 70.83 1170 32.5 c
1068.67 -5.83 964.67 -25 858 -25 c
714 -25 583.17 5.83 465.5 67.5 c
347.83 129.17 259 218.33 199 335 c
139 451.67 109 582 109 726 c
109 868.67 138.83 1001.83 198.5 1125.5 c
258.17 1249.17 344 1341 456 1401 c
568 1461 697 1491 843 1491 c
949 1491 1044.83 1473.83 1130.5 1439.5 c
1216.17 1405.17 1283.33 1357.33 1332 1296 c
1380.67 1234.67 1417.67 1154.67 1443 1056 c
1268 1008 1443 1056 1268 1008 c
1246 1082.67 1218.67 1141.33 1186 1184 c
1153.33 1226.67 1106.67 1260.83 1046 1286.5 c
985.33 1312.17 918 1325 844 1325 c
755.33 1325 678.67 1311.5 614 1284.5 c
549.33 1257.5 497.17 1222 457.5 1178 c
417.83 1134 387 1085.67 365 1033 c
327.67 942.33 309 844 309 738 c
309 607.33 331.5 498 376.5 410 c
421.5 322 487 256.67 573 214 c
659 171.33 750.33 150 847 150 c
931 150 1013 166.17 1093 198.5 c
1173 230.83 1233.67 265.33 1275 302 c
1275 575 1275 302 1275 575 c
844 575 1275 575 844 575 c
closepath } bind def
/s79 {
99 714 m
99 957.33 164.33 1147.83 295 1285.5 c
425.67 1423.17 594.33 1492 801 1492 c
936.33 1492 1058.33 1459.67 1167 1395 c
1275.67 1330.33 1358.5 1240.17 1415.5 1124.5 c
1472.5 1008.83 1501 877.67 1501 731 c
1501 582.33 1471 449.33 1411 332 c
1351 214.67 1266 125.83 1156 65.5 c
1046 5.17 927.33 -25 800 -25 c
662 -25 538.67 8.33 430 75 c
321.33 141.67 239 232.67 183 348 c
127 463.33 99 585.33 99 714 c
closepath 299 711 m
299 534.33 346.5 395.17 441.5 293.5 c
536.5 191.83 655.67 141 799 141 c
945 141 1065.17 192.33 1159.5 295 c
1253.83 397.67 1301 543.33 1301 732 c
1301 851.33 1280.83 955.5 1240.5 1044.5 c
1200.17 1133.5 1141.17 1202.5 1063.5 1251.5 c
985.83 1300.5 898.67 1325 802 1325 c
664.67 1325 546.5 1277.83 447.5 1183.5 c
348.5 1089.17 299 931.67 299 711 c
closepath } bind def
/s80 {
158 0 m
158 1466 158 0 158 1466 c
711 1466 158 1466 711 1466 c
808.33 1466 882.67 1461.33 934 1452 c
1006 1440 1066.33 1417.17 1115 1383.5 c
1163.67 1349.83 1202.83 1302.67 1232.5 1242 c
1262.17 1181.33 1277 1114.67 1277 1042 c
1277 917.33 1237.33 811.83 1158 725.5 c
1078.67 639.17 935.33 596 728 596 c
352 596 728 596 352 596 c
352 0 352 596 352 0 c
158 0 352 0 158 0 c
closepath 352 769 m
731 769 352 769 731 769 c
856.33 769 945.33 792.33 998 839 c
1050.67 885.67 1077 951.33 1077 1036 c
1077 1097.33 1061.5 1149.83 1030.5 1193.5 c
999.5 1237.17 958.67 1266 908 1280 c
875.33 1288.67 815 1293 727 1293 c
352 1293 727 1293 352 1293 c
352 769 352 1293 352 769 c
closepath } bind def
/s83 {
92 471 m
275 487 92 471 275 487 c
283.67 413.67 303.83 353.5 335.5 306.5 c
367.17 259.5 416.33 221.5 483 192.5 c
549.67 163.5 624.67 149 708 149 c
782 149 847.33 160 904 182 c
960.67 204 1002.83 234.17 1030.5 272.5 c
1058.17 310.83 1072 352.67 1072 398 c
1072 444 1058.67 484.17 1032 518.5 c
1005.33 552.83 961.33 581.67 900 605 c
860.67 620.33 773.67 644.17 639 676.5 c
504.33 708.83 410 739.33 356 768 c
286 804.67 233.83 850.17 199.5 904.5 c
165.17 958.83 148 1019.67 148 1087 c
148 1161 169 1230.17 211 1294.5 c
253 1358.83 314.33 1407.67 395 1441 c
475.67 1474.33 565.33 1491 664 1491 c
772.67 1491 868.5 1473.5 951.5 1438.5 c
1034.5 1403.5 1098.33 1352 1143 1284 c
1187.67 1216 1211.67 1139 1215 1053 c
1029 1039 1215 1053 1029 1039 c
1019 1131.67 985.17 1201.67 927.5 1249 c
869.83 1296.33 784.67 1320 672 1320 c
554.67 1320 469.17 1298.5 415.5 1255.5 c
361.83 1212.5 335 1160.67 335 1100 c
335 1047.33 354 1004 392 970 c
429.33 936 526.83 901.17 684.5 865.5 c
842.17 829.83 950.33 798.67 1009 772 c
1094.33 732.67 1157.33 682.83 1198 622.5 c
1238.67 562.17 1259 492.67 1259 414 c
1259 336 1236.67 262.5 1192 193.5 c
1147.33 124.5 1083.17 70.83 999.5 32.5 c
915.83 -5.83 821.67 -25 717 -25 c
584.33 -25 473.17 -5.67 383.5 33 c
293.83 71.67 223.5 129.83 172.5 207.5 c
121.5 285.17 94.67 373 92 471 c
closepath } bind def
/s86 {
577 0 m
9 1466 577 0 9 1466 c
219 1466 9 1466 219 1466 c
600 401 219 1466 600 401 c
630.67 315.67 656.33 235.67 677 161 c
699.67 241 726 321 756 401 c
1152 1466 756 401 1152 1466 c
1350 1466 1152 1466 1350 1466 c
776 0 1350 1466 776 0 c
577 0 776 0 577 0 c
closepath } bind def
/s97 {
828 131 m
761.33 74.33 697.17 34.33 635.5 11 c
573.83 -12.33 507.67 -24 437 -24 c
320.33 -24 230.67 4.5 168 61.5 c
105.33 118.5 74 191.33 74 280 c
74 332 85.83 379.5 109.5 422.5 c
133.17 465.5 164.17 500 202.5 526 c
240.83 552 284 571.67 332 585 c
367.33 594.33 420.67 603.33 492 612 c
637.33 629.33 744.33 650 813 674 c
813.67 698.67 814 714.33 814 721 c
814 794.33 797 846 763 876 c
717 916.67 648.67 937 558 937 c
473.33 937 410.83 922.17 370.5 892.5 c
330.17 862.83 300.33 810.33 281 735 c
105 759 281 735 105 759 c
121 834.33 147.33 895.17 184 941.5 c
220.67 987.83 273.67 1023.5 343 1048.5 c
412.33 1073.5 492.67 1086 584 1086 c
674.67 1086 748.33 1075.33 805 1054 c
861.67 1032.67 903.33 1005.83 930 973.5 c
956.67 941.17 975.33 900.33 986 851 c
992 820.33 995 765 995 685 c
995 445 995 685 995 445 c
995 277.67 998.83 171.83 1006.5 127.5 c
1014.17 83.17 1029.33 40.67 1052 0 c
864 0 1052 0 864 0 c
845.33 37.33 833.33 81 828 131 c
closepath 813 533 m
747.67 506.33 649.67 483.67 519 465 c
445 454.33 392.67 442.33 362 429 c
331.33 415.67 307.67 396.17 291 370.5 c
274.33 344.83 266 316.33 266 285 c
266 237 284.17 197 320.5 165 c
356.83 133 410 117 480 117 c
549.33 117 611 132.17 665 162.5 c
719 192.83 758.67 234.33 784 287 c
803.33 327.67 813 387.67 813 467 c
813 533 813 467 813 533 c
closepath } bind def
/s100 {
824 0 m
824 134 824 0 824 134 c
756.67 28.67 657.67 -24 527 -24 c
442.33 -24 364.5 -0.67 293.5 46 c
222.5 92.67 167.5 157.83 128.5 241.5 c
89.5 325.17 70 421.33 70 530 c
70 636 87.67 732.17 123 818.5 c
158.33 904.83 211.33 971 282 1017 c
352.67 1063 431.67 1086 519 1086 c
583 1086 640 1072.5 690 1045.5 c
740 1018.5 780.67 983.33 812 940 c
812 1466 812 940 812 1466 c
991 1466 812 1466 991 1466 c
991 0 991 1466 991 0 c
824 0 991 0 824 0 c
closepath 255 530 m
255 394 283.67 292.33 341 225 c
398.33 157.67 466 124 544 124 c
622.67 124 689.5 156.17 744.5 220.5 c
799.5 284.83 827 383 827 515 c
827 660.33 799 767 743 835 c
687 903 618 937 536 937 c
456 937 389.17 904.33 335.5 839 c
281.83 773.67 255 670.67 255 530 c
closepath } bind def
/s101 {
862 342 m
1048 319 862 342 1048 319 c
1018.67 210.33 964.33 126 885 66 c
805.67 6 704.33 -24 581 -24 c
425.67 -24 302.5 23.83 211.5 119.5 c
120.5 215.17 75 349.33 75 522 c
75 700.67 121 839.33 213 938 c
305 1036.67 424.33 1086 571 1086 c
713 1086 829 1037.67 919 941 c
1009 844.33 1054 708.33 1054 533 c
1054 522.33 1053.67 506.33 1053 485 c
261 485 1053 485 261 485 c
267.67 368.33 300.67 279 360 217 c
419.33 155 493.33 124 582 124 c
648 124 704.33 141.33 751 176 c
797.67 210.67 834.67 266 862 342 c
closepath 271 633 m
864 633 271 633 864 633 c
856 722.33 833.33 789.33 796 834 c
738.67 903.33 664.33 938 573 938 c
490.33 938 420.83 910.33 364.5 855 c
308.17 799.67 277 725.67 271 633 c
closepath } bind def
/s103 {
102 -88 m
277 -114 102 -88 277 -114 c
284.33 -168 304.67 -207.33 338 -232 c
382.67 -265.33 443.67 -282 521 -282 c
604.33 -282 668.67 -265.33 714 -232 c
759.33 -198.67 790 -152 806 -92 c
815.33 -55.33 819.67 21.67 819 139 c
740.33 46.33 642.33 0 525 0 c
379 0 266 52.67 186 158 c
106 263.33 66 389.67 66 537 c
66 638.33 84.33 731.83 121 817.5 c
157.67 903.17 210.83 969.33 280.5 1016 c
350.17 1062.67 432 1086 526 1086 c
651.33 1086 754.67 1035.33 836 934 c
836 1062 836 934 836 1062 c
1002 1062 836 1062 1002 1062 c
1002 144 1002 1062 1002 144 c
1002 -21.33 985.17 -138.5 951.5 -207.5 c
917.83 -276.5 864.5 -331 791.5 -371 c
718.5 -411 628.67 -431 522 -431 c
395.33 -431 293 -402.5 215 -345.5 c
137 -288.5 99.33 -202.67 102 -88 c
closepath 251 550 m
251 410.67 278.67 309 334 245 c
389.33 181 458.67 149 542 149 c
624.67 149 694 180.83 750 244.5 c
806 308.17 834 408 834 544 c
834 674 805.17 772 747.5 838 c
689.83 904 620.33 937 539 937 c
459 937 391 904.5 335 839.5 c
279 774.5 251 678 251 550 c
closepath } bind def
/s105 {
136 1259 m
136 1466 136 1259 136 1466 c
316 1466 136 1466 316 1466 c
316 1259 316 1466 316 1259 c
136 1259 316 1259 136 1259 c
closepath 136 0 m
136 1062 136 0 136 1062 c
316 1062 136 1062 316 1062 c
316 0 316 1062 316 0 c
136 0 316 0 136 0 c
closepath } bind def
/s108 {
131 0 m
131 1466 131 0 131 1466 c
311 1466 131 1466 311 1466 c
311 0 311 1466 311 0 c
131 0 311 0 131 0 c
closepath } bind def
/s110 {
135 0 m
135 1062 135 0 135 1062 c
297 1062 135 1062 297 1062 c
297 911 297 1062 297 911 c
375 1027.67 487.67 1086 635 1086 c
699 1086 757.83 1074.5 811.5 1051.5 c
865.17 1028.5 905.33 998.33 932 961 c
958.67 923.67 977.33 879.33 988 828 c
994.67 794.67 998 736.33 998 653 c
998 0 998 653 998 0 c
818 0 998 0 818 0 c
818 646 818 0 818 646 c
818 719.33 811 774.17 797 810.5 c
783 846.83 758.17 875.83 722.5 897.5 c
686.83 919.17 645 930 597 930 c
520.33 930 454.17 905.67 398.5 857 c
342.83 808.33 315 716 315 580 c
315 0 315 580 315 0 c
135 0 315 0 135 0 c
closepath } bind def
/s111 {
68 531 m
68 727.67 122.67 873.33 232 968 c
323.33 1046.67 434.67 1086 566 1086 c
712 1086 831.33 1038.17 924 942.5 c
1016.67 846.83 1063 714.67 1063 546 c
1063 409.33 1042.5 301.83 1001.5 223.5 c
960.5 145.17 900.83 84.33 822.5 41 c
744.17 -2.33 658.67 -24 566 -24 c
417.33 -24 297.17 23.67 205.5 119 c
113.83 214.33 68 351.67 68 531 c
closepath 253 531 m
253 395 282.67 293.17 342 225.5 c
401.33 157.83 476 124 566 124 c
655.33 124 729.67 158 789 226 c
848.33 294 878 397.67 878 537 c
878 668.33 848.17 767.83 788.5 835.5 c
728.83 903.17 654.67 937 566 937 c
476 937 401.33 903.33 342 836 c
282.67 768.67 253 667 253 531 c
closepath } bind def
/s112 {
135 -407 m
135 1062 135 -407 135 1062 c
299 1062 135 1062 299 1062 c
299 924 299 1062 299 924 c
337.67 978 381.33 1018.5 430 1045.5 c
478.67 1072.5 537.67 1086 607 1086 c
697.67 1086 777.67 1062.67 847 1016 c
916.33 969.33 968.67 903.5 1004 818.5 c
1039.33 733.5 1057 640.33 1057 539 c
1057 430.33 1037.5 332.5 998.5 245.5 c
959.5 158.5 902.83 91.83 828.5 45.5 c
754.17 -0.83 676 -24 594 -24 c
534 -24 480.17 -11.33 432.5 14 c
384.83 39.33 345.67 71.33 315 110 c
315 -407 315 110 315 -407 c
135 -407 315 -407 135 -407 c
closepath 298 525 m
298 388.33 325.67 287.33 381 222 c
436.33 156.67 503.33 124 582 124 c
662 124 730.5 157.83 787.5 225.5 c
844.5 293.17 873 398 873 540 c
873 675.33 845.17 776.67 789.5 844 c
733.83 911.33 667.33 945 590 945 c
513.33 945 445.5 909.17 386.5 837.5 c
327.5 765.83 298 661.67 298 525 c
closepath } bind def
/s114 {
133 0 m
133 1062 133 0 133 1062 c
295 1062 133 1062 295 1062 c
295 901 295 1062 295 901 c
336.33 976.33 374.5 1026 409.5 1050 c
444.5 1074 483 1086 525 1086 c
585.67 1086 647.33 1066.67 710 1028 c
648 861 710 1028 648 861 c
604 887 560 900 516 900 c
476.67 900 441.33 888.17 410 864.5 c
378.67 840.83 356.33 808 343 766 c
323 702 313 632 313 556 c
313 0 313 556 313 0 c
133 0 313 0 133 0 c
closepath } bind def
/s118 {
430 0 m
26 1062 430 0 26 1062 c
216 1062 26 1062 216 1062 c
444 426 216 1062 444 426 c
468.67 357.33 491.33 286 512 212 c
528 268 550.33 335.33 579 414 c
815 1062 579 414 815 1062 c
1000 1062 815 1062 1000 1062 c
598 0 1000 1062 598 0 c
430 0 598 0 430 0 c
closepath } bind def
/s121 {
127 -409 m
107 -240 127 -409 107 -240 c
146.33 -250.67 180.67 -256 210 -256 c
250 -256 282 -249.33 306 -236 c
330 -222.67 349.67 -204 365 -180 c
376.33 -162 394.67 -117.33 420 -46 c
423.33 -36 428.67 -21.33 436 -2 c
33 1062 436 -2 33 1062 c
227 1062 33 1062 227 1062 c
448 447 227 1062 448 447 c
476.67 369 502.33 287 525 201 c
545.67 283.67 570.33 364.33 599 443 c
826 1062 599 443 826 1062 c
1006 1062 826 1062 1006 1062 c
602 -18 1006 1062 602 -18 c
558.67 -134.67 525 -215 501 -259 c
469 -318.33 432.33 -361.83 391 -389.5 c
349.67 -417.17 300.33 -431 243 -431 c
208.33 -431 169.67 -423.67 127 -409 c
closepath } bind def
end
/BuildGlyph {
 exch dup /Metrics get 2 index get 0 setcharwidth
/CharProcs get exch 2 copy known not{pop/.notdef}if get exec fill}bind def
/BuildChar {
1 index /Encoding get exch get
1 index /BuildGlyph get exec
} bind def
currentdict end /MC1_Arial exch definefont pop
%%EndFont
%%BeginFont: /MC2_Arial
12 dict begin
/FontInfo 8 dict dup begin
/ItalicAngle 0 def
/UnderlinePosition -217.00 def
/UnderlineThickness 150.00 def
/StrikeoutPosition 530.00 def
/StrikeoutThickness 102.00 def
/isFixedPitch false def
end readonly def
/FontName /MC2_Arial def
/FontType 3 def
/FontMatrix [1 2048 div 0 0 1 2048 div 0 0] def
/FontBBox [-1361 -665 4096 2129] def
/Encoding 256 array def 0 1 255{Encoding exch/.notdef put}for
Encoding 32/s32 put
Encoding 40/s40 put
Encoding 41/s41 put
Encoding 73/s73 put
Encoding 97/s97 put
Encoding 98/s98 put
Encoding 101/s101 put
Encoding 105/s105 put
Encoding 110/s110 put
Encoding 114/s114 put
Encoding 115/s115 put
Encoding 116/s116 put
Encoding 121/s121 put
/BoundingBoxes 14 dict def
BoundingBoxes begin
/s32 [0 -434 569 1854] def
/s40 [0 -434 682 1854] def
/s41 [0 -434 682 1854] def
/s73 [0 -434 569 1854] def
/s97 [0 -434 1139 1854] def
/s98 [0 -434 1139 1854] def
/s101 [0 -434 1139 1854] def
/s105 [0 -434 455 1854] def
/s110 [0 -434 1139 1854] def
/s114 [0 -434 682 1854] def
/s115 [0 -434 1024 1854] def
/s116 [0 -434 569 1854] def
/s121 [0 -434 1024 1854] def
end
/Metrics 14 dict def
 Metrics begin
/s32 569 def
/s40 682 def
/s41 682 def
/s73 569 def
/s97 1139 def
/s98 1139 def
/s101 1139 def
/s105 455 def
/s110 1139 def
/s114 682 def
/s115 1024 def
/s116 569 def
/s121 1024 def
end
/CharProcs 14 dict def
CharProcs begin
/.notdef {} def
/s40 {
479 -431 m
379.67 -305.67 295.67 -159 227 9 c
158.33 177 124 351 124 531 c
124 689.67 149.67 841.67 201 987 c
261 1155.67 353.67 1323.67 479 1491 c
608 1491 479 1491 608 1491 c
527.33 1352.33 474 1253.33 448 1194 c
407.33 1102 375.33 1006 352 906 c
323.33 781.33 309 656 309 530 c
309 209.33 408.67 -111 608 -431 c
479 -431 608 -431 479 -431 c
closepath } bind def
/s41 {
253 -431 m
124 -431 253 -431 124 -431 c
323.33 -111 423 209.33 423 530 c
423 655.33 408.67 779.67 380 903 c
357.33 1003 325.67 1099 285 1191 c
259 1251 205.33 1351 124 1491 c
253 1491 124 1491 253 1491 c
378.33 1323.67 471 1155.67 531 987 c
582.33 841.67 608 689.67 608 531 c
608 351 573.5 177 504.5 9 c
435.5 -159 351.67 -305.67 253 -431 c
closepath } bind def
/s73 {
191 0 m
191 1466 191 0 191 1466 c
385 1466 191 1466 385 1466 c
385 0 385 1466 385 0 c
191 0 385 0 191 0 c
closepath } bind def
/s97 {
828 131 m
761.33 74.33 697.17 34.33 635.5 11 c
573.83 -12.33 507.67 -24 437 -24 c
320.33 -24 230.67 4.5 168 61.5 c
105.33 118.5 74 191.33 74 280 c
74 332 85.83 379.5 109.5 422.5 c
133.17 465.5 164.17 500 202.5 526 c
240.83 552 284 571.67 332 585 c
367.33 594.33 420.67 603.33 492 612 c
637.33 629.33 744.33 650 813 674 c
813.67 698.67 814 714.33 814 721 c
814 794.33 797 846 763 876 c
717 916.67 648.67 937 558 937 c
473.33 937 410.83 922.17 370.5 892.5 c
330.17 862.83 300.33 810.33 281 735 c
105 759 281 735 105 759 c
121 834.33 147.33 895.17 184 941.5 c
220.67 987.83 273.67 1023.5 343 1048.5 c
412.33 1073.5 492.67 1086 584 1086 c
674.67 1086 748.33 1075.33 805 1054 c
861.67 1032.67 903.33 1005.83 930 973.5 c
956.67 941.17 975.33 900.33 986 851 c
992 820.33 995 765 995 685 c
995 445 995 685 995 445 c
995 277.67 998.83 171.83 1006.5 127.5 c
1014.17 83.17 1029.33 40.67 1052 0 c
864 0 1052 0 864 0 c
845.33 37.33 833.33 81 828 131 c
closepath 813 533 m
747.67 506.33 649.67 483.67 519 465 c
445 454.33 392.67 442.33 362 429 c
331.33 415.67 307.67 396.17 291 370.5 c
274.33 344.83 266 316.33 266 285 c
266 237 284.17 197 320.5 165 c
356.83 133 410 117 480 117 c
549.33 117 611 132.17 665 162.5 c
719 192.83 758.67 234.33 784 287 c
803.33 327.67 813 387.67 813 467 c
813 533 813 467 813 533 c
closepath } bind def
/s98 {
301 0 m
134 0 301 0 134 0 c
134 1466 134 0 134 1466 c
314 1466 134 1466 314 1466 c
314 943 314 1466 314 943 c
390 1038.33 487 1086 605 1086 c
670.33 1086 732.17 1072.83 790.5 1046.5 c
848.83 1020.17 896.83 983.17 934.5 935.5 c
972.17 887.83 1001.67 830.33 1023 763 c
1044.33 695.67 1055 623.67 1055 547 c
1055 365 1010 224.33 920 125 c
830 25.67 722 -24 596 -24 c
470.67 -24 372.33 28.33 301 133 c
301 0 301 133 301 0 c
closepath 299 539 m
299 411.67 316.33 319.67 351 263 c
407.67 170.33 484.33 124 581 124 c
659.67 124 727.67 158.17 785 226.5 c
842.33 294.83 871 396.67 871 532 c
871 670.67 843.5 773 788.5 839 c
733.5 905 667 938 589 938 c
510.33 938 442.33 903.83 385 835.5 c
327.67 767.17 299 668.33 299 539 c
closepath } bind def
/s101 {
862 342 m
1048 319 862 342 1048 319 c
1018.67 210.33 964.33 126 885 66 c
805.67 6 704.33 -24 581 -24 c
425.67 -24 302.5 23.83 211.5 119.5 c
120.5 215.17 75 349.33 75 522 c
75 700.67 121 839.33 213 938 c
305 1036.67 424.33 1086 571 1086 c
713 1086 829 1037.67 919 941 c
1009 844.33 1054 708.33 1054 533 c
1054 522.33 1053.67 506.33 1053 485 c
261 485 1053 485 261 485 c
267.67 368.33 300.67 279 360 217 c
419.33 155 493.33 124 582 124 c
648 124 704.33 141.33 751 176 c
797.67 210.67 834.67 266 862 342 c
closepath 271 633 m
864 633 271 633 864 633 c
856 722.33 833.33 789.33 796 834 c
738.67 903.33 664.33 938 573 938 c
490.33 938 420.83 910.33 364.5 855 c
308.17 799.67 277 725.67 271 633 c
closepath } bind def
/s105 {
136 1259 m
136 1466 136 1259 136 1466 c
316 1466 136 1466 316 1466 c
316 1259 316 1466 316 1259 c
136 1259 316 1259 136 1259 c
closepath 136 0 m
136 1062 136 0 136 1062 c
316 1062 136 1062 316 1062 c
316 0 316 1062 316 0 c
136 0 316 0 136 0 c
closepath } bind def
/s110 {
135 0 m
135 1062 135 0 135 1062 c
297 1062 135 1062 297 1062 c
297 911 297 1062 297 911 c
375 1027.67 487.67 1086 635 1086 c
699 1086 757.83 1074.5 811.5 1051.5 c
865.17 1028.5 905.33 998.33 932 961 c
958.67 923.67 977.33 879.33 988 828 c
994.67 794.67 998 736.33 998 653 c
998 0 998 653 998 0 c
818 0 998 0 818 0 c
818 646 818 0 818 646 c
818 719.33 811 774.17 797 810.5 c
783 846.83 758.17 875.83 722.5 897.5 c
686.83 919.17 645 930 597 930 c
520.33 930 454.17 905.67 398.5 857 c
342.83 808.33 315 716 315 580 c
315 0 315 580 315 0 c
135 0 315 0 135 0 c
closepath } bind def
/s114 {
133 0 m
133 1062 133 0 133 1062 c
295 1062 133 1062 295 1062 c
295 901 295 1062 295 901 c
336.33 976.33 374.5 1026 409.5 1050 c
444.5 1074 483 1086 525 1086 c
585.67 1086 647.33 1066.67 710 1028 c
648 861 710 1028 648 861 c
604 887 560 900 516 900 c
476.67 900 441.33 888.17 410 864.5 c
378.67 840.83 356.33 808 343 766 c
323 702 313 632 313 556 c
313 0 313 556 313 0 c
133 0 313 0 133 0 c
closepath } bind def
/s115 {
63 317 m
241 345 63 317 241 345 c
251 273.67 278.83 219 324.5 181 c
370.17 143 434 124 516 124 c
598.67 124 660 140.83 700 174.5 c
740 208.17 760 247.67 760 293 c
760 333.67 742.33 365.67 707 389 c
682.33 405 621 425.33 523 450 c
391 483.33 299.5 512.17 248.5 536.5 c
197.5 560.83 158.83 594.5 132.5 637.5 c
106.17 680.5 93 728 93 780 c
93 827.33 103.83 871.17 125.5 911.5 c
147.17 951.83 176.67 985.33 214 1012 c
242 1032.67 280.17 1050.17 328.5 1064.5 c
376.83 1078.83 428.67 1086 484 1086 c
567.33 1086 640.5 1074 703.5 1050 c
766.5 1026 813 993.5 843 952.5 c
873 911.5 893.67 856.67 905 788 c
729 764 905 788 729 764 c
721 818.67 697.83 861.33 659.5 892 c
621.17 922.67 567 938 497 938 c
414.33 938 355.33 924.33 320 897 c
284.67 869.67 267 837.67 267 801 c
267 777.67 274.33 756.67 289 738 c
303.67 718.67 326.67 702.67 358 690 c
376 683.33 429 668 517 644 c
644.33 610 733.17 582.17 783.5 560.5 c
833.83 538.83 873.33 507.33 902 466 c
930.67 424.67 945 373.33 945 312 c
945 252 927.5 195.5 892.5 142.5 c
857.5 89.5 807 48.5 741 19.5 c
675 -9.5 600.33 -24 517 -24 c
379 -24 273.83 4.67 201.5 62 c
129.17 119.33 83 204.33 63 317 c
closepath } bind def
/s116 {
528 161 m
554 2 528 161 554 2 c
503.33 -8.67 458 -14 418 -14 c
352.67 -14 302 -3.67 266 17 c
230 37.67 204.67 64.83 190 98.5 c
175.33 132.17 168 203 168 311 c
168 922 168 311 168 922 c
36 922 168 922 36 922 c
36 1062 36 922 36 1062 c
168 1062 36 1062 168 1062 c
168 1325 168 1062 168 1325 c
347 1433 168 1325 347 1433 c
347 1062 347 1433 347 1062 c
528 1062 347 1062 528 1062 c
528 922 528 1062 528 922 c
347 922 528 922 347 922 c
347 301 347 922 347 301 c
347 249.67 350.17 216.67 356.5 202 c
362.83 187.33 373.17 175.67 387.5 167 c
401.83 158.33 422.33 154 449 154 c
469 154 495.33 156.33 528 161 c
closepath } bind def
/s121 {
127 -409 m
107 -240 127 -409 107 -240 c
146.33 -250.67 180.67 -256 210 -256 c
250 -256 282 -249.33 306 -236 c
330 -222.67 349.67 -204 365 -180 c
376.33 -162 394.67 -117.33 420 -46 c
423.33 -36 428.67 -21.33 436 -2 c
33 1062 436 -2 33 1062 c
227 1062 33 1062 227 1062 c
448 447 227 1062 448 447 c
476.67 369 502.33 287 525 201 c
545.67 283.67 570.33 364.33 599 443 c
826 1062 599 443 826 1062 c
1006 1062 826 1062 1006 1062 c
602 -18 1006 1062 602 -18 c
558.67 -134.67 525 -215 501 -259 c
469 -318.33 432.33 -361.83 391 -389.5 c
349.67 -417.17 300.33 -431 243 -431 c
208.33 -431 169.67 -423.67 127 -409 c
closepath } bind def
end
/BuildGlyph {
 exch dup /Metrics get 2 index get 0 setcharwidth
/CharProcs get exch 2 copy known not{pop/.notdef}if get exec fill}bind def
/BuildChar {
1 index /Encoding get exch get
1 index /BuildGlyph get exec
} bind def
currentdict end /MC2_Arial exch definefont pop
%%EndFont
/clipproc{clippath{[{/m cvx}{/l cvx}{/c cvx}{/cp cvx}pathforall}stopped
{cleartomark[pathbbox exch 3 i sub exch 2 i sub/rectpath cvx}if]np}bd
/iclmtx mtx cmtx def/iclpath clipproc xd/clinit{pathproc initclip np iclpath cl np exec}bd
/clmove{pathproc 3 1 roll clippath pathproc 2 i neg 2 i neg tr initclip np exec cl tr np exec}bd
/clrect[gs np iclpath{pathbbox}stopped{0 0 771.85 590.88 }if gr]def
/cloper{mtx cmtx iclmtx smtx exch exec smtx}bd
/cland{{exch cvx exec}cloper}bd
/clcopy{{exch clinit cvx exec}cloper}bd
/cldiff{{exch pathbbox 4 -1 roll clrect 0 get 2 copy gt{exch}if pop 4 1 roll
 3 -1 roll clrect 1 get 2 copy gt{exch}if pop 3 1 roll
 2 -1 roll clrect 2 get 2 copy lt{exch}if pop 2 1 roll
 1 -1 roll clrect 3 get 2 copy lt{exch}if pop 1 1 roll
 exch 3 i sub exch 2 i sub rectpath cvx exec}cloper}bd
/icl{{clinit}cloper}bd
0.554822 0.554197 sc

/initmtx mtx cmtx def
initmtx smtx
[1.0000 0.0000 0.0000 1.0000 0.0000 0.0000 ] concat
 [0.432579 -0 0 -0.433071 0 1066.2] concat
gs
2769 2053 m
576 2053 l
7 sw
1 sj
2 scap
st
2623 2053 m
2623 2036 l
0 scap
st
2330 2053 m
2330 2036 l
st
2038 2053 m
2038 2036 l
st
1746 2053 m
1746 2036 l
st
1453 2053 m
1453 2036 l
st
1161 2053 m
1161 2036 l
st
868 2053 m
868 2036 l
st
576 2053 m
576 2036 l
st
2769 2053 m
2769 2019 l
st
2477 2053 m
2477 2019 l
st
2184 2053 m
2184 2019 l
st
1892 2053 m
1892 2019 l
st
1599 2053 m
1599 2019 l
st
1307 2053 m
1307 2019 l
st
1015 2053 m
1015 2019 l
st
722 2053 m
722 2019 l
st
2769 286 m
576 286 l
2 scap
st
2769 2053 m
2769 286 l
st
576 2053 m
576 286 l
st
576 2053 m
593 2053 l
0 scap
st
576 1700 m
593 1700 l
st
576 1346 m
593 1346 l
st
576 993 m
593 993 l
st
576 639 m
593 639 l
st
576 286 m
593 286 l
st
576 1876 m
610 1876 l
st
576 1523 m
610 1523 l
st
576 1169 m
610 1169 l
st
576 816 m
610 816 l
st
576 463 m
610 463 l
st
gs
gr
gs
gr
gs
1 -1 sc
/MC1_Arial 75 self 2727 -2150 m
(85)[41 41 ] xs
1 -1 sc
gr
gs
gr
gs
gr
gs
1 -1 sc
/MC1_Arial 75 self 2435 -2150 m
(90)[41 41 ] xs
1 -1 sc
gr
gs
gr
gs
gr
gs
1 -1 sc
/MC1_Arial 75 self 2142 -2150 m
(95)[41 41 ] xs
1 -1 sc
gr
gs
gr
gs
gr
gs
1 -1 sc
/MC1_Arial 75 self 1829 -2150 m
(100)[41 41 41 ] xs
1 -1 sc
gr
gs
gr
gs
gr
gs
1 -1 sc
/MC1_Arial 75 self 1536 -2150 m
(105)[41 41 41 ] xs
1 -1 sc
gr
gs
gr
gs
gr
gs
1 -1 sc
/MC1_Arial 75 self 1244 -2150 m
(110)[41 41 41 ] xs
1 -1 sc
gr
gs
gr
gs
gr
gs
1 -1 sc
/MC1_Arial 75 self 952 -2150 m
(115)[41 41 41 ] xs
1 -1 sc
gr
gs
gr
gs
gr
gs
1 -1 sc
/MC1_Arial 75 self 659 -2150 m
(120)[41 41 41 ] xs
1 -1 sc
gr
gs
gr
gs
gr
gs
1 -1 sc
/MC1_Arial 75 self 454 -1899 m
(50)[41 41 ] xs
1 -1 sc
gr
gs
gr
gs
gr
gs
1 -1 sc
/MC1_Arial 75 self 412 -1546 m
(100)[41 41 41 ] xs
1 -1 sc
gr
gs
gr
gs
gr
gs
1 -1 sc
/MC1_Arial 75 self 412 -1192 m
(150)[41 41 41 ] xs
1 -1 sc
gr
gs
gr
gs
gr
gs
1 -1 sc
/MC1_Arial 75 self 412 -839 m
(200)[41 41 41 ] xs
1 -1 sc
gr
gs
gr
gs
gr
gs
1 -1 sc
/MC1_Arial 75 self 412 -486 m
(250)[41 41 41 ] xs
1 -1 sc
gr
gs
gr
gs
gr
gs
gr
gs
gr
gs
gr
gs
gr
gs
gr
gs
gr
gs
gr
gs
gr
gs
gr
gs
gr
gs
gr
gs
gr
gs
gr
gs
gr
gs
gr
gs
gr
gs
gr
gs
gr
gs
gr
gs
gr
gs
gr
gs
gr
gs
gr
gs
gr
gs
gr
gs
gr
gs
gr
gs
gr
gs
gr
gs
gr
gs
gr
gs
gr
gs
gr
gs
pathproc 576 286 2194 1768 np rectpath
/eocl cland
np exec
0.318 0.318 0.318 rgb
775 1334 12 12 rectfill
610 463 m
1 sw
1 scap
775 1334 12 12 rectstroke
781 1309 12 12 rectfill
781 1309 12 12 rectstroke
786 1300 12 12 rectfill
786 1300 12 12 rectstroke
792 1435 12 12 rectfill
792 1435 12 12 rectstroke
798 1297 12 12 rectfill
798 1297 12 12 rectstroke
804 1427 12 12 rectfill
804 1427 12 12 rectstroke
810 1497 12 12 rectfill
810 1497 12 12 rectstroke
816 1557 12 12 rectfill
816 1557 12 12 rectstroke
821 1444 12 12 rectfill
821 1444 12 12 rectstroke
827 1281 12 12 rectfill
827 1281 12 12 rectstroke
833 1363 12 12 rectfill
833 1363 12 12 rectstroke
839 1319 12 12 rectfill
839 1319 12 12 rectstroke
845 1436 12 12 rectfill
845 1436 12 12 rectstroke
851 1387 12 12 rectfill
851 1387 12 12 rectstroke
857 1391 12 12 rectfill
857 1391 12 12 rectstroke
862 1450 12 12 rectfill
862 1450 12 12 rectstroke
868 1376 12 12 rectfill
868 1376 12 12 rectstroke
874 1363 12 12 rectfill
874 1363 12 12 rectstroke
880 1380 12 12 rectfill
880 1380 12 12 rectstroke
886 1425 12 12 rectfill
886 1425 12 12 rectstroke
892 1490 12 12 rectfill
892 1490 12 12 rectstroke
897 1396 12 12 rectfill
897 1396 12 12 rectstroke
903 1603 12 12 rectfill
903 1603 12 12 rectstroke
909 1466 12 12 rectfill
909 1466 12 12 rectstroke
915 1548 12 12 rectfill
915 1548 12 12 rectstroke
921 1452 12 12 rectfill
921 1452 12 12 rectstroke
927 1565 12 12 rectfill
927 1565 12 12 rectstroke
933 1469 12 12 rectfill
933 1469 12 12 rectstroke
938 1403 12 12 rectfill
938 1403 12 12 rectstroke
944 1422 12 12 rectfill
944 1422 12 12 rectstroke
950 1350 12 12 rectfill
950 1350 12 12 rectstroke
956 1453 12 12 rectfill
956 1453 12 12 rectstroke
962 1472 12 12 rectfill
962 1472 12 12 rectstroke
968 1655 12 12 rectfill
968 1655 12 12 rectstroke
974 1589 12 12 rectfill
974 1589 12 12 rectstroke
979 1639 12 12 rectfill
979 1639 12 12 rectstroke
985 1551 12 12 rectfill
985 1551 12 12 rectstroke
991 1560 12 12 rectfill
991 1560 12 12 rectstroke
997 1578 12 12 rectfill
997 1578 12 12 rectstroke
1003 1559 12 12 rectfill
1003 1559 12 12 rectstroke
1009 1547 12 12 rectfill
1009 1547 12 12 rectstroke
1014 1590 12 12 rectfill
1014 1590 12 12 rectstroke
1020 1491 12 12 rectfill
1020 1491 12 12 rectstroke
1026 1500 12 12 rectfill
1026 1500 12 12 rectstroke
1032 1561 12 12 rectfill
1032 1561 12 12 rectstroke
1038 1634 12 12 rectfill
1038 1634 12 12 rectstroke
1044 1618 12 12 rectfill
1044 1618 12 12 rectstroke
1050 1620 12 12 rectfill
1050 1620 12 12 rectstroke
1055 1597 12 12 rectfill
1055 1597 12 12 rectstroke
1061 1447 12 12 rectfill
1061 1447 12 12 rectstroke
1067 1568 12 12 rectfill
1067 1568 12 12 rectstroke
1073 1699 12 12 rectfill
1073 1699 12 12 rectstroke
1079 1806 12 12 rectfill
1079 1806 12 12 rectstroke
1085 1666 12 12 rectfill
1085 1666 12 12 rectstroke
1090 1802 12 12 rectfill
1090 1802 12 12 rectstroke
1096 1652 12 12 rectfill
1096 1652 12 12 rectstroke
1102 1663 12 12 rectfill
1102 1663 12 12 rectstroke
1108 1663 12 12 rectfill
1108 1663 12 12 rectstroke
1114 1728 12 12 rectfill
1114 1728 12 12 rectstroke
1120 1593 12 12 rectfill
1120 1593 12 12 rectstroke
1126 1598 12 12 rectfill
1126 1598 12 12 rectstroke
1131 1754 12 12 rectfill
1131 1754 12 12 rectstroke
1137 1756 12 12 rectfill
1137 1756 12 12 rectstroke
1143 1684 12 12 rectfill
1143 1684 12 12 rectstroke
1149 1602 12 12 rectfill
1149 1602 12 12 rectstroke
1155 1686 12 12 rectfill
1155 1686 12 12 rectstroke
1161 1711 12 12 rectfill
1161 1711 12 12 rectstroke
1166 1804 12 12 rectfill
1166 1804 12 12 rectstroke
1172 1741 12 12 rectfill
1172 1741 12 12 rectstroke
1178 1730 12 12 rectfill
1178 1730 12 12 rectstroke
1184 1640 12 12 rectfill
1184 1640 12 12 rectstroke
1190 1669 12 12 rectfill
1190 1669 12 12 rectstroke
1196 1662 12 12 rectfill
1196 1662 12 12 rectstroke
1202 1566 12 12 rectfill
1202 1566 12 12 rectstroke
1207 1762 12 12 rectfill
1207 1762 12 12 rectstroke
1213 1703 12 12 rectfill
1213 1703 12 12 rectstroke
1219 1679 12 12 rectfill
1219 1679 12 12 rectstroke
1225 1744 12 12 rectfill
1225 1744 12 12 rectstroke
1231 1596 12 12 rectfill
1231 1596 12 12 rectstroke
1237 1683 12 12 rectfill
1237 1683 12 12 rectstroke
1243 1859 12 12 rectfill
1243 1859 12 12 rectstroke
1248 1729 12 12 rectfill
1248 1729 12 12 rectstroke
1254 1836 12 12 rectfill
1254 1836 12 12 rectstroke
1260 1766 12 12 rectfill
1260 1766 12 12 rectstroke
1266 1720 12 12 rectfill
1266 1720 12 12 rectstroke
1272 1623 12 12 rectfill
1272 1623 12 12 rectstroke
1278 1597 12 12 rectfill
1278 1597 12 12 rectstroke
1283 1552 12 12 rectfill
1283 1552 12 12 rectstroke
1289 1651 12 12 rectfill
1289 1651 12 12 rectstroke
1295 1723 12 12 rectfill
1295 1723 12 12 rectstroke
1301 1666 12 12 rectfill
1301 1666 12 12 rectstroke
1307 1591 12 12 rectfill
1307 1591 12 12 rectstroke
1313 1669 12 12 rectfill
1313 1669 12 12 rectstroke
1319 1699 12 12 rectfill
1319 1699 12 12 rectstroke
1324 1686 12 12 rectfill
1324 1686 12 12 rectstroke
1330 1638 12 12 rectfill
1330 1638 12 12 rectstroke
1336 1836 12 12 rectfill
1336 1836 12 12 rectstroke
1342 1832 12 12 rectfill
1342 1832 12 12 rectstroke
1348 1741 12 12 rectfill
1348 1741 12 12 rectstroke
1354 1720 12 12 rectfill
1354 1720 12 12 rectstroke
1359 1756 12 12 rectfill
1359 1756 12 12 rectstroke
1365 1712 12 12 rectfill
1365 1712 12 12 rectstroke
1371 1771 12 12 rectfill
1371 1771 12 12 rectstroke
1377 1734 12 12 rectfill
1377 1734 12 12 rectstroke
1383 1711 12 12 rectfill
1383 1711 12 12 rectstroke
1389 1842 12 12 rectfill
1389 1842 12 12 rectstroke
1395 1720 12 12 rectfill
1395 1720 12 12 rectstroke
1400 1766 12 12 rectfill
1400 1766 12 12 rectstroke
1406 1769 12 12 rectfill
1406 1769 12 12 rectstroke
1412 1674 12 12 rectfill
1412 1674 12 12 rectstroke
1418 1752 12 12 rectfill
1418 1752 12 12 rectstroke
1424 1752 12 12 rectfill
1424 1752 12 12 rectstroke
1430 1684 12 12 rectfill
1430 1684 12 12 rectstroke
1436 1803 12 12 rectfill
1436 1803 12 12 rectstroke
1441 1788 12 12 rectfill
1441 1788 12 12 rectstroke
1447 1789 12 12 rectfill
1447 1789 12 12 rectstroke
1453 1768 12 12 rectfill
1453 1768 12 12 rectstroke
1459 1808 12 12 rectfill
1459 1808 12 12 rectstroke
1465 1760 12 12 rectfill
1465 1760 12 12 rectstroke
1471 1730 12 12 rectfill
1471 1730 12 12 rectstroke
1476 1635 12 12 rectfill
1476 1635 12 12 rectstroke
1482 1647 12 12 rectfill
1482 1647 12 12 rectstroke
1488 1643 12 12 rectfill
1488 1643 12 12 rectstroke
1494 1772 12 12 rectfill
1494 1772 12 12 rectstroke
1500 1690 12 12 rectfill
1500 1690 12 12 rectstroke
1506 1675 12 12 rectfill
1506 1675 12 12 rectstroke
1512 1597 12 12 rectfill
1512 1597 12 12 rectstroke
1517 1723 12 12 rectfill
1517 1723 12 12 rectstroke
1523 1507 12 12 rectfill
1523 1507 12 12 rectstroke
1529 1531 12 12 rectfill
1529 1531 12 12 rectstroke
1535 1581 12 12 rectfill
1535 1581 12 12 rectstroke
1541 1442 12 12 rectfill
1541 1442 12 12 rectstroke
1547 1363 12 12 rectfill
1547 1363 12 12 rectstroke
1552 1447 12 12 rectfill
1552 1447 12 12 rectstroke
1558 1397 12 12 rectfill
1558 1397 12 12 rectstroke
1564 1265 12 12 rectfill
1564 1265 12 12 rectstroke
1570 1134 12 12 rectfill
1570 1134 12 12 rectstroke
1576 1186 12 12 rectfill
1576 1186 12 12 rectstroke
1582 1017 12 12 rectfill
1582 1017 12 12 rectstroke
1588 950 12 12 rectfill
1588 950 12 12 rectstroke
1593 734 12 12 rectfill
1593 734 12 12 rectstroke
1599 895 12 12 rectfill
1599 895 12 12 rectstroke
1605 724 12 12 rectfill
1605 724 12 12 rectstroke
1611 652 12 12 rectfill
1611 652 12 12 rectstroke
1617 639 12 12 rectfill
1617 639 12 12 rectstroke
1623 543 12 12 rectfill
1623 543 12 12 rectstroke
1628 742 12 12 rectfill
1628 742 12 12 rectstroke
1634 469 12 12 rectfill
1634 469 12 12 rectstroke
1640 732 12 12 rectfill
1640 732 12 12 rectstroke
1646 817 12 12 rectfill
1646 817 12 12 rectstroke
1652 633 12 12 rectfill
1652 633 12 12 rectstroke
1658 461 12 12 rectfill
1658 461 12 12 rectstroke
1664 654 12 12 rectfill
1664 654 12 12 rectstroke
1669 554 12 12 rectfill
1669 554 12 12 rectstroke
1675 689 12 12 rectfill
1675 689 12 12 rectstroke
1681 825 12 12 rectfill
1681 825 12 12 rectstroke
1687 759 12 12 rectfill
1687 759 12 12 rectstroke
1693 829 12 12 rectfill
1693 829 12 12 rectstroke
1699 886 12 12 rectfill
1699 886 12 12 rectstroke
1705 923 12 12 rectfill
1705 923 12 12 rectstroke
1710 735 12 12 rectfill
1710 735 12 12 rectstroke
1716 826 12 12 rectfill
1716 826 12 12 rectstroke
1722 800 12 12 rectfill
1722 800 12 12 rectstroke
1728 1011 12 12 rectfill
1728 1011 12 12 rectstroke
1734 1209 12 12 rectfill
1734 1209 12 12 rectstroke
1740 990 12 12 rectfill
1740 990 12 12 rectstroke
1745 1037 12 12 rectfill
1745 1037 12 12 rectstroke
1751 1042 12 12 rectfill
1751 1042 12 12 rectstroke
1757 1110 12 12 rectfill
1757 1110 12 12 rectstroke
1763 1192 12 12 rectfill
1763 1192 12 12 rectstroke
1769 1166 12 12 rectfill
1769 1166 12 12 rectstroke
1775 1300 12 12 rectfill
1775 1300 12 12 rectstroke
1781 1340 12 12 rectfill
1781 1340 12 12 rectstroke
1786 1341 12 12 rectfill
1786 1341 12 12 rectstroke
1792 1140 12 12 rectfill
1792 1140 12 12 rectstroke
1798 1265 12 12 rectfill
1798 1265 12 12 rectstroke
1804 1377 12 12 rectfill
1804 1377 12 12 rectstroke
1810 1546 12 12 rectfill
1810 1546 12 12 rectstroke
1816 1462 12 12 rectfill
1816 1462 12 12 rectstroke
1821 1458 12 12 rectfill
1821 1458 12 12 rectstroke
1827 1373 12 12 rectfill
1827 1373 12 12 rectstroke
1833 1433 12 12 rectfill
1833 1433 12 12 rectstroke
1839 1457 12 12 rectfill
1839 1457 12 12 rectstroke
1845 1426 12 12 rectfill
1845 1426 12 12 rectstroke
1851 1490 12 12 rectfill
1851 1490 12 12 rectstroke
1857 1386 12 12 rectfill
1857 1386 12 12 rectstroke
1862 1628 12 12 rectfill
1862 1628 12 12 rectstroke
1868 1721 12 12 rectfill
1868 1721 12 12 rectstroke
1874 1458 12 12 rectfill
1874 1458 12 12 rectstroke
1880 1656 12 12 rectfill
1880 1656 12 12 rectstroke
1886 1563 12 12 rectfill
1886 1563 12 12 rectstroke
1892 1521 12 12 rectfill
1892 1521 12 12 rectstroke
1897 1668 12 12 rectfill
1897 1668 12 12 rectstroke
1903 1675 12 12 rectfill
1903 1675 12 12 rectstroke
1909 1579 12 12 rectfill
1909 1579 12 12 rectstroke
1915 1635 12 12 rectfill
1915 1635 12 12 rectstroke
1921 1607 12 12 rectfill
1921 1607 12 12 rectstroke
1927 1362 12 12 rectfill
1927 1362 12 12 rectstroke
1933 1532 12 12 rectfill
1933 1532 12 12 rectstroke
1938 1510 12 12 rectfill
1938 1510 12 12 rectstroke
1944 1495 12 12 rectfill
1944 1495 12 12 rectstroke
1950 1614 12 12 rectfill
1950 1614 12 12 rectstroke
1956 1532 12 12 rectfill
1956 1532 12 12 rectstroke
1962 1592 12 12 rectfill
1962 1592 12 12 rectstroke
1968 1638 12 12 rectfill
1968 1638 12 12 rectstroke
1974 1664 12 12 rectfill
1974 1664 12 12 rectstroke
1979 1659 12 12 rectfill
1979 1659 12 12 rectstroke
1985 1730 12 12 rectfill
1985 1730 12 12 rectstroke
1991 1703 12 12 rectfill
1991 1703 12 12 rectstroke
1997 1567 12 12 rectfill
1997 1567 12 12 rectstroke
2003 1675 12 12 rectfill
2003 1675 12 12 rectstroke
2009 1639 12 12 rectfill
2009 1639 12 12 rectstroke
2014 1604 12 12 rectfill
2014 1604 12 12 rectstroke
2020 1555 12 12 rectfill
2020 1555 12 12 rectstroke
2026 1654 12 12 rectfill
2026 1654 12 12 rectstroke
2032 1656 12 12 rectfill
2032 1656 12 12 rectstroke
2038 1718 12 12 rectfill
2038 1718 12 12 rectstroke
2044 1783 12 12 rectfill
2044 1783 12 12 rectstroke
2050 1852 12 12 rectfill
2050 1852 12 12 rectstroke
2055 1773 12 12 rectfill
2055 1773 12 12 rectstroke
2061 1743 12 12 rectfill
2061 1743 12 12 rectstroke
2067 1759 12 12 rectfill
2067 1759 12 12 rectstroke
2073 1722 12 12 rectfill
2073 1722 12 12 rectstroke
2079 1759 12 12 rectfill
2079 1759 12 12 rectstroke
2085 1836 12 12 rectfill
2085 1836 12 12 rectstroke
2090 1706 12 12 rectfill
2090 1706 12 12 rectstroke
2096 1680 12 12 rectfill
2096 1680 12 12 rectstroke
2102 1711 12 12 rectfill
2102 1711 12 12 rectstroke
2108 1771 12 12 rectfill
2108 1771 12 12 rectstroke
2114 1720 12 12 rectfill
2114 1720 12 12 rectstroke
2120 1786 12 12 rectfill
2120 1786 12 12 rectstroke
2126 1739 12 12 rectfill
2126 1739 12 12 rectstroke
2131 1785 12 12 rectfill
2131 1785 12 12 rectstroke
2137 1872 12 12 rectfill
2137 1872 12 12 rectstroke
2143 1795 12 12 rectfill
2143 1795 12 12 rectstroke
2149 1765 12 12 rectfill
2149 1765 12 12 rectstroke
2155 1690 12 12 rectfill
2155 1690 12 12 rectstroke
2161 1729 12 12 rectfill
2161 1729 12 12 rectstroke
2167 1722 12 12 rectfill
2167 1722 12 12 rectstroke
2172 1734 12 12 rectfill
2172 1734 12 12 rectstroke
2178 1908 12 12 rectfill
2178 1908 12 12 rectstroke
2184 1825 12 12 rectfill
2184 1825 12 12 rectstroke
2190 1824 12 12 rectfill
2190 1824 12 12 rectstroke
2196 1719 12 12 rectfill
2196 1719 12 12 rectstroke
2202 1709 12 12 rectfill
2202 1709 12 12 rectstroke
2207 1782 12 12 rectfill
2207 1782 12 12 rectstroke
2213 1768 12 12 rectfill
2213 1768 12 12 rectstroke
2219 1737 12 12 rectfill
2219 1737 12 12 rectstroke
2225 1864 12 12 rectfill
2225 1864 12 12 rectstroke
2231 1809 12 12 rectfill
2231 1809 12 12 rectstroke
2237 1770 12 12 rectfill
2237 1770 12 12 rectstroke
2243 1700 12 12 rectfill
2243 1700 12 12 rectstroke
2248 1735 12 12 rectfill
2248 1735 12 12 rectstroke
2254 1758 12 12 rectfill
2254 1758 12 12 rectstroke
2260 1824 12 12 rectfill
2260 1824 12 12 rectstroke
2266 1688 12 12 rectfill
2266 1688 12 12 rectstroke
2272 1625 12 12 rectfill
2272 1625 12 12 rectstroke
2278 1742 12 12 rectfill
2278 1742 12 12 rectstroke
2283 1731 12 12 rectfill
2283 1731 12 12 rectstroke
2289 1776 12 12 rectfill
2289 1776 12 12 rectstroke
2295 1748 12 12 rectfill
2295 1748 12 12 rectstroke
2301 1740 12 12 rectfill
2301 1740 12 12 rectstroke
2307 1669 12 12 rectfill
2307 1669 12 12 rectstroke
2313 1724 12 12 rectfill
2313 1724 12 12 rectstroke
2319 1708 12 12 rectfill
2319 1708 12 12 rectstroke
2324 1630 12 12 rectfill
2324 1630 12 12 rectstroke
2330 1669 12 12 rectfill
2330 1669 12 12 rectstroke
2336 1603 12 12 rectfill
2336 1603 12 12 rectstroke
2342 1763 12 12 rectfill
2342 1763 12 12 rectstroke
2348 1613 12 12 rectfill
2348 1613 12 12 rectstroke
2354 1648 12 12 rectfill
2354 1648 12 12 rectstroke
2359 1664 12 12 rectfill
2359 1664 12 12 rectstroke
2365 1627 12 12 rectfill
2365 1627 12 12 rectstroke
2371 1686 12 12 rectfill
2371 1686 12 12 rectstroke
2377 1662 12 12 rectfill
2377 1662 12 12 rectstroke
2383 1715 12 12 rectfill
2383 1715 12 12 rectstroke
2389 1871 12 12 rectfill
2389 1871 12 12 rectstroke
2395 1733 12 12 rectfill
2395 1733 12 12 rectstroke
2400 1622 12 12 rectfill
2400 1622 12 12 rectstroke
2406 1675 12 12 rectfill
2406 1675 12 12 rectstroke
2412 1541 12 12 rectfill
2412 1541 12 12 rectstroke
2418 1661 12 12 rectfill
2418 1661 12 12 rectstroke
2424 1662 12 12 rectfill
2424 1662 12 12 rectstroke
2430 1711 12 12 rectfill
2430 1711 12 12 rectstroke
2436 1636 12 12 rectfill
2436 1636 12 12 rectstroke
2441 1701 12 12 rectfill
2441 1701 12 12 rectstroke
2447 1700 12 12 rectfill
2447 1700 12 12 rectstroke
2453 1721 12 12 rectfill
2453 1721 12 12 rectstroke
2459 1760 12 12 rectfill
2459 1760 12 12 rectstroke
2465 1687 12 12 rectfill
2465 1687 12 12 rectstroke
2471 1783 12 12 rectfill
2471 1783 12 12 rectstroke
2476 1720 12 12 rectfill
2476 1720 12 12 rectstroke
2482 1814 12 12 rectfill
2482 1814 12 12 rectstroke
2488 1722 12 12 rectfill
2488 1722 12 12 rectstroke
2494 1715 12 12 rectfill
2494 1715 12 12 rectstroke
2500 1593 12 12 rectfill
2500 1593 12 12 rectstroke
2506 1731 12 12 rectfill
2506 1731 12 12 rectstroke
2512 1717 12 12 rectfill
2512 1717 12 12 rectstroke
2517 1740 12 12 rectfill
2517 1740 12 12 rectstroke
2523 1701 12 12 rectfill
2523 1701 12 12 rectstroke
2529 1773 12 12 rectfill
2529 1773 12 12 rectstroke
gr
gs
pathproc 576 286 2194 1768 np rectpath
/eocl cland
np exec
781 1340 m
787 1315 l
792 1306 l
798 1441 l
804 1303 l
810 1433 l
816 1503 l
822 1563 l
827 1450 l
833 1286 l
839 1369 l
845 1325 l
851 1442 l
857 1393 l
863 1397 l
868 1456 l
874 1382 l
880 1369 l
886 1386 l
892 1431 l
898 1496 l
903 1402 l
909 1609 l
915 1472 l
921 1554 l
927 1458 l
933 1571 l
939 1475 l
944 1409 l
950 1428 l
956 1356 l
962 1459 l
968 1478 l
974 1661 l
980 1594 l
985 1645 l
991 1557 l
997 1566 l
1003 1583 l
1009 1565 l
1015 1553 l
1020 1596 l
1026 1496 l
1032 1505 l
1038 1567 l
1044 1640 l
1050 1624 l
1056 1626 l
1061 1602 l
1067 1453 l
1073 1574 l
1079 1705 l
1085 1812 l
1091 1671 l
1096 1808 l
1102 1658 l
1108 1668 l
1114 1669 l
1120 1734 l
1126 1599 l
1132 1604 l
1137 1759 l
1143 1762 l
1149 1689 l
1155 1608 l
1161 1692 l
1167 1717 l
1172 1810 l
1178 1746 l
1184 1736 l
1190 1645 l
1196 1675 l
1202 1667 l
1208 1571 l
1213 1768 l
1219 1720 l
1225 1720 l
1231 1721 l
1237 1721 l
1243 1721 l
1249 1721 l
1254 1721 l
1260 1722 l
1266 1722 l
1272 1722 l
1278 1722 l
1284 1722 l
1289 1723 l
1295 1723 l
1301 1723 l
1307 1723 l
1313 1723 l
1319 1724 l
1325 1724 l
1330 1724 l
1336 1724 l
1342 1724 l
1348 1725 l
1354 1725 l
1360 1725 l
1365 1725 l
1371 1725 l
1377 1725 l
1383 1725 l
1389 1726 l
1395 1726 l
1401 1726 l
1406 1726 l
1412 1726 l
1418 1725 l
1424 1725 l
1430 1725 l
1436 1725 l
1442 1724 l
1447 1723 l
1453 1722 l
1459 1721 l
1465 1720 l
1471 1717 l
1477 1715 l
1482 1711 l
1488 1707 l
1494 1701 l
1500 1694 l
1506 1685 l
1512 1674 l
1518 1660 l
1523 1642 l
1529 1621 l
1535 1595 l
1541 1565 l
1547 1529 l
1553 1488 l
1558 1442 l
1564 1390 l
1570 1335 l
1576 1276 l
1582 1216 l
1588 1155 l
1594 1097 l
1599 1043 l
1605 995 l
1611 956 l
1617 926 l
1623 909 l
1629 904 l
1634 911 l
1640 931 l
1646 962 l
1652 1003 l
1658 1053 l
1664 1108 l
1670 1168 l
1675 1229 l
1681 1290 l
1687 1349 l
1693 1405 l
1699 1456 l
1705 1503 l
1711 1544 l
1716 1579 l
1722 1610 l
1728 1636 l
1734 1657 l
1740 1675 l
1746 1689 l
1751 1701 l
1757 1710 l
1763 1718 l
1769 1724 l
1775 1729 l
1781 1732 l
1787 1736 l
1792 1738 l
1798 1740 l
1804 1742 l
1810 1743 l
1816 1744 l
1822 1745 l
1827 1746 l
1833 1747 l
1839 1748 l
1845 1748 l
1851 1749 l
1857 1749 l
1863 1750 l
1868 1750 l
1874 1750 l
1880 1750 l
1886 1751 l
1892 1751 l
1898 1751 l
1903 1751 l
1909 1752 l
1915 1752 l
1921 1752 l
1927 1752 l
1933 1752 l
1939 1752 l
1944 1752 l
1950 1753 l
1956 1753 l
1962 1753 l
1968 1753 l
1974 1753 l
1980 1753 l
1985 1753 l
1991 1753 l
1997 1753 l
2003 1753 l
2009 1753 l
2015 1753 l
2020 1754 l
2026 1754 l
2032 1754 l
2038 1754 l
2044 1754 l
2050 1754 l
2056 1754 l
2061 1754 l
2067 1754 l
2073 1754 l
2079 1754 l
2085 1754 l
2091 1754 l
2096 1754 l
2102 1754 l
2108 1754 l
2114 1754 l
2120 1754 l
2126 1754 l
2132 1754 l
2137 1754 l
2143 1754 l
2149 1754 l
2155 1754 l
2161 1754 l
2167 1754 l
2173 1754 l
2178 1754 l
2184 1754 l
2190 1754 l
2196 1755 l
2202 1755 l
2208 1755 l
2213 1755 l
2219 1755 l
2225 1755 l
2231 1755 l
2237 1755 l
2243 1755 l
2249 1755 l
2254 1755 l
2260 1755 l
2266 1755 l
2272 1755 l
2278 1755 l
2284 1755 l
2289 1755 l
2295 1755 l
2301 1755 l
2307 1755 l
2313 1755 l
2319 1755 l
2325 1755 l
2330 1755 l
2336 1755 l
2342 1755 l
2348 1755 l
2354 1755 l
2360 1755 l
2365 1755 l
2371 1755 l
2377 1755 l
2383 1755 l
2389 1755 l
2395 1876 l
2401 1739 l
2406 1628 l
2412 1681 l
2418 1547 l
2424 1667 l
2430 1668 l
2436 1717 l
2442 1642 l
2447 1706 l
2453 1706 l
2459 1727 l
2465 1766 l
2471 1693 l
2477 1789 l
2482 1726 l
2488 1820 l
2494 1728 l
2500 1720 l
2506 1599 l
2512 1737 l
2518 1723 l
2523 1746 l
2529 1707 l
2535 1779 l
5 sw
0.945 0.251 0.251 rgb
1 scap
st
gr
gs
pathproc 576 286 2194 1768 np rectpath
/eocl cland
np exec
781 1340 m
787 1315 l
792 1306 l
798 1441 l
804 1303 l
810 1433 l
816 1503 l
822 1563 l
827 1450 l
833 1286 l
839 1369 l
845 1325 l
851 1442 l
857 1393 l
863 1397 l
868 1456 l
874 1382 l
880 1369 l
886 1386 l
892 1431 l
898 1496 l
903 1402 l
909 1609 l
915 1472 l
921 1554 l
927 1458 l
933 1571 l
939 1475 l
944 1409 l
950 1428 l
956 1356 l
962 1458 l
968 1478 l
974 1661 l
980 1594 l
985 1645 l
991 1557 l
997 1566 l
1003 1583 l
1009 1565 l
1015 1553 l
1020 1595 l
1026 1496 l
1032 1505 l
1038 1567 l
1044 1640 l
1050 1624 l
1056 1626 l
1061 1602 l
1067 1453 l
1073 1574 l
1079 1705 l
1085 1812 l
1091 1671 l
1096 1808 l
1102 1658 l
1108 1668 l
1114 1669 l
1120 1734 l
1126 1598 l
1132 1603 l
1137 1759 l
1143 1762 l
1149 1689 l
1155 1608 l
1161 1692 l
1167 1717 l
1172 1809 l
1178 1746 l
1184 1735 l
1190 1645 l
1196 1675 l
1202 1667 l
1208 1571 l
1213 1768 l
1219 1720 l
1225 1720 l
1231 1720 l
1237 1720 l
1243 1721 l
1249 1721 l
1254 1721 l
1260 1721 l
1266 1721 l
1272 1722 l
1278 1722 l
1284 1722 l
1289 1722 l
1295 1723 l
1301 1723 l
1307 1723 l
1313 1723 l
1319 1723 l
1325 1724 l
1330 1724 l
1336 1724 l
1342 1724 l
1348 1724 l
1354 1725 l
1360 1725 l
1365 1725 l
1371 1725 l
1377 1725 l
1383 1726 l
1389 1726 l
1395 1726 l
1401 1726 l
1406 1726 l
1412 1726 l
1418 1726 l
1424 1726 l
1430 1726 l
1436 1726 l
1442 1726 l
1447 1726 l
1453 1726 l
1459 1726 l
1465 1726 l
1471 1725 l
1477 1725 l
1482 1724 l
1488 1723 l
1494 1722 l
1500 1721 l
1506 1720 l
1512 1718 l
1518 1716 l
1523 1713 l
1529 1710 l
1535 1707 l
1541 1702 l
1547 1697 l
1553 1691 l
1558 1684 l
1564 1676 l
1570 1666 l
1576 1655 l
1582 1642 l
1588 1628 l
1594 1612 l
1599 1593 l
1605 1573 l
1611 1551 l
1617 1527 l
1623 1500 l
1629 1472 l
1634 1442 l
1640 1410 l
1646 1378 l
1652 1344 l
1658 1310 l
1664 1276 l
1670 1243 l
1675 1211 l
1681 1180 l
1687 1152 l
1693 1127 l
1699 1106 l
1705 1088 l
1711 1074 l
1716 1066 l
1722 1061 l
1728 1062 l
1734 1068 l
1740 1078 l
1746 1093 l
1751 1112 l
1757 1135 l
1763 1162 l
1769 1191 l
1775 1222 l
1781 1255 l
1787 1289 l
1792 1323 l
1798 1357 l
1804 1391 l
1810 1424 l
1816 1456 l
1822 1486 l
1827 1514 l
1833 1540 l
1839 1565 l
1845 1587 l
1851 1607 l
1857 1625 l
1863 1642 l
1868 1656 l
1874 1669 l
1880 1680 l
1886 1690 l
1892 1698 l
1898 1706 l
1903 1712 l
1909 1717 l
1915 1722 l
1921 1726 l
1927 1730 l
1933 1733 l
1939 1735 l
1944 1737 l
1950 1739 l
1956 1741 l
1962 1742 l
1968 1743 l
1974 1744 l
1980 1745 l
1985 1746 l
1991 1747 l
1997 1747 l
2003 1748 l
2009 1748 l
2015 1749 l
2020 1749 l
2026 1750 l
2032 1750 l
2038 1750 l
2044 1751 l
2050 1751 l
2056 1751 l
2061 1751 l
2067 1751 l
2073 1752 l
2079 1752 l
2085 1752 l
2091 1752 l
2096 1752 l
2102 1752 l
2108 1753 l
2114 1753 l
2120 1753 l
2126 1753 l
2132 1753 l
2137 1753 l
2143 1753 l
2149 1753 l
2155 1753 l
2161 1753 l
2167 1753 l
2173 1753 l
2178 1753 l
2184 1754 l
2190 1754 l
2196 1754 l
2202 1754 l
2208 1754 l
2213 1754 l
2219 1754 l
2225 1754 l
2231 1754 l
2237 1754 l
2243 1754 l
2249 1754 l
2254 1754 l
2260 1754 l
2266 1754 l
2272 1754 l
2278 1754 l
2284 1754 l
2289 1754 l
2295 1754 l
2301 1754 l
2307 1754 l
2313 1755 l
2319 1755 l
2325 1755 l
2330 1755 l
2336 1755 l
2342 1755 l
2348 1755 l
2354 1755 l
2360 1755 l
2365 1755 l
2371 1755 l
2377 1755 l
2383 1755 l
2389 1755 l
2395 1876 l
2401 1739 l
2406 1628 l
2412 1681 l
2418 1547 l
2424 1667 l
2430 1668 l
2436 1717 l
2442 1642 l
2447 1706 l
2453 1706 l
2459 1727 l
2465 1766 l
2471 1693 l
2477 1789 l
2482 1726 l
2488 1820 l
2494 1727 l
2500 1720 l
2506 1598 l
2512 1737 l
2518 1722 l
2523 1746 l
2529 1707 l
2535 1779 l
5 sw
0.102 0.435 0.875 rgb
1 scap
st
gr
gs
pathproc 576 286 2194 1768 np rectpath
/eocl cland
np exec
781 1340 m
787 1315 l
792 1306 l
798 1441 l
804 1303 l
810 1433 l
816 1503 l
822 1563 l
827 1450 l
833 1287 l
839 1369 l
845 1325 l
851 1442 l
857 1393 l
863 1397 l
868 1456 l
874 1382 l
880 1369 l
886 1386 l
892 1431 l
898 1496 l
903 1402 l
909 1609 l
915 1472 l
921 1554 l
927 1458 l
933 1571 l
939 1475 l
944 1409 l
950 1428 l
956 1356 l
962 1459 l
968 1478 l
974 1661 l
980 1595 l
985 1645 l
991 1557 l
997 1566 l
1003 1583 l
1009 1565 l
1015 1553 l
1020 1596 l
1026 1497 l
1032 1505 l
1038 1567 l
1044 1640 l
1050 1624 l
1056 1626 l
1061 1603 l
1067 1453 l
1073 1574 l
1079 1705 l
1085 1812 l
1091 1672 l
1096 1808 l
1102 1658 l
1108 1669 l
1114 1669 l
1120 1734 l
1126 1599 l
1132 1604 l
1137 1760 l
1143 1762 l
1149 1690 l
1155 1608 l
1161 1692 l
1167 1717 l
1172 1810 l
1178 1747 l
1184 1736 l
1190 1646 l
1196 1675 l
1202 1668 l
1208 1572 l
1213 1768 l
1219 1721 l
1225 1721 l
1231 1721 l
1237 1721 l
1243 1722 l
1249 1722 l
1254 1722 l
1260 1722 l
1266 1723 l
1272 1723 l
1278 1723 l
1284 1723 l
1289 1724 l
1295 1724 l
1301 1724 l
1307 1724 l
1313 1725 l
1319 1725 l
1325 1725 l
1330 1726 l
1336 1726 l
1342 1726 l
1348 1726 l
1354 1727 l
1360 1727 l
1365 1727 l
1371 1728 l
1377 1728 l
1383 1728 l
1389 1729 l
1395 1729 l
1401 1729 l
1406 1730 l
1412 1730 l
1418 1731 l
1424 1731 l
1430 1731 l
1436 1732 l
1442 1732 l
1447 1732 l
1453 1733 l
1459 1733 l
1465 1734 l
1471 1734 l
1477 1734 l
1482 1735 l
1488 1735 l
1494 1736 l
1500 1736 l
1506 1737 l
1512 1737 l
1518 1737 l
1523 1738 l
1529 1738 l
1535 1739 l
1541 1739 l
1547 1740 l
1553 1740 l
1558 1740 l
1564 1741 l
1570 1741 l
1576 1742 l
1582 1742 l
1588 1743 l
1594 1743 l
1599 1743 l
1605 1744 l
1611 1744 l
1617 1744 l
1623 1745 l
1629 1745 l
1634 1745 l
1640 1746 l
1646 1746 l
1652 1746 l
1658 1746 l
1664 1747 l
1670 1747 l
1675 1747 l
1681 1747 l
1687 1747 l
1693 1747 l
1699 1747 l
1705 1747 l
1711 1747 l
1716 1747 l
1722 1747 l
1728 1746 l
1734 1746 l
1740 1745 l
1746 1744 l
1751 1744 l
1757 1743 l
1763 1741 l
1769 1740 l
1775 1738 l
1781 1736 l
1787 1734 l
1792 1731 l
1798 1727 l
1804 1724 l
1810 1720 l
1816 1715 l
1822 1709 l
1827 1704 l
1833 1697 l
1839 1690 l
1845 1683 l
1851 1675 l
1857 1667 l
1863 1659 l
1868 1651 l
1874 1643 l
1880 1634 l
1886 1627 l
1892 1619 l
1898 1613 l
1903 1607 l
1909 1602 l
1915 1598 l
1921 1595 l
1927 1594 l
1933 1593 l
1939 1594 l
1944 1597 l
1950 1600 l
1956 1605 l
1962 1610 l
1968 1617 l
1974 1624 l
1980 1631 l
1985 1639 l
1991 1648 l
1997 1656 l
2003 1665 l
2009 1673 l
2015 1681 l
2020 1688 l
2026 1696 l
2032 1702 l
2038 1708 l
2044 1714 l
2050 1719 l
2056 1724 l
2061 1728 l
2067 1731 l
2073 1735 l
2079 1737 l
2085 1740 l
2091 1742 l
2096 1744 l
2102 1745 l
2108 1746 l
2114 1747 l
2120 1748 l
2126 1749 l
2132 1750 l
2137 1750 l
2143 1751 l
2149 1751 l
2155 1752 l
2161 1752 l
2167 1752 l
2173 1753 l
2178 1753 l
2184 1753 l
2190 1753 l
2196 1753 l
2202 1753 l
2208 1754 l
2213 1754 l
2219 1754 l
2225 1754 l
2231 1754 l
2237 1754 l
2243 1754 l
2249 1754 l
2254 1754 l
2260 1754 l
2266 1754 l
2272 1754 l
2278 1754 l
2284 1754 l
2289 1754 l
2295 1755 l
2301 1755 l
2307 1755 l
2313 1755 l
2319 1755 l
2325 1755 l
2330 1755 l
2336 1755 l
2342 1755 l
2348 1755 l
2354 1755 l
2360 1755 l
2365 1755 l
2371 1755 l
2377 1755 l
2383 1755 l
2389 1755 l
2395 1876 l
2401 1739 l
2406 1628 l
2412 1681 l
2418 1547 l
2424 1667 l
2430 1668 l
2436 1717 l
2442 1642 l
2447 1706 l
2453 1706 l
2459 1727 l
2465 1766 l
2471 1693 l
2477 1789 l
2482 1726 l
2488 1820 l
2494 1728 l
2500 1720 l
2506 1599 l
2512 1737 l
2518 1723 l
2523 1746 l
2529 1707 l
2535 1779 l
5 sw
0.216 0.678 0.42 rgb
1 scap
st
gr
gs
pathproc 576 286 2194 1768 np rectpath
/eocl cland
np exec
781 1340 m
787 1315 l
792 1306 l
798 1441 l
804 1303 l
810 1433 l
816 1503 l
822 1563 l
827 1450 l
833 1287 l
839 1369 l
845 1325 l
851 1442 l
857 1393 l
863 1397 l
868 1456 l
874 1382 l
880 1369 l
886 1386 l
892 1431 l
898 1496 l
903 1402 l
909 1609 l
915 1472 l
921 1554 l
927 1458 l
933 1571 l
939 1475 l
944 1409 l
950 1428 l
956 1356 l
962 1459 l
968 1478 l
974 1661 l
980 1595 l
985 1645 l
991 1557 l
997 1566 l
1003 1584 l
1009 1565 l
1015 1553 l
1020 1596 l
1026 1497 l
1032 1506 l
1038 1567 l
1044 1640 l
1050 1624 l
1056 1626 l
1061 1603 l
1067 1453 l
1073 1574 l
1079 1705 l
1085 1812 l
1091 1672 l
1096 1808 l
1102 1658 l
1108 1669 l
1114 1669 l
1120 1734 l
1126 1599 l
1132 1604 l
1137 1760 l
1143 1762 l
1149 1690 l
1155 1608 l
1161 1692 l
1167 1717 l
1172 1810 l
1178 1747 l
1184 1736 l
1190 1646 l
1196 1675 l
1202 1668 l
1208 1572 l
1213 1768 l
1219 1721 l
1225 1721 l
1231 1721 l
1237 1721 l
1243 1722 l
1249 1722 l
1254 1722 l
1260 1722 l
1266 1723 l
1272 1723 l
1278 1723 l
1284 1723 l
1289 1724 l
1295 1724 l
1301 1724 l
1307 1724 l
1313 1725 l
1319 1725 l
1325 1725 l
1330 1726 l
1336 1726 l
1342 1726 l
1348 1727 l
1354 1727 l
1360 1727 l
1365 1728 l
1371 1728 l
1377 1728 l
1383 1729 l
1389 1729 l
1395 1729 l
1401 1730 l
1406 1730 l
1412 1730 l
1418 1731 l
1424 1731 l
1430 1731 l
1436 1732 l
1442 1732 l
1447 1733 l
1453 1733 l
1459 1733 l
1465 1734 l
1471 1734 l
1477 1735 l
1482 1735 l
1488 1736 l
1494 1736 l
1500 1736 l
1506 1737 l
1512 1737 l
1518 1738 l
1523 1738 l
1529 1739 l
1535 1739 l
1541 1740 l
1547 1740 l
1553 1740 l
1558 1741 l
1564 1741 l
1570 1742 l
1576 1742 l
1582 1743 l
1588 1743 l
1594 1744 l
1599 1744 l
1605 1744 l
1611 1745 l
1617 1745 l
1623 1746 l
1629 1746 l
1634 1746 l
1640 1747 l
1646 1747 l
1652 1747 l
1658 1748 l
1664 1748 l
1670 1748 l
1675 1748 l
1681 1749 l
1687 1749 l
1693 1749 l
1699 1749 l
1705 1750 l
1711 1750 l
1716 1750 l
1722 1750 l
1728 1751 l
1734 1751 l
1740 1751 l
1746 1751 l
1751 1751 l
1757 1751 l
1763 1751 l
1769 1752 l
1775 1752 l
1781 1752 l
1787 1752 l
1792 1752 l
1798 1752 l
1804 1752 l
1810 1752 l
1816 1752 l
1822 1753 l
1827 1753 l
1833 1753 l
1839 1753 l
1845 1753 l
1851 1753 l
1857 1753 l
1863 1753 l
1868 1753 l
1874 1753 l
1880 1753 l
1886 1753 l
1892 1753 l
1898 1753 l
1903 1753 l
1909 1754 l
1915 1754 l
1921 1754 l
1927 1754 l
1933 1754 l
1939 1754 l
1944 1754 l
1950 1754 l
1956 1754 l
1962 1754 l
1968 1754 l
1974 1754 l
1980 1754 l
1985 1754 l
1991 1754 l
1997 1754 l
2003 1754 l
2009 1754 l
2015 1754 l
2020 1754 l
2026 1754 l
2032 1754 l
2038 1754 l
2044 1754 l
2050 1754 l
2056 1754 l
2061 1754 l
2067 1754 l
2073 1754 l
2079 1754 l
2085 1754 l
2091 1754 l
2096 1754 l
2102 1754 l
2108 1754 l
2114 1754 l
2120 1754 l
2126 1755 l
2132 1755 l
2137 1755 l
2143 1755 l
2149 1755 l
2155 1755 l
2161 1755 l
2167 1755 l
2173 1755 l
2178 1755 l
2184 1755 l
2190 1755 l
2196 1755 l
2202 1755 l
2208 1755 l
2213 1755 l
2219 1755 l
2225 1755 l
2231 1755 l
2237 1755 l
2243 1755 l
2249 1755 l
2254 1755 l
2260 1755 l
2266 1755 l
2272 1755 l
2278 1755 l
2284 1755 l
2289 1755 l
2295 1755 l
2301 1755 l
2307 1755 l
2313 1755 l
2319 1755 l
2325 1755 l
2330 1755 l
2336 1755 l
2342 1755 l
2348 1755 l
2354 1755 l
2360 1755 l
2365 1755 l
2371 1755 l
2377 1755 l
2383 1755 l
2389 1755 l
2395 1877 l
2401 1739 l
2406 1628 l
2412 1681 l
2418 1547 l
2424 1667 l
2430 1668 l
2436 1717 l
2442 1642 l
2447 1707 l
2453 1706 l
2459 1727 l
2465 1766 l
2471 1693 l
2477 1789 l
2482 1726 l
2488 1820 l
2494 1728 l
2500 1721 l
2506 1599 l
2512 1737 l
2518 1723 l
2523 1746 l
2529 1707 l
2535 1779 l
5 sw
0.694 0.467 0.871 rgb
1 scap
st
gr
gs
pathproc 576 286 2194 1768 np rectpath
/eocl cland
np exec
781 1340 m
787 1315 l
792 1306 l
798 1441 l
804 1303 l
810 1433 l
816 1503 l
822 1563 l
827 1450 l
833 1286 l
839 1369 l
845 1325 l
851 1442 l
857 1393 l
863 1397 l
868 1456 l
874 1382 l
880 1369 l
886 1386 l
892 1431 l
898 1495 l
903 1402 l
909 1609 l
915 1472 l
921 1554 l
927 1458 l
933 1571 l
939 1475 l
944 1409 l
950 1427 l
956 1356 l
962 1458 l
968 1477 l
974 1661 l
980 1594 l
985 1645 l
991 1557 l
997 1566 l
1003 1583 l
1009 1565 l
1015 1553 l
1020 1595 l
1026 1496 l
1032 1505 l
1038 1567 l
1044 1639 l
1050 1624 l
1056 1626 l
1061 1602 l
1067 1453 l
1073 1574 l
1079 1704 l
1085 1812 l
1091 1671 l
1096 1808 l
1102 1657 l
1108 1668 l
1114 1668 l
1120 1733 l
1126 1598 l
1132 1603 l
1137 1759 l
1143 1761 l
1149 1689 l
1155 1607 l
1161 1691 l
1167 1716 l
1172 1809 l
1178 1746 l
1184 1735 l
1190 1645 l
1196 1674 l
1202 1666 l
1208 1570 l
1213 1767 l
1219 1719 l
1225 1719 l
1231 1720 l
1237 1720 l
1243 1720 l
1249 1720 l
1254 1720 l
1260 1720 l
1266 1720 l
1272 1721 l
1278 1721 l
1284 1721 l
1289 1721 l
1295 1721 l
1301 1721 l
1307 1722 l
1313 1722 l
1319 1722 l
1325 1722 l
1330 1722 l
1336 1722 l
1342 1722 l
1348 1722 l
1354 1722 l
1360 1723 l
1365 1723 l
1371 1723 l
1377 1722 l
1383 1722 l
1389 1722 l
1395 1722 l
1401 1722 l
1406 1722 l
1412 1721 l
1418 1721 l
1424 1720 l
1430 1720 l
1436 1719 l
1442 1718 l
1447 1717 l
1453 1715 l
1459 1713 l
1465 1711 l
1471 1708 l
1477 1705 l
1482 1700 l
1488 1695 l
1494 1688 l
1500 1679 l
1506 1668 l
1512 1654 l
1518 1638 l
1523 1617 l
1529 1592 l
1535 1562 l
1541 1527 l
1547 1486 l
1553 1438 l
1558 1384 l
1564 1324 l
1570 1259 l
1576 1189 l
1582 1115 l
1588 1040 l
1594 965 l
1599 892 l
1605 823 l
1611 761 l
1617 707 l
1623 663 l
1629 629 l
1634 606 l
1640 594 l
1646 592 l
1652 599 l
1658 614 l
1664 635 l
1670 661 l
1675 690 l
1681 720 l
1687 751 l
1693 781 l
1699 810 l
1705 838 l
1711 865 l
1716 891 l
1722 917 l
1728 943 l
1734 970 l
1740 997 l
1746 1025 l
1751 1055 l
1757 1086 l
1763 1118 l
1769 1151 l
1775 1185 l
1781 1219 l
1787 1254 l
1792 1288 l
1798 1321 l
1804 1352 l
1810 1382 l
1816 1410 l
1822 1436 l
1827 1459 l
1833 1479 l
1839 1497 l
1845 1513 l
1851 1525 l
1857 1536 l
1863 1544 l
1868 1551 l
1874 1555 l
1880 1558 l
1886 1561 l
1892 1562 l
1898 1563 l
1903 1563 l
1909 1564 l
1915 1565 l
1921 1566 l
1927 1568 l
1933 1571 l
1939 1574 l
1944 1579 l
1950 1584 l
1956 1590 l
1962 1597 l
1968 1605 l
1974 1613 l
1980 1622 l
1985 1631 l
1991 1640 l
1997 1649 l
2003 1658 l
2009 1666 l
2015 1675 l
2020 1683 l
2026 1690 l
2032 1697 l
2038 1704 l
2044 1710 l
2050 1715 l
2056 1720 l
2061 1724 l
2067 1728 l
2073 1731 l
2079 1734 l
2085 1737 l
2091 1739 l
2096 1741 l
2102 1743 l
2108 1744 l
2114 1745 l
2120 1746 l
2126 1747 l
2132 1748 l
2137 1749 l
2143 1749 l
2149 1750 l
2155 1750 l
2161 1750 l
2167 1751 l
2173 1751 l
2178 1751 l
2184 1752 l
2190 1752 l
2196 1752 l
2202 1752 l
2208 1752 l
2213 1753 l
2219 1753 l
2225 1753 l
2231 1753 l
2237 1753 l
2243 1753 l
2249 1753 l
2254 1753 l
2260 1753 l
2266 1753 l
2272 1754 l
2278 1754 l
2284 1754 l
2289 1754 l
2295 1754 l
2301 1754 l
2307 1754 l
2313 1754 l
2319 1754 l
2325 1754 l
2330 1754 l
2336 1754 l
2342 1754 l
2348 1754 l
2354 1754 l
2360 1754 l
2365 1754 l
2371 1754 l
2377 1754 l
2383 1754 l
2389 1754 l
2395 1876 l
2401 1738 l
2406 1627 l
2412 1680 l
2418 1546 l
2424 1666 l
2430 1668 l
2436 1717 l
2442 1642 l
2447 1706 l
2453 1706 l
2459 1726 l
2465 1766 l
2471 1693 l
2477 1789 l
2482 1726 l
2488 1820 l
2494 1727 l
2500 1720 l
2506 1598 l
2512 1736 l
2518 1722 l
2523 1746 l
2529 1707 l
2535 1778 l
5 sw
0.8 0.6 0 rgb
1 scap
st
gr
gs
gs
1 -1 sc
375 -1448 tr
90 ro
/MC2_Arial 91 self 0 0 m
(Intensity \(arb\))[24 50 24 50 50 45 19 24 45 24 29 50 29 50 29 ] xs
1 -1 sc
gr
gr
gs
1 -1 sc
/MC1_Arial 91 self 1265 -2288 m
(Binding Energy \(eV\))[60 19 50 50 19 50 50 24 60 50 50 29 50 42 24 29 50 60 29 ] xs
1 -1 sc
gr
1988 332 m
2622 332 l
2622 855 l
1988 855 l
cp
gs
1 1 1 rgb
eofi
gr
3 sw
0 sj
2 scap
st
gs
gs
gr
gs
0.318 0.318 0.318 rgb
2069 375 12 12 rectfill
1988 855 m
1 sw
1 sj
1 scap
2069 375 12 12 rectstroke
gr
1 -1 sc
/MC1_Arial 69 self 2152 -405 m
( )[18 ] xs
1 -1 sc
1 -1 sc
2171 -405 m
(Si2p CPS)[45 14 37 37 18 49 45 45 ] xs
1 -1 sc
gs
gr
gs
gs
1998 466 m
2152 466 l
5 sw
0.945 0.251 0.251 rgb
1 sj
1 scap
st
gr
gr
1 -1 sc
2152 -490 m
( )[18 ] xs
1 -1 sc
1 -1 sc
2171 -490 m
(Si2p SiO2)[45 14 37 37 18 45 14 53 37 ] xs
1 -1 sc
gs
gr
gs
gs
1998 551 m
2152 551 l
5 sw
0.102 0.435 0.875 rgb
1 sj
1 scap
st
gr
gr
1 -1 sc
2152 -575 m
( )[18 ] xs
1 -1 sc
1 -1 sc
2171 -575 m
(Si2p Silane)[45 14 37 37 18 45 14 14 37 37 37 ] xs
1 -1 sc
gs
gr
gs
gs
1998 636 m
2152 636 l
5 sw
0.216 0.678 0.42 rgb
1 sj
1 scap
st
gr
gr
1 -1 sc
2152 -660 m
( )[18 ] xs
1 -1 sc
1 -1 sc
2171 -660 m
(Si2p Si-C)[45 14 37 37 18 45 14 22 49 ] xs
1 -1 sc
gs
gr
gs
gs
1998 721 m
2152 721 l
5 sw
0.694 0.467 0.871 rgb
1 sj
1 scap
st
gr
gr
1 -1 sc
2152 -745 m
( )[18 ] xs
1 -1 sc
1 -1 sc
2171 -745 m
(BG)[45 53 ] xs
1 -1 sc
gs
gr
gs
gs
1998 806 m
2152 806 l
5 sw
0.8 0.6 0 rgb
1 sj
1 scap
st
gr
gr
1 -1 sc
2152 -830 m
( )[18 ] xs
1 -1 sc
1 -1 sc
2171 -830 m
(Si2p Envelope)[45 14 37 37 18 45 37 34 37 14 37 37 37 ] xs
1 -1 sc
gr
gr
gs
gr
Save0 restore end
showpage
%%EOF
