%!PS-Adobe-3.0 EPSF-3.0
%%BoundingBox: 0 0 772 591
%%LanguageLevel: 2
%%Creator: OriginLab Corporation
%%Title: (C:\Users\gzaug\OneDrive\Dokumente\Uni\Nano\Blockkurse\block_course_protocols\PSI_Glass_Fiber_Coatings\data\ref_fits\Si2s.eps)
%%CreationDate: Fri Feb 26 15:14:15 2021
%%EndComments

/OriginLab::PSL1 128 dict dup begin def
/Save0 save def
%%BeginResource: procset OriginLab::PSL1
/wd{1 index where{pop pop pop}{bind def}ifelse}bind def
/setcmykcolor{1 sub 4 1 roll 3{3 index add neg dup 0 lt{pop 0}if 3 1 roll}repeat setrgbcolor pop}wd
/selectfont{dup type/arraytype eq{exch findfont exch makefont setfont}{exch findfont exch scalefont setfont}ifelse}wd
/xshow{1 index length 0 le{}{currentpoint exch 3 index length 1 sub 0 exch 1 exch{dup 5 index exch 1 getinterval show 3 index exch get add 2 copy exch moveto}for pop pop}ifelse pop pop}wd
/grayimage/image load def/rgbtogray{cvx exec dup length 3 idiv 1 sub 0 exch 1 exch{dup 3 mul dup 3 index exch get 255 div .3 mul exch
 1 add dup 4 index exch get 255 div .59 mul exch 1 add 4 index exch get 255 div .11 mul add add
 255 mul dup 255 gt{255}if round cvi 2 index 3 1 roll put}for dup length 3 idiv 0 exch getinterval}bind def
/colorimage{0 setgray pop pop cvlit/rgbtogray cvx 2 packedarray cvx grayimage}wd
/bd{bind def}bind def/ld{load def}bd/ed{exch def}bd/xd{cvx def}bd
/np/newpath ld/a/arc ld/m/moveto ld/l/lineto ld/c/curveto ld/rm/rmoveto ld/rl/rlineto ld/rc/rcurveto ld/cp/closepath ld/cpt/currentpoint ld
/tr/translate ld/sc/scale ld/ro/rotate ld/t/transform ld/it/itransform ld/dt/dtransform ld/idt/idtransform ld
/mtx/matrix ld/cmtx/currentmatrix ld/dmtx/defaultmatrix ld/smtx/setmatrix ld/catmtx/concatmatrix ld
/sw/setlinewidth ld/scap/setlinecap ld/sj/setlinejoin ld/sm/setmiterlimit ld/sd/setdash ld/rgb/setrgbcolor ld/crgb/currentrgbcolor ld/cmyk/setcmykcolor ld/gs/gsave ld/gr/grestore ld
/st/stroke ld/fi/fill ld/eofi/eofill ld/cl/clip ld/eocl/eoclip ld
/glyphshowEmulation{matrix currentmatrix exch currentfont dup/FontMatrix get concat currentpoint translate
 dup/Metrics get 2 index get 0 4 2 roll gsave/CharProcs get exch 2 copy known not{pop/.notdef}if
 get exec fill grestore moveto setmatrix} bind def
/isWord2010 false def
currentsystemparams /PrinterName known{currentsystemparams /PrinterName get (Access Softek) eq {/isWord2010 true def} if } if
isWord2010{/glyphshowCommand/glyphshowEmulation ld}{/glyphshowCommand/glyphshow ld}ifelse
/df/definefont ld/ff/findfont ld/sf/setfont ld/scf/scalefont ld/self/selectfont ld/cf/currentfont ld
/s/show ld/xs/xshow ld/gls/glyphshowCommand ld/xgls{cpt 3 1 roll add exch 3 -1 roll gls m}bd
/xglsh{cpt 3 1 roll add exch 3 -1 roll glyphshowCommand m}bd
/cd/currentdict ld/i/index ld
/DrawBox{4 2 roll m 1 index 0 rl 0 exch rl neg 0 rl cp}bd
/plus.re { 6 { 3 index } repeat moveto 0 exch rlineto 0 rlineto pop pop neg 0 exch rlineto pop lineto closepath } def
/DrawBcc{4 2 roll m 2 copy 0 lt exch 0 lt xor{dup 0 exch rl exch 0 rl neg 0 exch rl}{exch dup 0 rl exch 0 exch rl neg 0 rl}ifelse cp}bd
/rectline{dup type/arraytype eq{dup length 0 exch 4 exch 4 sub{0 1 3{3 copy add get 4 1 roll pop}for pop 5 1 roll DrawBox}for pop}{DrawBox}ifelse}bd
/rectpath{dup type/arraytype eq{dup length 0 exch 4 exch 4 sub{0 1 3{3 copy add get 4 1 roll pop}for pop 5 1 roll DrawBcc}for pop}{DrawBcc}ifelse}bd
/pathproc{[{/m cvx}{/l cvx}{/c cvx}{/cp cvx}pathforall]cvx}bd
/L1img/image ld/L1idx[{0}
 {dup 7 and 3 1 roll -3 bitshift get exch 7 sub 1 mul bitshift  1 and}bind 1 index dup
 {dup 1 and 3 1 roll -1 bitshift get exch 1 sub 4 mul bitshift 15 and}bind 1 index dup dup
 {get}bind]def
/image{dup type/dicttype eq {dup/ImgCS get 0 get/Indexed eq}{false}ifelse
 {begin Width Height 8 ImageMatrix {rgb_string rgb_lookup
 cd/DataSource get dup type/filetype eq
 {mystring readstring pop}{exec}ifelse
 dup length 0 ne
 {L1idx BitsPerComponent get 0 1 Width 1 sub
 {3 copy exch exec exch 3 mul exch
 3 mul dup 5 index exch get exch 1 add dup 6 index exch get exch 1 add 6 index exch get
 7 index exch 4 index 2 add exch put 6 index exch 3 index 1 add exch put 5 index exch 2 index exch put pop
 }for pop pop pop }{pop pop pop ()}ifelse }false 3 colorimage end} {dup type/dicttype eq
 {{dup mark exch L1img pop pop}stopped{cleartomark begin Width Height BitsPerComponent ImageMatrix
 {cd/DataSource get dup type/filetype eq {mystring readstring pop}{exec}ifelse
 }false 3 colorimage end} if}{L1img}ifelse}ifelse
 }bd
/L1imgmask/imagemask ld/imagemask{dup type/dicttype eq
 {{dup mark exch L1imgmask pop pop}stopped {cleartomark begin Width Height polarityflag ImageMatrix
 {cd/DataSource get dup type/filetype eq {mystring readstring pop}{exec}ifelse
 }L1imgmask end}if}{L1imgmask}ifelse
 }bd
% Gradient function
/GradientStep 1 150 div def
/GradientStartRGB { /R1 exch def /G1 exch def /B1 exch def } def
/GradientEndRGB { /R2 exch def /G2 exch def /B2 exch def
/GradientSteps GradientLength GradientStep div def
/GradientRStep R2 R1 sub GradientSteps div def
/GradientGStep G2 G1 sub GradientSteps div def
/GradientBStep B2 B1 sub GradientSteps div def
} def
/GradientStepRGB { /R1 R1 GradientRStep add def
/G1 G1 GradientGStep add def
/B1 B1 GradientBStep add def
R1 G1 B1 setrgbcolor
} def
%%EndResource
/rectclip{np rectpath clip np}wd
/rectfill{gs np rectpath fi gr}wd
/rectstroke{gs np dup type/arraytype eq{dup length 6 eq}{false}ifelse{1 index type/arraytype eq{exch}{5 1 roll}ifelse rectline concat st}{rectline st}ifelse gr}wd
%%BeginResource: procset OriginLab::Image
/OriginLab::Image 32 dict dup begin
/BinProc{[currentfile mystring /readstring cvx /pop cvx] cvx bind}bd
/HexProc{[currentfile mystring /readhexstring cvx /pop cvx] cvx bind}bd
/Ascii85Proc{currentfile /ASCII85Decode filter}bd
/LZWA85{currentfile /ASCII85Decode filter /LZWDecode filter}bd
/ImgProcArray[/BinProc /HexProc /Ascii85Proc /LZWA85]def
/ImgDict{/ImgDict 16 dict def ImgDict dup begin /ImageType 1 def /MultipleDataSource false def end}bd
/L2Dec{{[1 0]}{[0 1]}ifelse}bd
/BegImg{ /Img_sv save def
 /ImgDir ed ImgProcArray exch get /ImgProc exch ld
 dup /polarityflag ed L2Dec /polarity ed /smoothflag ed
 tr /dx 2 index def /dy 1 index abs def sc
 string /mystring ed /bpc ed /ih ed /iw ed
 }bd
/EndImg {Img_sv restore}bd
/DoXImg{ /rgb_lookup ed /hival ed ImgDict dup begin
 [/Indexed /DeviceRGB hival rgb_lookup] /L1img where{pop/ImgCS ed}{setcolorspace}ifelse
 /rgb_string iw 3 mul string def
 /Width iw def
 /Height ih def
 /Decode [0 1 bpc{2 mul}repeat 1 sub] def
 /ImageMatrix
  ImgDir 0 eq{[iw 0 0 ih 0 0]}if
  ImgDir 1 eq{[iw neg 0 0 ih iw 0]}if
  ImgDir 2 eq{[iw 0 0 ih neg 0 ih]}if
  ImgDir 3 eq{[iw neg 0 0 ih neg iw ih]}if
  def
 /DataSource ImgProc def
 /BitsPerComponent bpc def
 /Interpolate smoothflag def
 end image}bd
/DoImg{ ImgDict dup begin
 [/DeviceRGB] /L1img where{pop/ImgCS ed}{setcolorspace}ifelse
 /rgb_string iw 3 mul string def
 /Width iw def
 /Height ih def
 /Decode [0 1 0 1 0 1] def
 /ImageMatrix
  ImgDir 0 eq{[iw 0 0 ih 0 0]}if
  ImgDir 1 eq{[iw neg 0 0 ih iw 0]}if
  ImgDir 2 eq{[iw 0 0 ih neg 0 ih]}if
  ImgDir 3 eq{[iw neg 0 0 ih neg iw ih]}if
  def
 /DataSource ImgProc def
 /BitsPerComponent 8 def
 /Interpolate smoothflag def
 end image}bd
end def
%%EndResource
/initmtx mtx cmtx def
%%BeginFont: /MC1_Arial
12 dict begin
/FontInfo 8 dict dup begin
/ItalicAngle 0 def
/UnderlinePosition -217.00 def
/UnderlineThickness 150.00 def
/StrikeoutPosition 530.00 def
/StrikeoutThickness 102.00 def
/isFixedPitch false def
end readonly def
/FontName /MC1_Arial def
/FontType 3 def
/FontMatrix [1 2048 div 0 0 1 2048 div 0 0] def
/FontBBox [-1361 -665 4096 2129] def
/Encoding 256 array def 0 1 255{Encoding exch/.notdef put}for
Encoding 32/s32 put
Encoding 40/s40 put
Encoding 41/s41 put
Encoding 45/s45 put
Encoding 48/s48 put
Encoding 49/s49 put
Encoding 50/s50 put
Encoding 51/s51 put
Encoding 52/s52 put
Encoding 53/s53 put
Encoding 54/s54 put
Encoding 66/s66 put
Encoding 67/s67 put
Encoding 69/s69 put
Encoding 71/s71 put
Encoding 79/s79 put
Encoding 80/s80 put
Encoding 83/s83 put
Encoding 86/s86 put
Encoding 97/s97 put
Encoding 100/s100 put
Encoding 101/s101 put
Encoding 103/s103 put
Encoding 105/s105 put
Encoding 108/s108 put
Encoding 110/s110 put
Encoding 111/s111 put
Encoding 112/s112 put
Encoding 114/s114 put
Encoding 115/s115 put
Encoding 118/s118 put
Encoding 121/s121 put
/BoundingBoxes 33 dict def
BoundingBoxes begin
/s32 [0 -434 569 1854] def
/s40 [0 -434 682 1854] def
/s41 [0 -434 682 1854] def
/s45 [0 -434 682 1854] def
/s48 [0 -434 1139 1854] def
/s49 [0 -434 1139 1854] def
/s50 [0 -434 1139 1854] def
/s51 [0 -434 1139 1854] def
/s52 [0 -434 1139 1854] def
/s53 [0 -434 1139 1854] def
/s54 [0 -434 1139 1854] def
/s66 [0 -434 1366 1854] def
/s67 [0 -434 1479 1854] def
/s69 [0 -434 1366 1854] def
/s71 [0 -434 1593 1854] def
/s79 [0 -434 1593 1854] def
/s80 [0 -434 1366 1854] def
/s83 [0 -434 1366 1854] def
/s86 [0 -434 1366 1854] def
/s97 [0 -434 1139 1854] def
/s100 [0 -434 1139 1854] def
/s101 [0 -434 1139 1854] def
/s103 [0 -434 1139 1854] def
/s105 [0 -434 455 1854] def
/s108 [0 -434 455 1854] def
/s110 [0 -434 1139 1854] def
/s111 [0 -434 1139 1854] def
/s112 [0 -434 1139 1854] def
/s114 [0 -434 682 1854] def
/s115 [0 -434 1024 1854] def
/s118 [0 -434 1024 1854] def
/s121 [0 -434 1024 1854] def
end
/Metrics 33 dict def
 Metrics begin
/s32 569 def
/s40 682 def
/s41 682 def
/s45 682 def
/s48 1139 def
/s49 1139 def
/s50 1139 def
/s51 1139 def
/s52 1139 def
/s53 1139 def
/s54 1139 def
/s66 1366 def
/s67 1479 def
/s69 1366 def
/s71 1593 def
/s79 1593 def
/s80 1366 def
/s83 1366 def
/s86 1366 def
/s97 1139 def
/s100 1139 def
/s101 1139 def
/s103 1139 def
/s105 455 def
/s108 455 def
/s110 1139 def
/s111 1139 def
/s112 1139 def
/s114 682 def
/s115 1024 def
/s118 1024 def
/s121 1024 def
end
/CharProcs 33 dict def
CharProcs begin
/.notdef {} def
/s40 {
479 -431 m
379.67 -305.67 295.67 -159 227 9 c
158.33 177 124 351 124 531 c
124 689.67 149.67 841.67 201 987 c
261 1155.67 353.67 1323.67 479 1491 c
608 1491 479 1491 608 1491 c
527.33 1352.33 474 1253.33 448 1194 c
407.33 1102 375.33 1006 352 906 c
323.33 781.33 309 656 309 530 c
309 209.33 408.67 -111 608 -431 c
479 -431 608 -431 479 -431 c
closepath } bind def
/s41 {
253 -431 m
124 -431 253 -431 124 -431 c
323.33 -111 423 209.33 423 530 c
423 655.33 408.67 779.67 380 903 c
357.33 1003 325.67 1099 285 1191 c
259 1251 205.33 1351 124 1491 c
253 1491 124 1491 253 1491 c
378.33 1323.67 471 1155.67 531 987 c
582.33 841.67 608 689.67 608 531 c
608 351 573.5 177 504.5 9 c
435.5 -159 351.67 -305.67 253 -431 c
closepath } bind def
/s45 {
65 440 m
65 621 65 440 65 621 c
618 621 65 621 618 621 c
618 440 618 621 618 440 c
65 440 618 440 65 440 c
closepath } bind def
/s48 {
85 723 m
85 896.33 102.83 1035.83 138.5 1141.5 c
174.17 1247.17 227.17 1328.67 297.5 1386 c
367.83 1443.33 456.33 1472 563 1472 c
641.67 1472 710.67 1456.17 770 1424.5 c
829.33 1392.83 878.33 1347.17 917 1287.5 c
955.67 1227.83 986 1155.17 1008 1069.5 c
1030 983.83 1041 868.33 1041 723 c
1041 551 1023.33 412.17 988 306.5 c
952.67 200.83 899.83 119.17 829.5 61.5 c
759.17 3.83 670.33 -25 563 -25 c
421.67 -25 310.67 25.67 230 127 c
133.33 249 85 447.67 85 723 c
closepath 270 723 m
270 482.33 298.17 322.17 354.5 242.5 c
410.83 162.83 480.33 123 563 123 c
645.67 123 715.17 163 771.5 243 c
827.83 323 856 483 856 723 c
856 964.33 827.83 1124.67 771.5 1204 c
715.17 1283.33 645 1323 561 1323 c
478.33 1323 412.33 1288 363 1218 c
301 1128.67 270 963.67 270 723 c
closepath } bind def
/s49 {
763 0 m
583 0 763 0 583 0 c
583 1147 583 0 583 1147 c
539.67 1105.67 482.83 1064.33 412.5 1023 c
342.17 981.67 279 950.67 223 930 c
223 1104 223 930 223 1104 c
323.67 1151.33 411.67 1208.67 487 1276 c
562.33 1343.33 615.67 1408.67 647 1472 c
763 1472 647 1472 763 1472 c
763 0 763 1472 763 0 c
closepath } bind def
/s50 {
1031 173 m
1031 0 1031 173 1031 0 c
62 0 1031 0 62 0 c
60.67 43.33 67.67 85 83 125 c
107.67 191 147.17 256 201.5 320 c
255.83 384 334.33 458 437 542 c
596.33 672.67 704 776.17 760 852.5 c
816 928.83 844 1001 844 1069 c
844 1140.33 818.5 1200.5 767.5 1249.5 c
716.5 1298.5 650 1323 568 1323 c
481.33 1323 412 1297 360 1245 c
308 1193 281.67 1121 281 1029 c
96 1048 281 1029 96 1048 c
108.67 1186 156.33 1291.17 239 1363.5 c
321.67 1435.83 432.67 1472 572 1472 c
712.67 1472 824 1433 906 1355 c
988 1277 1029 1180.33 1029 1065 c
1029 1006.33 1017 948.67 993 892 c
969 835.33 929.17 775.67 873.5 713 c
817.83 650.33 725.33 564.33 596 455 c
488 364.33 418.67 302.83 388 270.5 c
357.33 238.17 332 205.67 312 173 c
1031 173 312 173 1031 173 c
closepath } bind def
/s51 {
86 387 m
266 411 86 387 266 411 c
286.67 309 321.83 235.5 371.5 190.5 c
421.17 145.5 481.67 123 553 123 c
637.67 123 709.17 152.33 767.5 211 c
825.83 269.67 855 342.33 855 429 c
855 511.67 828 579.83 774 633.5 c
720 687.17 651.33 714 568 714 c
534 714 491.67 707.33 441 694 c
461 852 441 694 461 852 c
473 850.67 482.67 850 490 850 c
566.67 850 635.67 870 697 910 c
758.33 950 789 1011.67 789 1095 c
789 1161 766.67 1215.67 722 1259 c
677.33 1302.33 619.67 1324 549 1324 c
479 1324 420.67 1302 374 1258 c
327.33 1214 297.33 1148 284 1060 c
104 1092 284 1060 104 1092 c
126 1212.67 176 1306.17 254 1372.5 c
332 1438.83 429 1472 545 1472 c
625 1472 698.67 1454.83 766 1420.5 c
833.33 1386.17 884.83 1339.33 920.5 1280 c
956.17 1220.67 974 1157.67 974 1091 c
974 1027.67 957 970 923 918 c
889 866 838.67 824.67 772 794 c
858.67 774 926 732.5 974 669.5 c
1022 606.5 1046 527.67 1046 433 c
1046 305 999.33 196.5 906 107.5 c
812.67 18.5 694.67 -26 552 -26 c
423.33 -26 316.5 12.33 231.5 89 c
146.5 165.67 98 265 86 387 c
closepath } bind def
/s52 {
662 0 m
662 351 662 0 662 351 c
26 351 662 351 26 351 c
26 516 26 351 26 516 c
695 1466 26 516 695 1466 c
842 1466 695 1466 842 1466 c
842 516 842 1466 842 516 c
1040 516 842 516 1040 516 c
1040 351 1040 516 1040 351 c
842 351 1040 351 842 351 c
842 0 842 351 842 0 c
662 0 842 0 662 0 c
closepath 662 516 m
662 1177 662 516 662 1177 c
203 516 662 1177 203 516 c
662 516 203 516 662 516 c
closepath } bind def
/s53 {
85 384 m
274 400 85 384 274 400 c
288 308 320.5 238.83 371.5 192.5 c
422.5 146.17 484 123 556 123 c
642.67 123 716 155.67 776 221 c
836 286.33 866 373 866 481 c
866 583.67 837.17 664.67 779.5 724 c
721.83 783.33 646.33 813 553 813 c
495 813 442.67 799.83 396 773.5 c
349.33 747.17 312.67 713 286 671 c
117 693 286 671 117 693 c
259 1446 117 693 259 1446 c
988 1446 259 1446 988 1446 c
988 1274 988 1446 988 1274 c
403 1274 988 1274 403 1274 c
324 880 403 1274 324 880 c
412 941.33 504.33 972 601 972 c
729 972 837 927.67 925 839 c
1013 750.33 1057 636.33 1057 497 c
1057 364.33 1018.33 249.67 941 153 c
847 34.33 718.67 -25 556 -25 c
422.67 -25 313.83 12.33 229.5 87 c
145.17 161.67 97 260.67 85 384 c
closepath } bind def
/s54 {
1019 1107 m
840 1093 1019 1107 840 1093 c
824 1163.67 801.33 1215 772 1247 c
723.33 1298.33 663.33 1324 592 1324 c
534.67 1324 484.33 1308 441 1276 c
384.33 1234.67 339.67 1174.33 307 1095 c
274.33 1015.67 257.33 902.67 256 756 c
299.33 822 352.33 871 415 903 c
477.67 935 543.33 951 612 951 c
732 951 834.17 906.83 918.5 818.5 c
1002.83 730.17 1045 616 1045 476 c
1045 384 1025.17 298.5 985.5 219.5 c
945.83 140.5 891.33 80 822 38 c
752.67 -4 674 -25 586 -25 c
436 -25 313.67 30.17 219 140.5 c
124.33 250.83 77 432.67 77 686 c
77 969.33 129.33 1175.33 234 1304 c
325.33 1416 448.33 1472 603 1472 c
718.33 1472 812.83 1439.67 886.5 1375 c
960.17 1310.33 1004.33 1221 1019 1107 c
closepath 284 475 m
284 413 297.17 353.67 323.5 297 c
349.83 240.33 386.67 197.17 434 167.5 c
481.33 137.83 531 123 583 123 c
659 123 724.33 153.67 779 215 c
833.67 276.33 861 359.67 861 465 c
861 566.33 834 646.17 780 704.5 c
726 762.83 658 792 576 792 c
494.67 792 425.67 762.83 369 704.5 c
312.33 646.17 284 569.67 284 475 c
closepath } bind def
/s66 {
150 0 m
150 1466 150 0 150 1466 c
700 1466 150 1466 700 1466 c
812 1466 901.83 1451.17 969.5 1421.5 c
1037.17 1391.83 1090.17 1346.17 1128.5 1284.5 c
1166.83 1222.83 1186 1158.33 1186 1091 c
1186 1028.33 1169 969.33 1135 914 c
1101 858.67 1049.67 814 981 780 c
1069.67 754 1137.83 709.67 1185.5 647 c
1233.17 584.33 1257 510.33 1257 425 c
1257 356.33 1242.5 292.5 1213.5 233.5 c
1184.5 174.5 1148.67 129 1106 97 c
1063.33 65 1009.83 40.83 945.5 24.5 c
881.17 8.17 802.33 0 709 0 c
150 0 709 0 150 0 c
closepath 344 850 m
661 850 344 850 661 850 c
747 850 808.67 855.67 846 867 c
895.33 881.67 932.5 906 957.5 940 c
982.5 974 995 1016.67 995 1068 c
995 1116.67 983.33 1159.5 960 1196.5 c
936.67 1233.5 903.33 1258.83 860 1272.5 c
816.67 1286.17 742.33 1293 637 1293 c
344 1293 637 1293 344 1293 c
344 850 344 1293 344 850 c
closepath 344 173 m
709 173 344 173 709 173 c
771.67 173 815.67 175.33 841 180 c
885.67 188 923 201.33 953 220 c
983 238.67 1007.67 265.83 1027 301.5 c
1046.33 337.17 1056 378.33 1056 425 c
1056 479.67 1042 527.17 1014 567.5 c
986 607.83 947.17 636.17 897.5 652.5 c
847.83 668.83 776.33 677 683 677 c
344 677 683 677 344 677 c
344 173 344 677 344 173 c
closepath } bind def
/s67 {
1204 514 m
1398 465 1204 514 1398 465 c
1357.33 305.67 1284.17 184.17 1178.5 100.5 c
1072.83 16.83 943.67 -25 791 -25 c
633 -25 504.5 7.17 405.5 71.5 c
306.5 135.83 231.17 229 179.5 351 c
127.83 473 102 604 102 744 c
102 896.67 131.17 1029.83 189.5 1143.5 c
247.83 1257.17 330.83 1343.5 438.5 1402.5 c
546.17 1461.5 664.67 1491 794 1491 c
940.67 1491 1064 1453.67 1164 1379 c
1264 1304.33 1333.67 1199.33 1373 1064 c
1182 1019 1373 1064 1182 1019 c
1148 1125.67 1098.67 1203.33 1034 1252 c
969.33 1300.67 888 1325 790 1325 c
677.33 1325 583.17 1298 507.5 1244 c
431.83 1190 378.67 1117.5 348 1026.5 c
317.33 935.5 302 841.67 302 745 c
302 620.33 320.17 511.5 356.5 418.5 c
392.83 325.5 449.33 256 526 210 c
602.67 164 685.67 141 775 141 c
883.67 141 975.67 172.33 1051 235 c
1126.33 297.67 1177.33 390.67 1204 514 c
closepath } bind def
/s69 {
162 0 m
162 1466 162 0 162 1466 c
1222 1466 162 1466 1222 1466 c
1222 1293 1222 1466 1222 1293 c
356 1293 1222 1293 356 1293 c
356 844 356 1293 356 844 c
1167 844 356 844 1167 844 c
1167 672 1167 844 1167 672 c
356 672 1167 672 356 672 c
356 173 356 672 356 173 c
1256 173 356 173 1256 173 c
1256 0 1256 173 1256 0 c
162 0 1256 0 162 0 c
closepath } bind def
/s71 {
844 575 m
844 747 844 575 844 747 c
1465 748 844 747 1465 748 c
1465 204 1465 748 1465 204 c
1369.67 128 1271.33 70.83 1170 32.5 c
1068.67 -5.83 964.67 -25 858 -25 c
714 -25 583.17 5.83 465.5 67.5 c
347.83 129.17 259 218.33 199 335 c
139 451.67 109 582 109 726 c
109 868.67 138.83 1001.83 198.5 1125.5 c
258.17 1249.17 344 1341 456 1401 c
568 1461 697 1491 843 1491 c
949 1491 1044.83 1473.83 1130.5 1439.5 c
1216.17 1405.17 1283.33 1357.33 1332 1296 c
1380.67 1234.67 1417.67 1154.67 1443 1056 c
1268 1008 1443 1056 1268 1008 c
1246 1082.67 1218.67 1141.33 1186 1184 c
1153.33 1226.67 1106.67 1260.83 1046 1286.5 c
985.33 1312.17 918 1325 844 1325 c
755.33 1325 678.67 1311.5 614 1284.5 c
549.33 1257.5 497.17 1222 457.5 1178 c
417.83 1134 387 1085.67 365 1033 c
327.67 942.33 309 844 309 738 c
309 607.33 331.5 498 376.5 410 c
421.5 322 487 256.67 573 214 c
659 171.33 750.33 150 847 150 c
931 150 1013 166.17 1093 198.5 c
1173 230.83 1233.67 265.33 1275 302 c
1275 575 1275 302 1275 575 c
844 575 1275 575 844 575 c
closepath } bind def
/s79 {
99 714 m
99 957.33 164.33 1147.83 295 1285.5 c
425.67 1423.17 594.33 1492 801 1492 c
936.33 1492 1058.33 1459.67 1167 1395 c
1275.67 1330.33 1358.5 1240.17 1415.5 1124.5 c
1472.5 1008.83 1501 877.67 1501 731 c
1501 582.33 1471 449.33 1411 332 c
1351 214.67 1266 125.83 1156 65.5 c
1046 5.17 927.33 -25 800 -25 c
662 -25 538.67 8.33 430 75 c
321.33 141.67 239 232.67 183 348 c
127 463.33 99 585.33 99 714 c
closepath 299 711 m
299 534.33 346.5 395.17 441.5 293.5 c
536.5 191.83 655.67 141 799 141 c
945 141 1065.17 192.33 1159.5 295 c
1253.83 397.67 1301 543.33 1301 732 c
1301 851.33 1280.83 955.5 1240.5 1044.5 c
1200.17 1133.5 1141.17 1202.5 1063.5 1251.5 c
985.83 1300.5 898.67 1325 802 1325 c
664.67 1325 546.5 1277.83 447.5 1183.5 c
348.5 1089.17 299 931.67 299 711 c
closepath } bind def
/s80 {
158 0 m
158 1466 158 0 158 1466 c
711 1466 158 1466 711 1466 c
808.33 1466 882.67 1461.33 934 1452 c
1006 1440 1066.33 1417.17 1115 1383.5 c
1163.67 1349.83 1202.83 1302.67 1232.5 1242 c
1262.17 1181.33 1277 1114.67 1277 1042 c
1277 917.33 1237.33 811.83 1158 725.5 c
1078.67 639.17 935.33 596 728 596 c
352 596 728 596 352 596 c
352 0 352 596 352 0 c
158 0 352 0 158 0 c
closepath 352 769 m
731 769 352 769 731 769 c
856.33 769 945.33 792.33 998 839 c
1050.67 885.67 1077 951.33 1077 1036 c
1077 1097.33 1061.5 1149.83 1030.5 1193.5 c
999.5 1237.17 958.67 1266 908 1280 c
875.33 1288.67 815 1293 727 1293 c
352 1293 727 1293 352 1293 c
352 769 352 1293 352 769 c
closepath } bind def
/s83 {
92 471 m
275 487 92 471 275 487 c
283.67 413.67 303.83 353.5 335.5 306.5 c
367.17 259.5 416.33 221.5 483 192.5 c
549.67 163.5 624.67 149 708 149 c
782 149 847.33 160 904 182 c
960.67 204 1002.83 234.17 1030.5 272.5 c
1058.17 310.83 1072 352.67 1072 398 c
1072 444 1058.67 484.17 1032 518.5 c
1005.33 552.83 961.33 581.67 900 605 c
860.67 620.33 773.67 644.17 639 676.5 c
504.33 708.83 410 739.33 356 768 c
286 804.67 233.83 850.17 199.5 904.5 c
165.17 958.83 148 1019.67 148 1087 c
148 1161 169 1230.17 211 1294.5 c
253 1358.83 314.33 1407.67 395 1441 c
475.67 1474.33 565.33 1491 664 1491 c
772.67 1491 868.5 1473.5 951.5 1438.5 c
1034.5 1403.5 1098.33 1352 1143 1284 c
1187.67 1216 1211.67 1139 1215 1053 c
1029 1039 1215 1053 1029 1039 c
1019 1131.67 985.17 1201.67 927.5 1249 c
869.83 1296.33 784.67 1320 672 1320 c
554.67 1320 469.17 1298.5 415.5 1255.5 c
361.83 1212.5 335 1160.67 335 1100 c
335 1047.33 354 1004 392 970 c
429.33 936 526.83 901.17 684.5 865.5 c
842.17 829.83 950.33 798.67 1009 772 c
1094.33 732.67 1157.33 682.83 1198 622.5 c
1238.67 562.17 1259 492.67 1259 414 c
1259 336 1236.67 262.5 1192 193.5 c
1147.33 124.5 1083.17 70.83 999.5 32.5 c
915.83 -5.83 821.67 -25 717 -25 c
584.33 -25 473.17 -5.67 383.5 33 c
293.83 71.67 223.5 129.83 172.5 207.5 c
121.5 285.17 94.67 373 92 471 c
closepath } bind def
/s86 {
577 0 m
9 1466 577 0 9 1466 c
219 1466 9 1466 219 1466 c
600 401 219 1466 600 401 c
630.67 315.67 656.33 235.67 677 161 c
699.67 241 726 321 756 401 c
1152 1466 756 401 1152 1466 c
1350 1466 1152 1466 1350 1466 c
776 0 1350 1466 776 0 c
577 0 776 0 577 0 c
closepath } bind def
/s97 {
828 131 m
761.33 74.33 697.17 34.33 635.5 11 c
573.83 -12.33 507.67 -24 437 -24 c
320.33 -24 230.67 4.5 168 61.5 c
105.33 118.5 74 191.33 74 280 c
74 332 85.83 379.5 109.5 422.5 c
133.17 465.5 164.17 500 202.5 526 c
240.83 552 284 571.67 332 585 c
367.33 594.33 420.67 603.33 492 612 c
637.33 629.33 744.33 650 813 674 c
813.67 698.67 814 714.33 814 721 c
814 794.33 797 846 763 876 c
717 916.67 648.67 937 558 937 c
473.33 937 410.83 922.17 370.5 892.5 c
330.17 862.83 300.33 810.33 281 735 c
105 759 281 735 105 759 c
121 834.33 147.33 895.17 184 941.5 c
220.67 987.83 273.67 1023.5 343 1048.5 c
412.33 1073.5 492.67 1086 584 1086 c
674.67 1086 748.33 1075.33 805 1054 c
861.67 1032.67 903.33 1005.83 930 973.5 c
956.67 941.17 975.33 900.33 986 851 c
992 820.33 995 765 995 685 c
995 445 995 685 995 445 c
995 277.67 998.83 171.83 1006.5 127.5 c
1014.17 83.17 1029.33 40.67 1052 0 c
864 0 1052 0 864 0 c
845.33 37.33 833.33 81 828 131 c
closepath 813 533 m
747.67 506.33 649.67 483.67 519 465 c
445 454.33 392.67 442.33 362 429 c
331.33 415.67 307.67 396.17 291 370.5 c
274.33 344.83 266 316.33 266 285 c
266 237 284.17 197 320.5 165 c
356.83 133 410 117 480 117 c
549.33 117 611 132.17 665 162.5 c
719 192.83 758.67 234.33 784 287 c
803.33 327.67 813 387.67 813 467 c
813 533 813 467 813 533 c
closepath } bind def
/s100 {
824 0 m
824 134 824 0 824 134 c
756.67 28.67 657.67 -24 527 -24 c
442.33 -24 364.5 -0.67 293.5 46 c
222.5 92.67 167.5 157.83 128.5 241.5 c
89.5 325.17 70 421.33 70 530 c
70 636 87.67 732.17 123 818.5 c
158.33 904.83 211.33 971 282 1017 c
352.67 1063 431.67 1086 519 1086 c
583 1086 640 1072.5 690 1045.5 c
740 1018.5 780.67 983.33 812 940 c
812 1466 812 940 812 1466 c
991 1466 812 1466 991 1466 c
991 0 991 1466 991 0 c
824 0 991 0 824 0 c
closepath 255 530 m
255 394 283.67 292.33 341 225 c
398.33 157.67 466 124 544 124 c
622.67 124 689.5 156.17 744.5 220.5 c
799.5 284.83 827 383 827 515 c
827 660.33 799 767 743 835 c
687 903 618 937 536 937 c
456 937 389.17 904.33 335.5 839 c
281.83 773.67 255 670.67 255 530 c
closepath } bind def
/s101 {
862 342 m
1048 319 862 342 1048 319 c
1018.67 210.33 964.33 126 885 66 c
805.67 6 704.33 -24 581 -24 c
425.67 -24 302.5 23.83 211.5 119.5 c
120.5 215.17 75 349.33 75 522 c
75 700.67 121 839.33 213 938 c
305 1036.67 424.33 1086 571 1086 c
713 1086 829 1037.67 919 941 c
1009 844.33 1054 708.33 1054 533 c
1054 522.33 1053.67 506.33 1053 485 c
261 485 1053 485 261 485 c
267.67 368.33 300.67 279 360 217 c
419.33 155 493.33 124 582 124 c
648 124 704.33 141.33 751 176 c
797.67 210.67 834.67 266 862 342 c
closepath 271 633 m
864 633 271 633 864 633 c
856 722.33 833.33 789.33 796 834 c
738.67 903.33 664.33 938 573 938 c
490.33 938 420.83 910.33 364.5 855 c
308.17 799.67 277 725.67 271 633 c
closepath } bind def
/s103 {
102 -88 m
277 -114 102 -88 277 -114 c
284.33 -168 304.67 -207.33 338 -232 c
382.67 -265.33 443.67 -282 521 -282 c
604.33 -282 668.67 -265.33 714 -232 c
759.33 -198.67 790 -152 806 -92 c
815.33 -55.33 819.67 21.67 819 139 c
740.33 46.33 642.33 0 525 0 c
379 0 266 52.67 186 158 c
106 263.33 66 389.67 66 537 c
66 638.33 84.33 731.83 121 817.5 c
157.67 903.17 210.83 969.33 280.5 1016 c
350.17 1062.67 432 1086 526 1086 c
651.33 1086 754.67 1035.33 836 934 c
836 1062 836 934 836 1062 c
1002 1062 836 1062 1002 1062 c
1002 144 1002 1062 1002 144 c
1002 -21.33 985.17 -138.5 951.5 -207.5 c
917.83 -276.5 864.5 -331 791.5 -371 c
718.5 -411 628.67 -431 522 -431 c
395.33 -431 293 -402.5 215 -345.5 c
137 -288.5 99.33 -202.67 102 -88 c
closepath 251 550 m
251 410.67 278.67 309 334 245 c
389.33 181 458.67 149 542 149 c
624.67 149 694 180.83 750 244.5 c
806 308.17 834 408 834 544 c
834 674 805.17 772 747.5 838 c
689.83 904 620.33 937 539 937 c
459 937 391 904.5 335 839.5 c
279 774.5 251 678 251 550 c
closepath } bind def
/s105 {
136 1259 m
136 1466 136 1259 136 1466 c
316 1466 136 1466 316 1466 c
316 1259 316 1466 316 1259 c
136 1259 316 1259 136 1259 c
closepath 136 0 m
136 1062 136 0 136 1062 c
316 1062 136 1062 316 1062 c
316 0 316 1062 316 0 c
136 0 316 0 136 0 c
closepath } bind def
/s108 {
131 0 m
131 1466 131 0 131 1466 c
311 1466 131 1466 311 1466 c
311 0 311 1466 311 0 c
131 0 311 0 131 0 c
closepath } bind def
/s110 {
135 0 m
135 1062 135 0 135 1062 c
297 1062 135 1062 297 1062 c
297 911 297 1062 297 911 c
375 1027.67 487.67 1086 635 1086 c
699 1086 757.83 1074.5 811.5 1051.5 c
865.17 1028.5 905.33 998.33 932 961 c
958.67 923.67 977.33 879.33 988 828 c
994.67 794.67 998 736.33 998 653 c
998 0 998 653 998 0 c
818 0 998 0 818 0 c
818 646 818 0 818 646 c
818 719.33 811 774.17 797 810.5 c
783 846.83 758.17 875.83 722.5 897.5 c
686.83 919.17 645 930 597 930 c
520.33 930 454.17 905.67 398.5 857 c
342.83 808.33 315 716 315 580 c
315 0 315 580 315 0 c
135 0 315 0 135 0 c
closepath } bind def
/s111 {
68 531 m
68 727.67 122.67 873.33 232 968 c
323.33 1046.67 434.67 1086 566 1086 c
712 1086 831.33 1038.17 924 942.5 c
1016.67 846.83 1063 714.67 1063 546 c
1063 409.33 1042.5 301.83 1001.5 223.5 c
960.5 145.17 900.83 84.33 822.5 41 c
744.17 -2.33 658.67 -24 566 -24 c
417.33 -24 297.17 23.67 205.5 119 c
113.83 214.33 68 351.67 68 531 c
closepath 253 531 m
253 395 282.67 293.17 342 225.5 c
401.33 157.83 476 124 566 124 c
655.33 124 729.67 158 789 226 c
848.33 294 878 397.67 878 537 c
878 668.33 848.17 767.83 788.5 835.5 c
728.83 903.17 654.67 937 566 937 c
476 937 401.33 903.33 342 836 c
282.67 768.67 253 667 253 531 c
closepath } bind def
/s112 {
135 -407 m
135 1062 135 -407 135 1062 c
299 1062 135 1062 299 1062 c
299 924 299 1062 299 924 c
337.67 978 381.33 1018.5 430 1045.5 c
478.67 1072.5 537.67 1086 607 1086 c
697.67 1086 777.67 1062.67 847 1016 c
916.33 969.33 968.67 903.5 1004 818.5 c
1039.33 733.5 1057 640.33 1057 539 c
1057 430.33 1037.5 332.5 998.5 245.5 c
959.5 158.5 902.83 91.83 828.5 45.5 c
754.17 -0.83 676 -24 594 -24 c
534 -24 480.17 -11.33 432.5 14 c
384.83 39.33 345.67 71.33 315 110 c
315 -407 315 110 315 -407 c
135 -407 315 -407 135 -407 c
closepath 298 525 m
298 388.33 325.67 287.33 381 222 c
436.33 156.67 503.33 124 582 124 c
662 124 730.5 157.83 787.5 225.5 c
844.5 293.17 873 398 873 540 c
873 675.33 845.17 776.67 789.5 844 c
733.83 911.33 667.33 945 590 945 c
513.33 945 445.5 909.17 386.5 837.5 c
327.5 765.83 298 661.67 298 525 c
closepath } bind def
/s114 {
133 0 m
133 1062 133 0 133 1062 c
295 1062 133 1062 295 1062 c
295 901 295 1062 295 901 c
336.33 976.33 374.5 1026 409.5 1050 c
444.5 1074 483 1086 525 1086 c
585.67 1086 647.33 1066.67 710 1028 c
648 861 710 1028 648 861 c
604 887 560 900 516 900 c
476.67 900 441.33 888.17 410 864.5 c
378.67 840.83 356.33 808 343 766 c
323 702 313 632 313 556 c
313 0 313 556 313 0 c
133 0 313 0 133 0 c
closepath } bind def
/s115 {
63 317 m
241 345 63 317 241 345 c
251 273.67 278.83 219 324.5 181 c
370.17 143 434 124 516 124 c
598.67 124 660 140.83 700 174.5 c
740 208.17 760 247.67 760 293 c
760 333.67 742.33 365.67 707 389 c
682.33 405 621 425.33 523 450 c
391 483.33 299.5 512.17 248.5 536.5 c
197.5 560.83 158.83 594.5 132.5 637.5 c
106.17 680.5 93 728 93 780 c
93 827.33 103.83 871.17 125.5 911.5 c
147.17 951.83 176.67 985.33 214 1012 c
242 1032.67 280.17 1050.17 328.5 1064.5 c
376.83 1078.83 428.67 1086 484 1086 c
567.33 1086 640.5 1074 703.5 1050 c
766.5 1026 813 993.5 843 952.5 c
873 911.5 893.67 856.67 905 788 c
729 764 905 788 729 764 c
721 818.67 697.83 861.33 659.5 892 c
621.17 922.67 567 938 497 938 c
414.33 938 355.33 924.33 320 897 c
284.67 869.67 267 837.67 267 801 c
267 777.67 274.33 756.67 289 738 c
303.67 718.67 326.67 702.67 358 690 c
376 683.33 429 668 517 644 c
644.33 610 733.17 582.17 783.5 560.5 c
833.83 538.83 873.33 507.33 902 466 c
930.67 424.67 945 373.33 945 312 c
945 252 927.5 195.5 892.5 142.5 c
857.5 89.5 807 48.5 741 19.5 c
675 -9.5 600.33 -24 517 -24 c
379 -24 273.83 4.67 201.5 62 c
129.17 119.33 83 204.33 63 317 c
closepath } bind def
/s118 {
430 0 m
26 1062 430 0 26 1062 c
216 1062 26 1062 216 1062 c
444 426 216 1062 444 426 c
468.67 357.33 491.33 286 512 212 c
528 268 550.33 335.33 579 414 c
815 1062 579 414 815 1062 c
1000 1062 815 1062 1000 1062 c
598 0 1000 1062 598 0 c
430 0 598 0 430 0 c
closepath } bind def
/s121 {
127 -409 m
107 -240 127 -409 107 -240 c
146.33 -250.67 180.67 -256 210 -256 c
250 -256 282 -249.33 306 -236 c
330 -222.67 349.67 -204 365 -180 c
376.33 -162 394.67 -117.33 420 -46 c
423.33 -36 428.67 -21.33 436 -2 c
33 1062 436 -2 33 1062 c
227 1062 33 1062 227 1062 c
448 447 227 1062 448 447 c
476.67 369 502.33 287 525 201 c
545.67 283.67 570.33 364.33 599 443 c
826 1062 599 443 826 1062 c
1006 1062 826 1062 1006 1062 c
602 -18 1006 1062 602 -18 c
558.67 -134.67 525 -215 501 -259 c
469 -318.33 432.33 -361.83 391 -389.5 c
349.67 -417.17 300.33 -431 243 -431 c
208.33 -431 169.67 -423.67 127 -409 c
closepath } bind def
end
/BuildGlyph {
 exch dup /Metrics get 2 index get 0 setcharwidth
/CharProcs get exch 2 copy known not{pop/.notdef}if get exec fill}bind def
/BuildChar {
1 index /Encoding get exch get
1 index /BuildGlyph get exec
} bind def
currentdict end /MC1_Arial exch definefont pop
%%EndFont
%%BeginFont: /MC2_Arial
12 dict begin
/FontInfo 8 dict dup begin
/ItalicAngle 0 def
/UnderlinePosition -217.00 def
/UnderlineThickness 150.00 def
/StrikeoutPosition 530.00 def
/StrikeoutThickness 102.00 def
/isFixedPitch false def
end readonly def
/FontName /MC2_Arial def
/FontType 3 def
/FontMatrix [1 2048 div 0 0 1 2048 div 0 0] def
/FontBBox [-1361 -665 4096 2129] def
/Encoding 256 array def 0 1 255{Encoding exch/.notdef put}for
Encoding 32/s32 put
Encoding 40/s40 put
Encoding 41/s41 put
Encoding 73/s73 put
Encoding 97/s97 put
Encoding 98/s98 put
Encoding 101/s101 put
Encoding 105/s105 put
Encoding 110/s110 put
Encoding 114/s114 put
Encoding 115/s115 put
Encoding 116/s116 put
Encoding 121/s121 put
/BoundingBoxes 14 dict def
BoundingBoxes begin
/s32 [0 -434 569 1854] def
/s40 [0 -434 682 1854] def
/s41 [0 -434 682 1854] def
/s73 [0 -434 569 1854] def
/s97 [0 -434 1139 1854] def
/s98 [0 -434 1139 1854] def
/s101 [0 -434 1139 1854] def
/s105 [0 -434 455 1854] def
/s110 [0 -434 1139 1854] def
/s114 [0 -434 682 1854] def
/s115 [0 -434 1024 1854] def
/s116 [0 -434 569 1854] def
/s121 [0 -434 1024 1854] def
end
/Metrics 14 dict def
 Metrics begin
/s32 569 def
/s40 682 def
/s41 682 def
/s73 569 def
/s97 1139 def
/s98 1139 def
/s101 1139 def
/s105 455 def
/s110 1139 def
/s114 682 def
/s115 1024 def
/s116 569 def
/s121 1024 def
end
/CharProcs 14 dict def
CharProcs begin
/.notdef {} def
/s40 {
479 -431 m
379.67 -305.67 295.67 -159 227 9 c
158.33 177 124 351 124 531 c
124 689.67 149.67 841.67 201 987 c
261 1155.67 353.67 1323.67 479 1491 c
608 1491 479 1491 608 1491 c
527.33 1352.33 474 1253.33 448 1194 c
407.33 1102 375.33 1006 352 906 c
323.33 781.33 309 656 309 530 c
309 209.33 408.67 -111 608 -431 c
479 -431 608 -431 479 -431 c
closepath } bind def
/s41 {
253 -431 m
124 -431 253 -431 124 -431 c
323.33 -111 423 209.33 423 530 c
423 655.33 408.67 779.67 380 903 c
357.33 1003 325.67 1099 285 1191 c
259 1251 205.33 1351 124 1491 c
253 1491 124 1491 253 1491 c
378.33 1323.67 471 1155.67 531 987 c
582.33 841.67 608 689.67 608 531 c
608 351 573.5 177 504.5 9 c
435.5 -159 351.67 -305.67 253 -431 c
closepath } bind def
/s73 {
191 0 m
191 1466 191 0 191 1466 c
385 1466 191 1466 385 1466 c
385 0 385 1466 385 0 c
191 0 385 0 191 0 c
closepath } bind def
/s97 {
828 131 m
761.33 74.33 697.17 34.33 635.5 11 c
573.83 -12.33 507.67 -24 437 -24 c
320.33 -24 230.67 4.5 168 61.5 c
105.33 118.5 74 191.33 74 280 c
74 332 85.83 379.5 109.5 422.5 c
133.17 465.5 164.17 500 202.5 526 c
240.83 552 284 571.67 332 585 c
367.33 594.33 420.67 603.33 492 612 c
637.33 629.33 744.33 650 813 674 c
813.67 698.67 814 714.33 814 721 c
814 794.33 797 846 763 876 c
717 916.67 648.67 937 558 937 c
473.33 937 410.83 922.17 370.5 892.5 c
330.17 862.83 300.33 810.33 281 735 c
105 759 281 735 105 759 c
121 834.33 147.33 895.17 184 941.5 c
220.67 987.83 273.67 1023.5 343 1048.5 c
412.33 1073.5 492.67 1086 584 1086 c
674.67 1086 748.33 1075.33 805 1054 c
861.67 1032.67 903.33 1005.83 930 973.5 c
956.67 941.17 975.33 900.33 986 851 c
992 820.33 995 765 995 685 c
995 445 995 685 995 445 c
995 277.67 998.83 171.83 1006.5 127.5 c
1014.17 83.17 1029.33 40.67 1052 0 c
864 0 1052 0 864 0 c
845.33 37.33 833.33 81 828 131 c
closepath 813 533 m
747.67 506.33 649.67 483.67 519 465 c
445 454.33 392.67 442.33 362 429 c
331.33 415.67 307.67 396.17 291 370.5 c
274.33 344.83 266 316.33 266 285 c
266 237 284.17 197 320.5 165 c
356.83 133 410 117 480 117 c
549.33 117 611 132.17 665 162.5 c
719 192.83 758.67 234.33 784 287 c
803.33 327.67 813 387.67 813 467 c
813 533 813 467 813 533 c
closepath } bind def
/s98 {
301 0 m
134 0 301 0 134 0 c
134 1466 134 0 134 1466 c
314 1466 134 1466 314 1466 c
314 943 314 1466 314 943 c
390 1038.33 487 1086 605 1086 c
670.33 1086 732.17 1072.83 790.5 1046.5 c
848.83 1020.17 896.83 983.17 934.5 935.5 c
972.17 887.83 1001.67 830.33 1023 763 c
1044.33 695.67 1055 623.67 1055 547 c
1055 365 1010 224.33 920 125 c
830 25.67 722 -24 596 -24 c
470.67 -24 372.33 28.33 301 133 c
301 0 301 133 301 0 c
closepath 299 539 m
299 411.67 316.33 319.67 351 263 c
407.67 170.33 484.33 124 581 124 c
659.67 124 727.67 158.17 785 226.5 c
842.33 294.83 871 396.67 871 532 c
871 670.67 843.5 773 788.5 839 c
733.5 905 667 938 589 938 c
510.33 938 442.33 903.83 385 835.5 c
327.67 767.17 299 668.33 299 539 c
closepath } bind def
/s101 {
862 342 m
1048 319 862 342 1048 319 c
1018.67 210.33 964.33 126 885 66 c
805.67 6 704.33 -24 581 -24 c
425.67 -24 302.5 23.83 211.5 119.5 c
120.5 215.17 75 349.33 75 522 c
75 700.67 121 839.33 213 938 c
305 1036.67 424.33 1086 571 1086 c
713 1086 829 1037.67 919 941 c
1009 844.33 1054 708.33 1054 533 c
1054 522.33 1053.67 506.33 1053 485 c
261 485 1053 485 261 485 c
267.67 368.33 300.67 279 360 217 c
419.33 155 493.33 124 582 124 c
648 124 704.33 141.33 751 176 c
797.67 210.67 834.67 266 862 342 c
closepath 271 633 m
864 633 271 633 864 633 c
856 722.33 833.33 789.33 796 834 c
738.67 903.33 664.33 938 573 938 c
490.33 938 420.83 910.33 364.5 855 c
308.17 799.67 277 725.67 271 633 c
closepath } bind def
/s105 {
136 1259 m
136 1466 136 1259 136 1466 c
316 1466 136 1466 316 1466 c
316 1259 316 1466 316 1259 c
136 1259 316 1259 136 1259 c
closepath 136 0 m
136 1062 136 0 136 1062 c
316 1062 136 1062 316 1062 c
316 0 316 1062 316 0 c
136 0 316 0 136 0 c
closepath } bind def
/s110 {
135 0 m
135 1062 135 0 135 1062 c
297 1062 135 1062 297 1062 c
297 911 297 1062 297 911 c
375 1027.67 487.67 1086 635 1086 c
699 1086 757.83 1074.5 811.5 1051.5 c
865.17 1028.5 905.33 998.33 932 961 c
958.67 923.67 977.33 879.33 988 828 c
994.67 794.67 998 736.33 998 653 c
998 0 998 653 998 0 c
818 0 998 0 818 0 c
818 646 818 0 818 646 c
818 719.33 811 774.17 797 810.5 c
783 846.83 758.17 875.83 722.5 897.5 c
686.83 919.17 645 930 597 930 c
520.33 930 454.17 905.67 398.5 857 c
342.83 808.33 315 716 315 580 c
315 0 315 580 315 0 c
135 0 315 0 135 0 c
closepath } bind def
/s114 {
133 0 m
133 1062 133 0 133 1062 c
295 1062 133 1062 295 1062 c
295 901 295 1062 295 901 c
336.33 976.33 374.5 1026 409.5 1050 c
444.5 1074 483 1086 525 1086 c
585.67 1086 647.33 1066.67 710 1028 c
648 861 710 1028 648 861 c
604 887 560 900 516 900 c
476.67 900 441.33 888.17 410 864.5 c
378.67 840.83 356.33 808 343 766 c
323 702 313 632 313 556 c
313 0 313 556 313 0 c
133 0 313 0 133 0 c
closepath } bind def
/s115 {
63 317 m
241 345 63 317 241 345 c
251 273.67 278.83 219 324.5 181 c
370.17 143 434 124 516 124 c
598.67 124 660 140.83 700 174.5 c
740 208.17 760 247.67 760 293 c
760 333.67 742.33 365.67 707 389 c
682.33 405 621 425.33 523 450 c
391 483.33 299.5 512.17 248.5 536.5 c
197.5 560.83 158.83 594.5 132.5 637.5 c
106.17 680.5 93 728 93 780 c
93 827.33 103.83 871.17 125.5 911.5 c
147.17 951.83 176.67 985.33 214 1012 c
242 1032.67 280.17 1050.17 328.5 1064.5 c
376.83 1078.83 428.67 1086 484 1086 c
567.33 1086 640.5 1074 703.5 1050 c
766.5 1026 813 993.5 843 952.5 c
873 911.5 893.67 856.67 905 788 c
729 764 905 788 729 764 c
721 818.67 697.83 861.33 659.5 892 c
621.17 922.67 567 938 497 938 c
414.33 938 355.33 924.33 320 897 c
284.67 869.67 267 837.67 267 801 c
267 777.67 274.33 756.67 289 738 c
303.67 718.67 326.67 702.67 358 690 c
376 683.33 429 668 517 644 c
644.33 610 733.17 582.17 783.5 560.5 c
833.83 538.83 873.33 507.33 902 466 c
930.67 424.67 945 373.33 945 312 c
945 252 927.5 195.5 892.5 142.5 c
857.5 89.5 807 48.5 741 19.5 c
675 -9.5 600.33 -24 517 -24 c
379 -24 273.83 4.67 201.5 62 c
129.17 119.33 83 204.33 63 317 c
closepath } bind def
/s116 {
528 161 m
554 2 528 161 554 2 c
503.33 -8.67 458 -14 418 -14 c
352.67 -14 302 -3.67 266 17 c
230 37.67 204.67 64.83 190 98.5 c
175.33 132.17 168 203 168 311 c
168 922 168 311 168 922 c
36 922 168 922 36 922 c
36 1062 36 922 36 1062 c
168 1062 36 1062 168 1062 c
168 1325 168 1062 168 1325 c
347 1433 168 1325 347 1433 c
347 1062 347 1433 347 1062 c
528 1062 347 1062 528 1062 c
528 922 528 1062 528 922 c
347 922 528 922 347 922 c
347 301 347 922 347 301 c
347 249.67 350.17 216.67 356.5 202 c
362.83 187.33 373.17 175.67 387.5 167 c
401.83 158.33 422.33 154 449 154 c
469 154 495.33 156.33 528 161 c
closepath } bind def
/s121 {
127 -409 m
107 -240 127 -409 107 -240 c
146.33 -250.67 180.67 -256 210 -256 c
250 -256 282 -249.33 306 -236 c
330 -222.67 349.67 -204 365 -180 c
376.33 -162 394.67 -117.33 420 -46 c
423.33 -36 428.67 -21.33 436 -2 c
33 1062 436 -2 33 1062 c
227 1062 33 1062 227 1062 c
448 447 227 1062 448 447 c
476.67 369 502.33 287 525 201 c
545.67 283.67 570.33 364.33 599 443 c
826 1062 599 443 826 1062 c
1006 1062 826 1062 1006 1062 c
602 -18 1006 1062 602 -18 c
558.67 -134.67 525 -215 501 -259 c
469 -318.33 432.33 -361.83 391 -389.5 c
349.67 -417.17 300.33 -431 243 -431 c
208.33 -431 169.67 -423.67 127 -409 c
closepath } bind def
end
/BuildGlyph {
 exch dup /Metrics get 2 index get 0 setcharwidth
/CharProcs get exch 2 copy known not{pop/.notdef}if get exec fill}bind def
/BuildChar {
1 index /Encoding get exch get
1 index /BuildGlyph get exec
} bind def
currentdict end /MC2_Arial exch definefont pop
%%EndFont
/clipproc{clippath{[{/m cvx}{/l cvx}{/c cvx}{/cp cvx}pathforall}stopped
{cleartomark[pathbbox exch 3 i sub exch 2 i sub/rectpath cvx}if]np}bd
/iclmtx mtx cmtx def/iclpath clipproc xd/clinit{pathproc initclip np iclpath cl np exec}bd
/clmove{pathproc 3 1 roll clippath pathproc 2 i neg 2 i neg tr initclip np exec cl tr np exec}bd
/clrect[gs np iclpath{pathbbox}stopped{0 0 771.85 590.88 }if gr]def
/cloper{mtx cmtx iclmtx smtx exch exec smtx}bd
/cland{{exch cvx exec}cloper}bd
/clcopy{{exch clinit cvx exec}cloper}bd
/cldiff{{exch pathbbox 4 -1 roll clrect 0 get 2 copy gt{exch}if pop 4 1 roll
 3 -1 roll clrect 1 get 2 copy gt{exch}if pop 3 1 roll
 2 -1 roll clrect 2 get 2 copy lt{exch}if pop 2 1 roll
 1 -1 roll clrect 3 get 2 copy lt{exch}if pop 1 1 roll
 exch 3 i sub exch 2 i sub rectpath cvx exec}cloper}bd
/icl{{clinit}cloper}bd
0.554822 0.554197 sc

/initmtx mtx cmtx def
initmtx smtx
[1.0000 0.0000 0.0000 1.0000 0.0000 0.0000 ] concat
 [0.432579 -0 0 -0.433071 0 1066.2] concat
gs
2769 2053 m
576 2053 l
7 sw
1 sj
2 scap
st
2570 2053 m
2570 2036 l
0 scap
st
2171 2053 m
2171 2036 l
st
1772 2053 m
1772 2036 l
st
1373 2053 m
1373 2036 l
st
975 2053 m
975 2036 l
st
576 2053 m
576 2036 l
st
2769 2053 m
2769 2019 l
st
2370 2053 m
2370 2019 l
st
1972 2053 m
1972 2019 l
st
1573 2053 m
1573 2019 l
st
1174 2053 m
1174 2019 l
st
775 2053 m
775 2019 l
st
2769 286 m
576 286 l
2 scap
st
2769 2053 m
2769 286 l
st
576 2053 m
576 286 l
st
576 2053 m
593 2053 l
0 scap
st
576 1660 m
593 1660 l
st
576 1268 m
593 1268 l
st
576 875 m
593 875 l
st
576 482 m
593 482 l
st
576 1857 m
610 1857 l
st
576 1464 m
610 1464 l
st
576 1071 m
610 1071 l
st
576 679 m
610 679 l
st
576 286 m
610 286 l
st
gs
gr
gs
gr
gs
1 -1 sc
/MC1_Arial 75 self 2706 -2150 m
(140)[41 41 41 ] xs
1 -1 sc
gr
gs
gr
gs
gr
gs
1 -1 sc
/MC1_Arial 75 self 2307 -2150 m
(145)[41 41 41 ] xs
1 -1 sc
gr
gs
gr
gs
gr
gs
1 -1 sc
/MC1_Arial 75 self 1909 -2150 m
(150)[41 41 41 ] xs
1 -1 sc
gr
gs
gr
gs
gr
gs
1 -1 sc
/MC1_Arial 75 self 1510 -2150 m
(155)[41 41 41 ] xs
1 -1 sc
gr
gs
gr
gs
gr
gs
1 -1 sc
/MC1_Arial 75 self 1111 -2150 m
(160)[41 41 41 ] xs
1 -1 sc
gr
gs
gr
gs
gr
gs
1 -1 sc
/MC1_Arial 75 self 712 -2150 m
(165)[41 41 41 ] xs
1 -1 sc
gr
gs
gr
gs
gr
gs
1 -1 sc
/MC1_Arial 75 self 412 -1880 m
(100)[41 41 41 ] xs
1 -1 sc
gr
gs
gr
gs
gr
gs
1 -1 sc
/MC1_Arial 75 self 412 -1487 m
(150)[41 41 41 ] xs
1 -1 sc
gr
gs
gr
gs
gr
gs
1 -1 sc
/MC1_Arial 75 self 412 -1094 m
(200)[41 41 41 ] xs
1 -1 sc
gr
gs
gr
gs
gr
gs
1 -1 sc
/MC1_Arial 75 self 412 -702 m
(250)[41 41 41 ] xs
1 -1 sc
gr
gs
gr
gs
gr
gs
1 -1 sc
/MC1_Arial 75 self 412 -309 m
(300)[41 41 41 ] xs
1 -1 sc
gr
gs
gr
gs
gr
gs
gr
gs
gr
gs
gr
gs
gr
gs
gr
gs
gr
gs
gr
gs
gr
gs
gr
gs
gr
gs
gr
gs
gr
gs
gr
gs
gr
gs
gr
gs
gr
gs
gr
gs
gr
gs
gr
gs
gr
gs
gr
gs
gr
gs
gr
gs
gr
gs
gr
gs
gr
gs
gr
gs
gr
gs
pathproc 576 286 2194 1768 np rectpath
/eocl cland
np exec
0.318 0.318 0.318 rgb
849 1656 12 12 rectfill
610 286 m
1 sw
1 scap
849 1656 12 12 rectstroke
857 1648 12 12 rectfill
857 1648 12 12 rectstroke
865 1601 12 12 rectfill
865 1601 12 12 rectstroke
873 1480 12 12 rectfill
873 1480 12 12 rectstroke
881 1790 12 12 rectfill
881 1790 12 12 rectstroke
889 1515 12 12 rectfill
889 1515 12 12 rectstroke
897 1369 12 12 rectfill
897 1369 12 12 rectstroke
905 1461 12 12 rectfill
905 1461 12 12 rectstroke
913 1513 12 12 rectfill
913 1513 12 12 rectstroke
921 1562 12 12 rectfill
921 1562 12 12 rectstroke
929 1528 12 12 rectfill
929 1528 12 12 rectstroke
937 1647 12 12 rectfill
937 1647 12 12 rectstroke
945 1504 12 12 rectfill
945 1504 12 12 rectstroke
953 1455 12 12 rectfill
953 1455 12 12 rectstroke
961 1619 12 12 rectfill
961 1619 12 12 rectstroke
969 1549 12 12 rectfill
969 1549 12 12 rectstroke
977 1633 12 12 rectfill
977 1633 12 12 rectstroke
985 1568 12 12 rectfill
985 1568 12 12 rectstroke
993 1625 12 12 rectfill
993 1625 12 12 rectstroke
1001 1499 12 12 rectfill
1001 1499 12 12 rectstroke
1009 1590 12 12 rectfill
1009 1590 12 12 rectstroke
1017 1610 12 12 rectfill
1017 1610 12 12 rectstroke
1025 1358 12 12 rectfill
1025 1358 12 12 rectstroke
1033 1637 12 12 rectfill
1033 1637 12 12 rectstroke
1040 1395 12 12 rectfill
1040 1395 12 12 rectstroke
1048 1616 12 12 rectfill
1048 1616 12 12 rectstroke
1056 1542 12 12 rectfill
1056 1542 12 12 rectstroke
1064 1697 12 12 rectfill
1064 1697 12 12 rectstroke
1072 1663 12 12 rectfill
1072 1663 12 12 rectstroke
1080 1657 12 12 rectfill
1080 1657 12 12 rectstroke
1088 1600 12 12 rectfill
1088 1600 12 12 rectstroke
1096 1566 12 12 rectfill
1096 1566 12 12 rectstroke
1104 1503 12 12 rectfill
1104 1503 12 12 rectstroke
1112 1592 12 12 rectfill
1112 1592 12 12 rectstroke
1120 1600 12 12 rectfill
1120 1600 12 12 rectstroke
1128 1641 12 12 rectfill
1128 1641 12 12 rectstroke
1136 1396 12 12 rectfill
1136 1396 12 12 rectstroke
1144 1379 12 12 rectfill
1144 1379 12 12 rectstroke
1152 1511 12 12 rectfill
1152 1511 12 12 rectstroke
1160 1679 12 12 rectfill
1160 1679 12 12 rectstroke
1168 1574 12 12 rectfill
1168 1574 12 12 rectstroke
1176 1582 12 12 rectfill
1176 1582 12 12 rectstroke
1184 1687 12 12 rectfill
1184 1687 12 12 rectstroke
1192 1779 12 12 rectfill
1192 1779 12 12 rectstroke
1200 1514 12 12 rectfill
1200 1514 12 12 rectstroke
1208 1536 12 12 rectfill
1208 1536 12 12 rectstroke
1216 1660 12 12 rectfill
1216 1660 12 12 rectstroke
1224 1665 12 12 rectfill
1224 1665 12 12 rectstroke
1232 1535 12 12 rectfill
1232 1535 12 12 rectstroke
1240 1490 12 12 rectfill
1240 1490 12 12 rectstroke
1248 1523 12 12 rectfill
1248 1523 12 12 rectstroke
1256 1386 12 12 rectfill
1256 1386 12 12 rectstroke
1264 1464 12 12 rectfill
1264 1464 12 12 rectstroke
1272 1605 12 12 rectfill
1272 1605 12 12 rectstroke
1280 1598 12 12 rectfill
1280 1598 12 12 rectstroke
1288 1564 12 12 rectfill
1288 1564 12 12 rectstroke
1296 1464 12 12 rectfill
1296 1464 12 12 rectstroke
1304 1660 12 12 rectfill
1304 1660 12 12 rectstroke
1312 1552 12 12 rectfill
1312 1552 12 12 rectstroke
1320 1687 12 12 rectfill
1320 1687 12 12 rectstroke
1328 1477 12 12 rectfill
1328 1477 12 12 rectstroke
1336 1470 12 12 rectfill
1336 1470 12 12 rectstroke
1344 1451 12 12 rectfill
1344 1451 12 12 rectstroke
1352 1447 12 12 rectfill
1352 1447 12 12 rectstroke
1359 1371 12 12 rectfill
1359 1371 12 12 rectstroke
1367 1431 12 12 rectfill
1367 1431 12 12 rectstroke
1375 1294 12 12 rectfill
1375 1294 12 12 rectstroke
1383 1140 12 12 rectfill
1383 1140 12 12 rectstroke
1391 1343 12 12 rectfill
1391 1343 12 12 rectstroke
1399 1270 12 12 rectfill
1399 1270 12 12 rectstroke
1407 1227 12 12 rectfill
1407 1227 12 12 rectstroke
1415 1045 12 12 rectfill
1415 1045 12 12 rectstroke
1423 997 12 12 rectfill
1423 997 12 12 rectstroke
1431 1321 12 12 rectfill
1431 1321 12 12 rectstroke
1439 1011 12 12 rectfill
1439 1011 12 12 rectstroke
1447 893 12 12 rectfill
1447 893 12 12 rectstroke
1455 1139 12 12 rectfill
1455 1139 12 12 rectstroke
1463 869 12 12 rectfill
1463 869 12 12 rectstroke
1471 660 12 12 rectfill
1471 660 12 12 rectstroke
1479 962 12 12 rectfill
1479 962 12 12 rectstroke
1487 638 12 12 rectfill
1487 638 12 12 rectstroke
1495 660 12 12 rectfill
1495 660 12 12 rectstroke
1503 792 12 12 rectfill
1503 792 12 12 rectstroke
1511 585 12 12 rectfill
1511 585 12 12 rectstroke
1519 457 12 12 rectfill
1519 457 12 12 rectstroke
1527 619 12 12 rectfill
1527 619 12 12 rectstroke
1535 540 12 12 rectfill
1535 540 12 12 rectstroke
1543 795 12 12 rectfill
1543 795 12 12 rectstroke
1551 943 12 12 rectfill
1551 943 12 12 rectstroke
1559 572 12 12 rectfill
1559 572 12 12 rectstroke
1567 409 12 12 rectfill
1567 409 12 12 rectstroke
1575 623 12 12 rectfill
1575 623 12 12 rectstroke
1583 716 12 12 rectfill
1583 716 12 12 rectstroke
1591 932 12 12 rectfill
1591 932 12 12 rectstroke
1599 616 12 12 rectfill
1599 616 12 12 rectstroke
1607 536 12 12 rectfill
1607 536 12 12 rectstroke
1615 398 12 12 rectfill
1615 398 12 12 rectstroke
1623 485 12 12 rectfill
1623 485 12 12 rectstroke
1631 653 12 12 rectfill
1631 653 12 12 rectstroke
1639 859 12 12 rectfill
1639 859 12 12 rectstroke
1647 728 12 12 rectfill
1647 728 12 12 rectstroke
1655 826 12 12 rectfill
1655 826 12 12 rectstroke
1663 780 12 12 rectfill
1663 780 12 12 rectstroke
1670 851 12 12 rectfill
1670 851 12 12 rectstroke
1678 928 12 12 rectfill
1678 928 12 12 rectstroke
1686 851 12 12 rectfill
1686 851 12 12 rectstroke
1694 1097 12 12 rectfill
1694 1097 12 12 rectstroke
1702 884 12 12 rectfill
1702 884 12 12 rectstroke
1710 937 12 12 rectfill
1710 937 12 12 rectstroke
1718 1007 12 12 rectfill
1718 1007 12 12 rectstroke
1726 1118 12 12 rectfill
1726 1118 12 12 rectstroke
1734 1086 12 12 rectfill
1734 1086 12 12 rectstroke
1742 928 12 12 rectfill
1742 928 12 12 rectstroke
1750 1046 12 12 rectfill
1750 1046 12 12 rectstroke
1758 1038 12 12 rectfill
1758 1038 12 12 rectstroke
1766 1153 12 12 rectfill
1766 1153 12 12 rectstroke
1774 872 12 12 rectfill
1774 872 12 12 rectstroke
1782 1164 12 12 rectfill
1782 1164 12 12 rectstroke
1790 1290 12 12 rectfill
1790 1290 12 12 rectstroke
1798 1032 12 12 rectfill
1798 1032 12 12 rectstroke
1806 1058 12 12 rectfill
1806 1058 12 12 rectstroke
1814 1246 12 12 rectfill
1814 1246 12 12 rectstroke
1822 1213 12 12 rectfill
1822 1213 12 12 rectstroke
1830 1268 12 12 rectfill
1830 1268 12 12 rectstroke
1838 1336 12 12 rectfill
1838 1336 12 12 rectstroke
1846 1347 12 12 rectfill
1846 1347 12 12 rectstroke
1854 1311 12 12 rectfill
1854 1311 12 12 rectstroke
1862 1350 12 12 rectfill
1862 1350 12 12 rectstroke
1870 1491 12 12 rectfill
1870 1491 12 12 rectstroke
1878 1329 12 12 rectfill
1878 1329 12 12 rectstroke
1886 1439 12 12 rectfill
1886 1439 12 12 rectstroke
1894 1329 12 12 rectfill
1894 1329 12 12 rectstroke
1902 1399 12 12 rectfill
1902 1399 12 12 rectstroke
1910 1340 12 12 rectfill
1910 1340 12 12 rectstroke
1918 1328 12 12 rectfill
1918 1328 12 12 rectstroke
1926 1432 12 12 rectfill
1926 1432 12 12 rectstroke
1934 1560 12 12 rectfill
1934 1560 12 12 rectstroke
1942 1540 12 12 rectfill
1942 1540 12 12 rectstroke
1950 1373 12 12 rectfill
1950 1373 12 12 rectstroke
1958 1267 12 12 rectfill
1958 1267 12 12 rectstroke
1966 1306 12 12 rectfill
1966 1306 12 12 rectstroke
1974 1412 12 12 rectfill
1974 1412 12 12 rectstroke
1981 1467 12 12 rectfill
1981 1467 12 12 rectstroke
1989 1560 12 12 rectfill
1989 1560 12 12 rectstroke
1997 1391 12 12 rectfill
1997 1391 12 12 rectstroke
2005 1313 12 12 rectfill
2005 1313 12 12 rectstroke
2013 1335 12 12 rectfill
2013 1335 12 12 rectstroke
2021 1604 12 12 rectfill
2021 1604 12 12 rectstroke
2029 1613 12 12 rectfill
2029 1613 12 12 rectstroke
2037 1656 12 12 rectfill
2037 1656 12 12 rectstroke
2045 1554 12 12 rectfill
2045 1554 12 12 rectstroke
2053 1468 12 12 rectfill
2053 1468 12 12 rectstroke
2061 1310 12 12 rectfill
2061 1310 12 12 rectstroke
2069 1300 12 12 rectfill
2069 1300 12 12 rectstroke
2077 1563 12 12 rectfill
2077 1563 12 12 rectstroke
2085 1619 12 12 rectfill
2085 1619 12 12 rectstroke
2093 1454 12 12 rectfill
2093 1454 12 12 rectstroke
2101 1508 12 12 rectfill
2101 1508 12 12 rectstroke
2109 1671 12 12 rectfill
2109 1671 12 12 rectstroke
2117 1572 12 12 rectfill
2117 1572 12 12 rectstroke
2125 1579 12 12 rectfill
2125 1579 12 12 rectstroke
2133 1540 12 12 rectfill
2133 1540 12 12 rectstroke
2141 1614 12 12 rectfill
2141 1614 12 12 rectstroke
2149 1704 12 12 rectfill
2149 1704 12 12 rectstroke
2157 1533 12 12 rectfill
2157 1533 12 12 rectstroke
2165 1509 12 12 rectfill
2165 1509 12 12 rectstroke
2173 1672 12 12 rectfill
2173 1672 12 12 rectstroke
2181 1634 12 12 rectfill
2181 1634 12 12 rectstroke
2189 1782 12 12 rectfill
2189 1782 12 12 rectstroke
2197 1341 12 12 rectfill
2197 1341 12 12 rectstroke
2205 1426 12 12 rectfill
2205 1426 12 12 rectstroke
2213 1437 12 12 rectfill
2213 1437 12 12 rectstroke
2221 1644 12 12 rectfill
2221 1644 12 12 rectstroke
2229 1496 12 12 rectfill
2229 1496 12 12 rectstroke
2237 1749 12 12 rectfill
2237 1749 12 12 rectstroke
2245 1727 12 12 rectfill
2245 1727 12 12 rectstroke
2253 1583 12 12 rectfill
2253 1583 12 12 rectstroke
2261 1804 12 12 rectfill
2261 1804 12 12 rectstroke
2269 1615 12 12 rectfill
2269 1615 12 12 rectstroke
2277 1559 12 12 rectfill
2277 1559 12 12 rectstroke
2285 1410 12 12 rectfill
2285 1410 12 12 rectstroke
2293 1286 12 12 rectfill
2293 1286 12 12 rectstroke
2300 1505 12 12 rectfill
2300 1505 12 12 rectstroke
2308 1519 12 12 rectfill
2308 1519 12 12 rectstroke
2316 1720 12 12 rectfill
2316 1720 12 12 rectstroke
2324 1718 12 12 rectfill
2324 1718 12 12 rectstroke
2332 1844 12 12 rectfill
2332 1844 12 12 rectstroke
2340 1672 12 12 rectfill
2340 1672 12 12 rectstroke
2348 1711 12 12 rectfill
2348 1711 12 12 rectstroke
2356 1701 12 12 rectfill
2356 1701 12 12 rectstroke
2364 1574 12 12 rectfill
2364 1574 12 12 rectstroke
2372 1607 12 12 rectfill
2372 1607 12 12 rectstroke
2380 1638 12 12 rectfill
2380 1638 12 12 rectstroke
2388 1560 12 12 rectfill
2388 1560 12 12 rectstroke
2396 1578 12 12 rectfill
2396 1578 12 12 rectstroke
2404 1494 12 12 rectfill
2404 1494 12 12 rectstroke
2412 1577 12 12 rectfill
2412 1577 12 12 rectstroke
2420 1644 12 12 rectfill
2420 1644 12 12 rectstroke
2428 1721 12 12 rectfill
2428 1721 12 12 rectstroke
2436 1693 12 12 rectfill
2436 1693 12 12 rectstroke
2444 1502 12 12 rectfill
2444 1502 12 12 rectstroke
gr
gs
pathproc 576 286 2194 1768 np rectpath
/eocl cland
np exec
855 1660 m
863 1652 l
871 1605 l
879 1484 l
887 1599 l
895 1599 l
903 1600 l
911 1600 l
919 1600 l
927 1600 l
935 1601 l
943 1601 l
951 1601 l
959 1602 l
967 1602 l
975 1602 l
983 1602 l
991 1603 l
999 1603 l
1007 1603 l
1015 1604 l
1023 1604 l
1031 1604 l
1039 1604 l
1046 1605 l
1054 1605 l
1062 1605 l
1070 1605 l
1078 1606 l
1086 1606 l
1094 1606 l
1102 1606 l
1110 1606 l
1118 1606 l
1126 1606 l
1134 1606 l
1142 1606 l
1150 1606 l
1158 1606 l
1166 1606 l
1174 1605 l
1182 1605 l
1190 1605 l
1198 1604 l
1206 1603 l
1214 1602 l
1222 1601 l
1230 1600 l
1238 1599 l
1246 1597 l
1254 1595 l
1262 1593 l
1270 1590 l
1278 1588 l
1286 1585 l
1294 1581 l
1302 1577 l
1310 1573 l
1318 1568 l
1326 1562 l
1334 1556 l
1342 1550 l
1350 1542 l
1358 1534 l
1365 1526 l
1373 1516 l
1381 1506 l
1389 1495 l
1397 1483 l
1405 1470 l
1413 1457 l
1421 1442 l
1429 1427 l
1437 1411 l
1445 1394 l
1453 1376 l
1461 1358 l
1469 1339 l
1477 1319 l
1485 1299 l
1493 1278 l
1501 1257 l
1509 1236 l
1517 1214 l
1525 1193 l
1533 1172 l
1541 1151 l
1549 1130 l
1557 1111 l
1565 1092 l
1573 1074 l
1581 1057 l
1589 1041 l
1597 1026 l
1605 1014 l
1613 1002 l
1621 993 l
1629 985 l
1637 979 l
1645 976 l
1653 974 l
1661 974 l
1669 976 l
1676 980 l
1684 986 l
1692 995 l
1700 1005 l
1708 1016 l
1716 1030 l
1724 1045 l
1732 1061 l
1740 1078 l
1748 1097 l
1756 1117 l
1764 1137 l
1772 1159 l
1780 1180 l
1788 1202 l
1796 1225 l
1804 1247 l
1812 1269 l
1820 1291 l
1828 1313 l
1836 1334 l
1844 1355 l
1852 1375 l
1860 1395 l
1868 1414 l
1876 1432 l
1884 1449 l
1892 1466 l
1900 1481 l
1908 1496 l
1916 1510 l
1924 1523 l
1932 1535 l
1940 1547 l
1948 1557 l
1956 1567 l
1964 1576 l
1972 1585 l
1980 1592 l
1987 1599 l
1995 1606 l
2003 1612 l
2011 1617 l
2019 1622 l
2027 1626 l
2035 1631 l
2043 1634 l
2051 1638 l
2059 1641 l
2067 1643 l
2075 1646 l
2083 1648 l
2091 1650 l
2099 1652 l
2107 1654 l
2115 1655 l
2123 1657 l
2131 1658 l
2139 1659 l
2147 1660 l
2155 1661 l
2163 1662 l
2171 1662 l
2179 1663 l
2187 1664 l
2195 1664 l
2203 1665 l
2211 1665 l
2219 1666 l
2227 1666 l
2235 1667 l
2243 1667 l
2251 1667 l
2259 1668 l
2267 1668 l
2275 1616 l
2283 1560 l
2291 1411 l
2299 1288 l
2306 1506 l
2314 1520 l
2322 1722 l
2330 1720 l
2338 1846 l
2346 1674 l
2354 1714 l
2362 1704 l
2370 1577 l
2378 1610 l
2386 1641 l
2394 1563 l
2402 1581 l
2410 1498 l
2418 1580 l
2426 1648 l
2434 1725 l
2442 1696 l
2450 1506 l
5 sw
0.945 0.251 0.251 rgb
1 scap
st
gr
gs
pathproc 576 286 2194 1768 np rectpath
/eocl cland
np exec
855 1661 m
863 1654 l
871 1606 l
879 1486 l
887 1601 l
895 1601 l
903 1601 l
911 1602 l
919 1602 l
927 1602 l
935 1603 l
943 1603 l
951 1603 l
959 1604 l
967 1604 l
975 1605 l
983 1605 l
991 1605 l
999 1606 l
1007 1606 l
1015 1607 l
1023 1607 l
1031 1607 l
1039 1608 l
1046 1608 l
1054 1609 l
1062 1609 l
1070 1610 l
1078 1610 l
1086 1610 l
1094 1611 l
1102 1611 l
1110 1612 l
1118 1612 l
1126 1612 l
1134 1613 l
1142 1613 l
1150 1613 l
1158 1614 l
1166 1614 l
1174 1614 l
1182 1614 l
1190 1614 l
1198 1614 l
1206 1614 l
1214 1614 l
1222 1614 l
1230 1613 l
1238 1612 l
1246 1611 l
1254 1610 l
1262 1608 l
1270 1606 l
1278 1604 l
1286 1600 l
1294 1597 l
1302 1592 l
1310 1586 l
1318 1580 l
1326 1572 l
1334 1563 l
1342 1552 l
1350 1540 l
1358 1527 l
1365 1511 l
1373 1494 l
1381 1475 l
1389 1455 l
1397 1432 l
1405 1408 l
1413 1383 l
1421 1357 l
1429 1330 l
1437 1302 l
1445 1275 l
1453 1248 l
1461 1223 l
1469 1199 l
1477 1177 l
1485 1158 l
1493 1142 l
1501 1129 l
1509 1121 l
1517 1116 l
1525 1116 l
1533 1120 l
1541 1128 l
1549 1140 l
1557 1156 l
1565 1175 l
1573 1197 l
1581 1221 l
1589 1247 l
1597 1275 l
1605 1304 l
1613 1332 l
1621 1361 l
1629 1389 l
1637 1416 l
1645 1442 l
1653 1466 l
1661 1489 l
1669 1510 l
1676 1529 l
1684 1547 l
1692 1563 l
1700 1576 l
1708 1589 l
1716 1600 l
1724 1609 l
1732 1617 l
1740 1625 l
1748 1631 l
1756 1636 l
1764 1641 l
1772 1645 l
1780 1648 l
1788 1651 l
1796 1653 l
1804 1655 l
1812 1657 l
1820 1659 l
1828 1660 l
1836 1661 l
1844 1662 l
1852 1663 l
1860 1664 l
1868 1665 l
1876 1665 l
1884 1666 l
1892 1666 l
1900 1667 l
1908 1667 l
1916 1668 l
1924 1668 l
1932 1668 l
1940 1669 l
1948 1669 l
1956 1669 l
1964 1670 l
1972 1670 l
1980 1670 l
1987 1670 l
1995 1670 l
2003 1671 l
2011 1671 l
2019 1671 l
2027 1671 l
2035 1671 l
2043 1671 l
2051 1672 l
2059 1672 l
2067 1672 l
2075 1672 l
2083 1672 l
2091 1672 l
2099 1672 l
2107 1672 l
2115 1672 l
2123 1672 l
2131 1672 l
2139 1672 l
2147 1672 l
2155 1673 l
2163 1673 l
2171 1673 l
2179 1673 l
2187 1673 l
2195 1673 l
2203 1673 l
2211 1673 l
2219 1673 l
2227 1673 l
2235 1673 l
2243 1673 l
2251 1673 l
2259 1673 l
2267 1673 l
2275 1621 l
2283 1564 l
2291 1416 l
2299 1292 l
2306 1510 l
2314 1524 l
2322 1726 l
2330 1723 l
2338 1849 l
2346 1677 l
2354 1717 l
2362 1707 l
2370 1580 l
2378 1612 l
2386 1644 l
2394 1565 l
2402 1584 l
2410 1500 l
2418 1583 l
2426 1650 l
2434 1727 l
2442 1698 l
2450 1508 l
5 sw
0.102 0.435 0.875 rgb
1 scap
st
gr
gs
pathproc 576 286 2194 1768 np rectpath
/eocl cland
np exec
855 1662 m
863 1654 l
871 1607 l
879 1486 l
887 1601 l
895 1602 l
903 1602 l
911 1602 l
919 1603 l
927 1603 l
935 1603 l
943 1604 l
951 1604 l
959 1605 l
967 1605 l
975 1606 l
983 1606 l
991 1606 l
999 1607 l
1007 1607 l
1015 1608 l
1023 1608 l
1031 1609 l
1039 1609 l
1046 1610 l
1054 1610 l
1062 1611 l
1070 1611 l
1078 1612 l
1086 1613 l
1094 1613 l
1102 1614 l
1110 1614 l
1118 1615 l
1126 1615 l
1134 1616 l
1142 1617 l
1150 1617 l
1158 1618 l
1166 1619 l
1174 1619 l
1182 1620 l
1190 1621 l
1198 1621 l
1206 1622 l
1214 1623 l
1222 1623 l
1230 1624 l
1238 1625 l
1246 1626 l
1254 1626 l
1262 1627 l
1270 1628 l
1278 1628 l
1286 1629 l
1294 1630 l
1302 1631 l
1310 1632 l
1318 1632 l
1326 1633 l
1334 1634 l
1342 1635 l
1350 1636 l
1358 1636 l
1365 1637 l
1373 1638 l
1381 1639 l
1389 1640 l
1397 1640 l
1405 1641 l
1413 1642 l
1421 1643 l
1429 1643 l
1437 1644 l
1445 1645 l
1453 1646 l
1461 1647 l
1469 1647 l
1477 1648 l
1485 1649 l
1493 1649 l
1501 1650 l
1509 1651 l
1517 1651 l
1525 1652 l
1533 1652 l
1541 1653 l
1549 1654 l
1557 1654 l
1565 1654 l
1573 1655 l
1581 1655 l
1589 1656 l
1597 1656 l
1605 1656 l
1613 1656 l
1621 1656 l
1629 1656 l
1637 1656 l
1645 1656 l
1653 1656 l
1661 1656 l
1669 1655 l
1676 1655 l
1684 1654 l
1692 1654 l
1700 1653 l
1708 1652 l
1716 1651 l
1724 1650 l
1732 1648 l
1740 1646 l
1748 1645 l
1756 1643 l
1764 1640 l
1772 1638 l
1780 1635 l
1788 1632 l
1796 1629 l
1804 1626 l
1812 1622 l
1820 1618 l
1828 1614 l
1836 1609 l
1844 1605 l
1852 1600 l
1860 1595 l
1868 1590 l
1876 1585 l
1884 1580 l
1892 1575 l
1900 1569 l
1908 1564 l
1916 1559 l
1924 1554 l
1932 1550 l
1940 1545 l
1948 1541 l
1956 1537 l
1964 1533 l
1972 1530 l
1980 1528 l
1987 1525 l
1995 1524 l
2003 1523 l
2011 1522 l
2019 1522 l
2027 1522 l
2035 1523 l
2043 1525 l
2051 1527 l
2059 1529 l
2067 1532 l
2075 1536 l
2083 1540 l
2091 1544 l
2099 1548 l
2107 1553 l
2115 1558 l
2123 1563 l
2131 1568 l
2139 1574 l
2147 1579 l
2155 1584 l
2163 1590 l
2171 1595 l
2179 1600 l
2187 1605 l
2195 1610 l
2203 1615 l
2211 1619 l
2219 1624 l
2227 1628 l
2235 1631 l
2243 1635 l
2251 1638 l
2259 1641 l
2267 1644 l
2275 1595 l
2283 1541 l
2291 1394 l
2299 1272 l
2306 1493 l
2314 1508 l
2322 1711 l
2330 1711 l
2338 1838 l
2346 1667 l
2354 1708 l
2362 1698 l
2370 1572 l
2378 1605 l
2386 1638 l
2394 1560 l
2402 1579 l
2410 1495 l
2418 1578 l
2426 1646 l
2434 1723 l
2442 1695 l
2450 1505 l
5 sw
0.216 0.678 0.42 rgb
1 scap
st
gr
gs
pathproc 576 286 2194 1768 np rectpath
/eocl cland
np exec
855 1662 m
863 1654 l
871 1607 l
879 1486 l
887 1601 l
895 1602 l
903 1602 l
911 1602 l
919 1603 l
927 1603 l
935 1604 l
943 1604 l
951 1604 l
959 1605 l
967 1605 l
975 1606 l
983 1606 l
991 1607 l
999 1607 l
1007 1608 l
1015 1608 l
1023 1608 l
1031 1609 l
1039 1609 l
1046 1610 l
1054 1611 l
1062 1611 l
1070 1612 l
1078 1612 l
1086 1613 l
1094 1613 l
1102 1614 l
1110 1614 l
1118 1615 l
1126 1616 l
1134 1616 l
1142 1617 l
1150 1618 l
1158 1618 l
1166 1619 l
1174 1620 l
1182 1620 l
1190 1621 l
1198 1622 l
1206 1622 l
1214 1623 l
1222 1624 l
1230 1624 l
1238 1625 l
1246 1626 l
1254 1627 l
1262 1627 l
1270 1628 l
1278 1629 l
1286 1630 l
1294 1630 l
1302 1631 l
1310 1632 l
1318 1633 l
1326 1634 l
1334 1634 l
1342 1635 l
1350 1636 l
1358 1637 l
1365 1638 l
1373 1639 l
1381 1639 l
1389 1640 l
1397 1641 l
1405 1642 l
1413 1643 l
1421 1644 l
1429 1644 l
1437 1645 l
1445 1646 l
1453 1647 l
1461 1648 l
1469 1648 l
1477 1649 l
1485 1650 l
1493 1651 l
1501 1652 l
1509 1652 l
1517 1653 l
1525 1654 l
1533 1654 l
1541 1655 l
1549 1656 l
1557 1656 l
1565 1657 l
1573 1658 l
1581 1658 l
1589 1659 l
1597 1659 l
1605 1660 l
1613 1660 l
1621 1661 l
1629 1661 l
1637 1662 l
1645 1662 l
1653 1663 l
1661 1663 l
1669 1664 l
1676 1664 l
1684 1664 l
1692 1665 l
1700 1665 l
1708 1666 l
1716 1666 l
1724 1666 l
1732 1667 l
1740 1667 l
1748 1667 l
1756 1667 l
1764 1668 l
1772 1668 l
1780 1668 l
1788 1668 l
1796 1669 l
1804 1669 l
1812 1669 l
1820 1669 l
1828 1669 l
1836 1670 l
1844 1670 l
1852 1670 l
1860 1670 l
1868 1670 l
1876 1670 l
1884 1671 l
1892 1671 l
1900 1671 l
1908 1671 l
1916 1671 l
1924 1671 l
1932 1671 l
1940 1672 l
1948 1672 l
1956 1672 l
1964 1672 l
1972 1672 l
1980 1672 l
1987 1672 l
1995 1672 l
2003 1672 l
2011 1672 l
2019 1672 l
2027 1673 l
2035 1673 l
2043 1673 l
2051 1673 l
2059 1673 l
2067 1673 l
2075 1673 l
2083 1673 l
2091 1673 l
2099 1673 l
2107 1673 l
2115 1673 l
2123 1673 l
2131 1673 l
2139 1673 l
2147 1673 l
2155 1673 l
2163 1673 l
2171 1673 l
2179 1673 l
2187 1673 l
2195 1673 l
2203 1673 l
2211 1673 l
2219 1673 l
2227 1673 l
2235 1673 l
2243 1673 l
2251 1673 l
2259 1673 l
2267 1673 l
2275 1621 l
2283 1565 l
2291 1416 l
2299 1292 l
2306 1511 l
2314 1525 l
2322 1726 l
2330 1724 l
2338 1850 l
2346 1678 l
2354 1717 l
2362 1707 l
2370 1580 l
2378 1613 l
2386 1644 l
2394 1566 l
2402 1584 l
2410 1500 l
2418 1583 l
2426 1650 l
2434 1727 l
2442 1699 l
2450 1508 l
5 sw
0.694 0.467 0.871 rgb
1 scap
st
gr
gs
pathproc 576 286 2194 1768 np rectpath
/eocl cland
np exec
855 1659 m
863 1651 l
871 1604 l
879 1483 l
887 1598 l
895 1598 l
903 1599 l
911 1599 l
919 1599 l
927 1599 l
935 1600 l
943 1600 l
951 1600 l
959 1600 l
967 1601 l
975 1601 l
983 1601 l
991 1601 l
999 1602 l
1007 1602 l
1015 1602 l
1023 1602 l
1031 1602 l
1039 1603 l
1046 1603 l
1054 1603 l
1062 1603 l
1070 1603 l
1078 1603 l
1086 1603 l
1094 1603 l
1102 1603 l
1110 1603 l
1118 1603 l
1126 1603 l
1134 1602 l
1142 1602 l
1150 1602 l
1158 1601 l
1166 1601 l
1174 1600 l
1182 1599 l
1190 1598 l
1198 1596 l
1206 1595 l
1214 1593 l
1222 1591 l
1230 1588 l
1238 1585 l
1246 1582 l
1254 1578 l
1262 1574 l
1270 1568 l
1278 1562 l
1286 1555 l
1294 1547 l
1302 1537 l
1310 1527 l
1318 1514 l
1326 1500 l
1334 1484 l
1342 1466 l
1350 1446 l
1358 1424 l
1365 1399 l
1373 1371 l
1381 1341 l
1389 1309 l
1397 1274 l
1405 1236 l
1413 1196 l
1421 1155 l
1429 1112 l
1437 1067 l
1445 1022 l
1453 977 l
1461 932 l
1469 888 l
1477 845 l
1485 805 l
1493 768 l
1501 733 l
1509 703 l
1517 676 l
1525 653 l
1533 635 l
1541 622 l
1549 612 l
1557 608 l
1565 607 l
1573 610 l
1581 617 l
1589 626 l
1597 639 l
1605 653 l
1613 670 l
1621 688 l
1629 708 l
1637 728 l
1645 749 l
1653 770 l
1661 792 l
1669 814 l
1676 837 l
1684 859 l
1692 881 l
1700 904 l
1708 926 l
1716 948 l
1724 971 l
1732 993 l
1740 1016 l
1748 1038 l
1756 1061 l
1764 1083 l
1772 1105 l
1780 1127 l
1788 1148 l
1796 1169 l
1804 1190 l
1812 1210 l
1820 1229 l
1828 1248 l
1836 1266 l
1844 1283 l
1852 1299 l
1860 1314 l
1868 1328 l
1876 1342 l
1884 1354 l
1892 1365 l
1900 1376 l
1908 1386 l
1916 1395 l
1924 1403 l
1932 1410 l
1940 1417 l
1948 1424 l
1956 1430 l
1964 1435 l
1972 1441 l
1980 1446 l
1987 1451 l
1995 1455 l
2003 1460 l
2011 1465 l
2019 1470 l
2027 1475 l
2035 1480 l
2043 1485 l
2051 1490 l
2059 1496 l
2067 1502 l
2075 1508 l
2083 1514 l
2091 1520 l
2099 1526 l
2107 1533 l
2115 1539 l
2123 1546 l
2131 1552 l
2139 1559 l
2147 1565 l
2155 1571 l
2163 1578 l
2171 1584 l
2179 1589 l
2187 1595 l
2195 1601 l
2203 1606 l
2211 1611 l
2219 1616 l
2227 1620 l
2235 1624 l
2243 1628 l
2251 1632 l
2259 1635 l
2267 1638 l
2275 1589 l
2283 1535 l
2291 1389 l
2299 1268 l
2306 1488 l
2314 1504 l
2322 1707 l
2330 1706 l
2338 1834 l
2346 1663 l
2354 1704 l
2362 1695 l
2370 1569 l
2378 1602 l
2386 1635 l
2394 1557 l
2402 1576 l
2410 1493 l
2418 1576 l
2426 1644 l
2434 1721 l
2442 1693 l
2450 1502 l
5 sw
0.8 0.6 0 rgb
1 scap
st
gr
gs
gs
1 -1 sc
375 -1448 tr
90 ro
/MC2_Arial 91 self 0 0 m
(Intensity \(arb\))[24 50 24 50 50 45 19 24 45 24 29 50 29 50 29 ] xs
1 -1 sc
gr
gr
gs
1 -1 sc
/MC1_Arial 91 self 1265 -2288 m
(Binding Energy \(eV\))[60 19 50 50 19 50 50 24 60 50 50 29 50 42 24 29 50 60 29 ] xs
1 -1 sc
gr
1988 332 m
2619 332 l
2619 855 l
1988 855 l
cp
gs
1 1 1 rgb
eofi
gr
3 sw
0 sj
2 scap
st
gs
gs
gr
gs
0.318 0.318 0.318 rgb
2069 375 12 12 rectfill
1988 855 m
1 sw
1 sj
1 scap
2069 375 12 12 rectstroke
gr
1 -1 sc
/MC1_Arial 69 self 2152 -405 m
( )[18 ] xs
1 -1 sc
1 -1 sc
2171 -405 m
(Si2s CPS)[45 14 37 34 18 49 45 45 ] xs
1 -1 sc
gs
gr
gs
gs
1998 466 m
2152 466 l
5 sw
0.945 0.251 0.251 rgb
1 sj
1 scap
st
gr
gr
1 -1 sc
2152 -490 m
( )[18 ] xs
1 -1 sc
1 -1 sc
2171 -490 m
(Si2s SiO2)[45 14 37 34 18 45 14 53 37 ] xs
1 -1 sc
gs
gr
gs
gs
1998 551 m
2152 551 l
5 sw
0.102 0.435 0.875 rgb
1 sj
1 scap
st
gr
gr
1 -1 sc
2152 -575 m
( )[18 ] xs
1 -1 sc
1 -1 sc
2171 -575 m
(Si2s Silane)[45 14 37 34 18 45 14 14 37 37 37 ] xs
1 -1 sc
gs
gr
gs
gs
1998 636 m
2152 636 l
5 sw
0.216 0.678 0.42 rgb
1 sj
1 scap
st
gr
gr
1 -1 sc
2152 -660 m
( )[18 ] xs
1 -1 sc
1 -1 sc
2171 -660 m
(Si2s Si-C)[45 14 37 34 18 45 14 22 49 ] xs
1 -1 sc
gs
gr
gs
gs
1998 721 m
2152 721 l
5 sw
0.694 0.467 0.871 rgb
1 sj
1 scap
st
gr
gr
1 -1 sc
2152 -745 m
( )[18 ] xs
1 -1 sc
1 -1 sc
2171 -745 m
(BG)[45 53 ] xs
1 -1 sc
gs
gr
gs
gs
1998 806 m
2152 806 l
5 sw
0.8 0.6 0 rgb
1 sj
1 scap
st
gr
gr
1 -1 sc
2152 -830 m
( )[18 ] xs
1 -1 sc
1 -1 sc
2171 -830 m
(Si2s Envelope)[45 14 37 34 18 45 37 34 37 14 37 37 37 ] xs
1 -1 sc
gr
gr
gs
gr
Save0 restore end
showpage
%%EOF
