c:\users\heydari_m\switchdrive\documents\academic\phd\teaching\gregory\2021.02.25_gregory_sample_1.vms						
C1s						
	Characteristic Energy eV	1486,61	Acquisition Time s	0,5		
KE_C1s	BE_C1s	CPS_C1s	C 1s_1_C1s	C 1s_2_C1s	Background_C1s	Envelope_C1s
1186,61	300	533,228	534,246	534,055	533,228	535,073
1186,71	299,9	487,17	488,219	488,02	487,17	489,069
1186,81	299,8	488,556	489,636	489,428	488,556	490,509
1186,91	299,7	500,676	501,788	501,571	500,676	502,683
1187,01	299,6	494,726	495,869	495,643	494,726	496,786
1187,11	299,5	529,16	530,335	530,1	529,16	531,274
1187,21	299,4	493,202	494,408	494,164	493,202	495,37
1187,31	299,3	476,388	477,625	477,373	476,388	478,61
1187,41	299,2	475,034	476,31	476,041	475,034	477,317
1187,51	299,1	501,994	503,336	503,024	501,994	504,366
1187,61	299	502,712	504,12	503,764	502,712	505,172
1187,71	298,9	504,764	506,238	505,839	504,764	507,312
1187,81	298,8	468,646	470,185	469,743	468,646	471,283
1187,91	298,7	435,556	464,321	463,839	462,715	465,445
1188,01	298,6	483,944	464,059	463,547	462,388	465,218
1188,11	298,5	480,624	463,789	463,246	462,052	464,983
1188,21	298,4	459,964	463,508	462,938	461,706	464,74
1188,31	298,3	471,666	463,218	462,621	461,35	464,489
1188,41	298,2	432,31	462,918	462,296	460,984	464,23
1188,51	298,1	477,002	462,607	461,962	460,607	463,962
1188,61	298	441,716	462,286	461,62	460,22	463,686
1188,71	297,9	500,276	461,955	461,269	459,823	463,401
1188,81	297,8	478,448	461,614	460,911	459,416	463,108
1188,91	297,7	464,244	461,263	460,545	458,999	462,808
1189,01	297,6	515,43	460,919	460,171	458,572	462,518
1189,11	297,5	463,722	460,586	459,791	458,135	462,241
1189,21	297,4	452,938	460,248	459,402	457,688	461,963
1189,31	297,3	449,558	459,907	459,006	457,23	461,683
1189,41	297,2	453,144	459,562	458,602	456,761	461,403
1189,51	297,1	417,684	459,214	458,191	456,282	461,123
1189,61	297	473,436	458,864	457,771	455,791	460,844
1189,71	296,9	461,204	458,512	457,345	455,289	460,568
1189,81	296,8	459,662	458,16	456,912	454,777	460,295
1189,91	296,7	421,244	457,808	456,473	454,254	460,027
1190,01	296,6	474,9	457,457	456,027	453,719	459,764
1190,11	296,5	459,814	457,109	455,575	453,174	459,51
1190,21	296,4	471,96	456,764	455,117	452,618	459,263
1190,31	296,3	455,09	456,425	454,655	452,051	459,029
1190,41	296,2	470,434	456,092	454,188	451,474	458,806
1190,51	296,1	493,974	455,768	453,717	450,885	458,6
1190,61	296	445,3	455,456	453,244	450,287	458,413
1190,71	295,9	457,384	455,156	452,766	449,677	458,245
1190,81	295,8	415,034	454,873	452,287	449,057	458,103
1190,91	295,7	404,382	454,607	451,806	448,425	457,988
1191,01	295,6	444,484	454,363	451,322	447,781	457,904
1191,11	295,5	446,412	454,145	450,839	447,126	457,858
1191,21	295,4	425,3	453,96	450,356	446,46	457,856
1191,31	295,3	423,63	453,81	449,876	445,783	457,902
1191,41	295,2	437,044	453,705	449,399	445,095	458,009
1191,51	295,1	434,662	453,65	448,927	444,395	458,182
1191,61	295	442,968	453,657	448,461	443,684	458,434
1191,71	294,9	419,248	453,735	448,004	442,963	458,776
1191,81	294,8	406,108	453,897	447,558	442,23	459,224
1191,91	294,7	422,324	454,158	447,124	441,486	459,796
1192,01	294,6	431,524	454,533	446,706	440,731	460,507
1192,11	294,5	425,642	455,048	446,305	439,966	461,388
1192,21	294,4	401,986	455,716	445,926	439,189	462,454
1192,31	294,3	424,496	456,579	445,572	438,401	463,75
1192,41	294,2	411,836	457,654	445,248	437,603	465,299
1192,51	294,1	439,654	458,992	444,957	436,794	467,155
1192,61	294	463,03	460,626	444,705	435,975	469,356
1192,71	293,9	451,04	462,614	444,497	435,146	471,965
1192,81	293,8	450,51	465,014	444,34	434,308	475,047
1192,91	293,7	413,378	467,886	444,244	433,46	478,67
1193,01	293,6	510,016	471,32	444,212	432,601	482,931
1193,11	293,5	445,704	475,377	444,255	431,735	487,897
1193,21	293,4	453,626	480,194	444,381	430,859	493,715
1193,31	293,3	495,144	485,825	444,601	429,975	500,452
1193,41	293,2	481,054	492,442	444,932	429,082	508,292
1193,51	293,1	475,68	500,124	445,381	428,182	517,323
1193,61	293	507,628	509,04	445,962	427,273	527,729
1193,71	292,9	465,778	519,319	446,688	426,357	539,651
1193,81	292,8	527,78	531,107	447,578	425,432	553,253
1193,91	292,7	543,09	544,588	448,657	424,502	568,743
1194,01	292,6	546,562	559,857	449,936	423,565	586,227
1194,11	292,5	557,892	577,158	451,433	422,622	605,969
1194,21	292,4	633,678	596,514	453,169	421,674	628,01
1194,31	292,3	662,252	618,195	455,172	420,722	652,645
1194,41	292,2	635,55	642,176	457,476	419,767	679,885
1194,51	292,1	697,22	668,64	460,092	418,808	709,924
1194,61	292	761,88	697,572	463,045	417,848	742,769
1194,71	291,9	737,888	729,011	466,361	416,887	778,486
1194,81	291,8	762,92	762,93	470,071	415,925	817,076
1194,91	291,7	819,172	799,191	474,218	414,963	858,446
1195,01	291,6	943,906	837,728	478,809	414,002	902,535
1195,11	291,5	900,016	878,227	483,872	413,046	949,054
1195,21	291,4	985,688	920,535	489,429	412,092	997,873
1195,31	291,3	1050,8	964,202	495,513	411,143	1048,57
1195,41	291,2	1135	1008,89	502,166	410,201	1100,86
1195,51	291,1	1246,89	1054,1	509,385	409,268	1154,22
1195,61	291	1253,07	1099,33	517,186	408,345	1208,17
1195,71	290,9	1285,71	1144	525,582	407,434	1262,15
1195,81	290,8	1350,95	1187,53	534,59	406,534	1315,59
1195,91	290,7	1386	1229,24	544,239	405,648	1367,84
1196,01	290,6	1442,7	1268,6	554,498	404,777	1418,33
1196,11	290,5	1573,85	1304,82	565,363	403,921	1466,26
1196,21	290,4	1572,07	1337,5	576,823	403,084	1511,24
1196,31	290,3	1605,99	1365,85	588,864	402,265	1552,45
1196,41	290,2	1561,11	1389,58	601,483	401,466	1589,6
1196,51	290,1	1587,77	1408,1	614,615	400,686	1622,03
1196,61	290	1571,35	1421,15	628,22	399,925	1649,45
1196,71	289,9	1658,46	1428,47	642,25	399,183	1671,53
1196,81	289,8	1668,56	1429,83	656,654	398,463	1688,02
1196,91	289,7	1647,44	1425,36	671,375	397,764	1698,97
1197,01	289,6	1690,84	1414,88	686,324	397,087	1704,12
1197,11	289,5	1591,41	1398,89	701,424	396,433	1703,89
1197,21	289,4	1645,86	1377,31	716,588	395,798	1698,1
1197,31	289,3	1699,55	1350,84	731,729	395,186	1687,38
1197,41	289,2	1670,6	1319,71	746,737	394,597	1671,85
1197,51	289,1	1573,78	1284,58	761,515	394,03	1652,06
1197,61	289	1606,69	1245,96	775,961	393,484	1628,43
1197,71	288,9	1676,93	1204,47	789,97	392,959	1601,48
1197,81	288,8	1627,62	1160,78	803,437	392,458	1571,76
1197,91	288,7	1518,16	1115,47	816,215	391,979	1539,71
1198,01	288,6	1482,78	1069,21	828,232	391,52	1505,92
1198,11	288,5	1547,9	1022,56	839,391	391,081	1470,87
1198,21	288,4	1488,52	976,091	849,598	390,663	1435,03
1198,31	288,3	1372,75	930,321	858,759	390,265	1398,82
1198,41	288,2	1420,8	885,669	866,728	389,885	1362,51
1198,51	288,1	1350,11	842,552	873,494	389,523	1326,52
1198,61	288	1281,42	801,278	878,996	389,179	1291,09
1198,71	287,9	1260,09	762,089	883,181	388,851	1256,42
1198,81	287,8	1223,26	725,224	886,003	388,539	1222,69
1198,91	287,7	1203,68	690,728	887,356	388,242	1189,84
1199,01	287,6	1240,64	658,803	887,306	387,96	1158,15
1199,11	287,5	1160,04	629,322	885,852	387,694	1127,48
1199,21	287,4	1035,28	602,416	883,003	387,442	1097,98
1199,31	287,3	1061,53	577,889	878,775	387,202	1069,46
1199,41	287,2	1084,22	555,743	873,13	386,975	1041,9
1199,51	287,1	1041,87	535,812	866,199	386,76	1015,25
1199,61	287	927,36	517,977	858,04	386,557	989,46
1199,71	286,9	938,302	502,108	848,718	386,364	964,462
1199,81	286,8	940,874	488,01	838,309	386,182	940,137
1199,91	286,7	920,368	475,594	826,844	386,009	916,428
1200,01	286,6	906,626	464,624	814,481	385,847	893,258
1200,11	286,5	824,318	455,044	801,317	385,694	870,666
1200,21	286,4	863,032	446,626	787,45	385,55	848,527
1200,31	286,3	787,236	439,296	772,985	385,414	826,867
1200,41	286,2	764,224	432,891	758	385,285	805,606
1200,51	286,1	803,178	427,317	742,637	385,164	784,79
1200,61	286	778,114	422,467	726,999	385,05	764,416
1200,71	285,9	678,994	418,241	711,186	384,944	744,482
1200,81	285,8	668,61	414,569	695,291	384,843	725,017
1200,91	285,7	633,504	411,357	679,415	384,748	706,024
1201,01	285,6	730,564	408,566	663,646	384,657	687,556
1201,11	285,5	676,118	406,117	648,068	384,572	669,613
1201,21	285,4	614,304	403,979	632,751	384,493	652,237
1201,31	285,3	591,122	402,096	617,761	384,418	635,439
1201,41	285,2	603,814	400,44	603,184	384,347	619,277
1201,51	285,1	631,872	398,976	589,051	384,28	603,747
1201,61	285	562,226	397,679	575,406	384,218	588,868
1201,71	284,9	598,96	396,528	562,283	384,159	574,652
1201,81	284,8	617,588	395,501	549,711	384,104	561,108
1201,91	284,7	539,704	394,585	537,748	384,053	548,281
1202,01	284,6	569,98	393,762	526,376	384,005	536,133
1202,11	284,5	589,396	393,023	515,602	383,961	524,664
1202,21	284,4	574,996	392,356	505,429	383,921	513,865
1202,31	284,3	554,794	391,754	495,855	383,884	503,725
1202,41	284,2	550,87	391,207	486,907	383,851	494,263
1202,51	284,1	508,798	390,709	478,54	383,82	485,429
1202,61	284	474,846	390,255	470,736	383,792	477,199
1202,71	283,9	512,348	389,839	463,478	383,766	469,551
1202,81	283,8	546,796	389,458	456,746	383,742	462,461
1202,91	283,7	479,648	389,108	450,546	383,721	455,932
1203,01	283,6	421,154	388,786	444,825	383,702	449,909
1203,11	283,5	409,798	388,488	439,555	383,684	444,36
1203,21	283,4	419,774	388,211	434,712	383,666	439,258
1203,31	283,3	431,482	387,954	430,269	383,648	434,575
1203,41	283,2	481,168	387,715	426,222	383,632	430,305
1203,51	283,1	424,944	387,493	422,525	383,617	426,402
1203,61	283	415,984	387,286	419,152	383,603	422,835
1203,71	282,9	403,376	387,093	416,077	383,589	419,581
1203,81	282,8	421,596	386,912	413,278	383,576	416,614
1203,91	282,7	451,242	386,743	410,747	383,564	413,926
1204,01	282,6	405,644	386,584	408,45	383,552	411,481
1204,11	282,5	394,908	386,435	406,364	383,542	409,257
1204,21	282,4	368,67	386,295	404,471	383,531	407,235
1204,31	282,3	387,912	386,162	402,754	383,52	405,396
1204,41	282,2	402,902	386,037	401,205	383,509	403,732
1204,51	282,1	363,862	385,919	399,8	383,499	402,22
1204,61	282	438,178	385,807	398,526	383,488	400,844
1204,71	281,9	434,49	385,723	397,371	383,479	399,615
1204,81	281,8	405,044	385,649	396,323	383,47	398,501
1204,91	281,7	405,368	385,575	395,376	383,462	397,488
1205,01	281,6	416,988	385,501	394,515	383,454	396,562
1205,11	281,5	415,948	385,428	393,733	383,447	395,714
1205,21	281,4	360,776	385,356	393,02	383,44	394,936
1205,31	281,3	379,054	385,283	392,37	383,433	394,22
1205,41	281,2	383,672	385,21	391,779	383,427	393,563
1205,51	281,1	397,498	385,138	391,239	383,42	392,957
1205,61	281	367,474	385,065	390,744	383,413	392,396
1205,71	280,9	349,486	384,993	390,29	383,407	391,876
1205,81	280,8	385,856	384,92	389,872	383,4	391,393
1205,91	280,7	365,272	384,848	389,49	383,393	390,944
1206,01	280,6	364,952	384,775	389,137	383,386	390,526
1206,11	280,5	362,968	384,703	388,812	383,38	390,135
1206,21	280,4	356,214	384,633	388,511	383,373	389,77
1206,31	280,3	383,342	384,594	388,232	383,366	389,46
1206,41	280,2	390,012	384,556	387,973	383,359	389,17
1206,51	280,1	379,014	384,518	387,733	383,352	388,899
1206,61	280	359,86	384,479	387,51	383,345	388,644
1206,71	279,9	367,614	384,441	387,301	383,338	388,404
1206,81	279,8	397,662	384,403	387,106	383,331	388,177
1206,91	279,7	354,226	384,365	386,924	383,325	387,963
1207,01	279,6	396,392	384,327	386,753	383,318	387,761
1207,11	279,5	378,672	384,289	386,593	383,312	387,57
1207,21	279,4	403,088	384,251	386,442	383,305	387,388
1207,31	279,3	356,012	384,213	386,3	383,299	387,214
1207,41	279,2	405,008	384,176	386,167	383,293	387,05
1207,51	279,1	376,652	384,138	386,041	383,287	386,893
1207,61	279	371,844	384,101	385,922	383,281	386,743
1207,71	278,9	358,074	384,064	385,81	383,275	386,599
1207,81	278,8	374,77	384,032	385,703	383,269	386,466
1207,91	278,7	434,018	384,01	385,602	383,263	386,349
1208,01	278,6	396,822	383,988	385,508	383,259	386,237
1208,11	278,5	327,274	383,966	385,418	383,254	386,13
1208,21	278,4	383,932	383,945	385,332	383,249	386,027
1208,31	278,3	393,776	383,923	385,251	383,245	385,929
1208,41	278,2	415,58	383,902	385,173	383,24	385,835
1208,51	278,1	417,206	383,881	385,1	383,236	385,745
1208,61	278	373,02	383,861	385,031	383,233	385,659
1208,71	277,9	359,048	383,841	384,965	383,23	385,576
1208,81	277,8	362,582	383,82	384,902	383,227	385,496
1208,91	277,7	389,912	383,8	384,842	383,223	385,419
1209,01	277,6	369,532	383,78	384,784	383,22	385,344
1209,11	277,5	379,004	383,76	384,729	383,217	385,272
1209,21	277,4	393,456	383,74	384,677	383,214	385,203
1209,31	277,3	379,512	383,72	384,627	383,211	385,136
1209,41	277,2	423,584	383,706	384,578	383,208	385,076
1209,51	277,1	376,924	383,694	384,533	383,206	385,02
1209,61	277	372,034	383,681	384,489	383,204	384,967
1209,71	276,9	401,136	383,669	384,447	383,202	384,915
1209,81	276,8	409,724	383,658	384,408	383,2	384,865
1209,91	276,7	360,922	383,646	384,37	383,199	384,817
1210,01	276,6	347,958	383,635	384,334	383,198	384,771
1210,11	276,5	415,01	383,624	384,301	383,197	384,729
1210,21	276,4	364,108	383,614	384,278	383,196	384,696
1210,31	276,3	414,688	383,603	384,255	383,195	384,663
1210,41	276,2	370,79	371,188	371,827	370,79	372,225
1210,51	276,1	364,402	364,79	365,417	364,402	365,805
1210,61	276	381	381,378	381,992	381	382,37
1210,71	275,9	368,414	368,782	369,384	368,414	369,752
1210,81	275,8	390,808	391,166	391,755	390,808	392,113
1210,91	275,7	397,946	398,294	398,871	397,946	399,219
1211,01	275,6	402,092	402,434	402,994	402,092	403,336
1211,11	275,5	363,042	363,378	363,922	363,042	364,258
1211,21	275,4	379,612	379,941	380,469	379,612	380,799
1211,31	275,3	372,848	373,171	373,683	372,848	374,006
1211,41	275,2	335,906	336,223	336,719	335,906	337,035
1211,51	275,1	359,838	360,149	360,628	359,838	360,939
1211,61	275	391,276	391,58	392,044	391,276	392,348